
[Server] packet : (0x0A) F_OBJECT_DEATH  Size = 15 
|------------------------------------------------|----------------|
|00 01 02 03 04 05 06 07 08 09 0A 0B 0C 0D 0E 0F |0123456789ABCDEF|
|------------------------------------------------|----------------|
|00 0C 0A 2F 8C 00 00 00 00 00 00 00 00 00 00    |............... |
-------------------------------------------------------------------
[Server] packet : (0x0A) F_OBJECT_DEATH  Size = 15 
|------------------------------------------------|----------------|
|00 01 02 03 04 05 06 07 08 09 0A 0B 0C 0D 0E 0F |0123456789ABCDEF|
|------------------------------------------------|----------------|
|00 0C 0A 35 C8 00 00 00 00 00 00 00 00 00 00    |............... |
-------------------------------------------------------------------
[Client] packet : (0x01) UNKNOWN  Size = 32 
|------------------------------------------------|----------------|
|00 01 02 03 04 05 06 07 08 09 0A 0B 0C 0D 0E 0F |0123456789ABCDEF|
|------------------------------------------------|----------------|
|00 14 79 E8 00 1E 00 00 00 01 00 7F B6 3A 20 07 |..y..........: .|
|2A 68 90 38 40 04 00 23 39 F1 08 18 ED DA CF 02 |*h.8@..#9.......|                                                
-------------------------------------------------------------------
[Client] packet : (0xE8) F_CLIENT_DATA  Size = 20 
|------------------------------------------------|----------------|
|00 01 02 03 04 05 06 07 08 09 0A 0B 0C 0D 0E 0F |0123456789ABCDEF|
|------------------------------------------------|----------------|
|00 08 79 EC 00 1E 00 00 00 E8 00 34 00 04 6B 21 |..y........4..k!|
|01 00 00 00                                     |....            |
-------------------------------------------------------------------
[Server] packet : (0x00) UNKNOWN  Size = 23 
|------------------------------------------------|----------------|
|00 01 02 03 04 05 06 07 08 09 0A 0B 0C 0D 0E 0F |0123456789ABCDEF|
|------------------------------------------------|----------------|
|00 14 00 00 7F B6 3A 79 80 0D DD 00 00 00 00 00 |......:y........|
|23 39 F1 08 18 ED 00                            |.......         |
-------------------------------------------------------------------
[Server] packet : (0x0A) F_OBJECT_DEATH  Size = 15 
|------------------------------------------------|----------------|
|00 01 02 03 04 05 06 07 08 09 0A 0B 0C 0D 0E 0F |0123456789ABCDEF|
|------------------------------------------------|----------------|
|00 0C 0A 26 BE 00 00 00 00 00 00 00 00 00 00    |............... |
-------------------------------------------------------------------
[Server] packet : (0x72) F_CREATE_MONSTER  Size = 101 
|------------------------------------------------|----------------|
|00 01 02 03 04 05 06 07 08 09 0A 0B 0C 0D 0E 0F |0123456789ABCDEF|
|------------------------------------------------|----------------|
|00 62 72 0A 47 00 00 0C 00 0C 97 00 0D 08 E4 00 |.br.G...........|
|0D 92 5A 00 00 03 E7 32 01 40 00 00 00 00 00 00 |..Z....2.@......|
|00 01 00 03 E8 00 00 00 01 53 A8 00 00 00 00 01 |.........S......|
|19 00 44 61 65 6D 6F 6E 20 4D 61 74 72 69 78 5E |..Daemon Matrix^|
|66 00 00 00 00 4F 01 0A 00 00 00 12 05 00 0A 47 |f....O.........G|
|88 E4 12 5A 0C 97 64 00 6A 00 00 00 00 4F 00 0C |...Z..d.j....O..|
|0A 47 00 00 00                                  |.....           |
-------------------------------------------------------------------
[Server] packet : (0x72) F_CREATE_MONSTER  Size = 101 
|------------------------------------------------|----------------|
|00 01 02 03 04 05 06 07 08 09 0A 0B 0C 0D 0E 0F |0123456789ABCDEF|
|------------------------------------------------|----------------|
|00 62 72 0B 3D 00 00 0C 00 0C 95 00 0D 09 7E 00 |.br.=.........~.|
|0D 91 B1 00 00 03 E7 32 01 40 00 00 00 00 00 00 |.......2.@......|
|00 01 00 03 E8 00 00 00 01 53 A8 00 08 00 00 01 |.........S......|
|19 00 44 61 65 6D 6F 6E 20 4D 61 74 72 69 78 5E |..Daemon Matrix^|
|66 00 00 00 00 4F 01 0A 00 00 00 12 05 00 0B 3D |f....O.........=|
|89 7E 11 B1 0C 95 64 00 6A 00 00 00 00 4F 00 0C |.~....d.j....O..|
|0B 3D 00 00 00                                  |.....           |
-------------------------------------------------------------------
[Server] packet : (0x72) F_CREATE_MONSTER  Size = 101 
|------------------------------------------------|----------------|
|00 01 02 03 04 05 06 07 08 09 0A 0B 0C 0D 0E 0F |0123456789ABCDEF|
|------------------------------------------------|----------------|
|00 62 72 34 46 00 00 0C 00 0C E0 00 0D 08 77 00 |.br4F.........w.|
|0D 94 C5 00 00 03 E7 32 01 40 00 00 00 00 00 00 |.......2.@......|
|00 01 00 03 E8 00 00 00 01 53 A8 00 06 00 00 01 |.........S......|
|19 00 44 61 65 6D 6F 6E 20 4D 61 74 72 69 78 5E |..Daemon Matrix^|
|66 00 00 00 00 4F 01 0A 00 00 00 12 05 00 34 46 |f....O........4F|
|88 77 14 C5 0C E0 64 00 6A 00 00 00 00 4F 00 0C |.w....d.j....O..|
|34 46 00 00 00                                  |.....           |
-------------------------------------------------------------------
[Client] packet : (0x0B) F_PING  Size = 32 
|------------------------------------------------|----------------|
|00 01 02 03 04 05 06 07 08 09 0A 0B 0C 0D 0E 0F |0123456789ABCDEF|
|------------------------------------------------|----------------|
|00 14 79 EE 00 1E 00 00 00 0B 00 7F C0 06 CA E3 |..y.............|
|FD F1 CC 39 CC CF 00 00 00 00 00 00 00 00 FE 14 |...9............|                                                
-------------------------------------------------------------------
[Server] packet : (0x96) F_KEEP_STATUS  Size = 29 
|------------------------------------------------|----------------|
|00 01 02 03 04 05 06 07 08 09 0A 0B 0C 0D 0E 0F |0123456789ABCDEF|
|------------------------------------------------|----------------|
|00 1A 96 18 02 00 02 02 00 64 00 00 00 00 00 00 |.........d......|
|00 00 00 00 00 00 00 00 00 00 00 00 00          |.............   |
-------------------------------------------------------------------
[Server] packet : (0x81) S_PONG  Size = 23 
|------------------------------------------------|----------------|
|00 01 02 03 04 05 06 07 08 09 0A 0B 0C 0D 0E 0F |0123456789ABCDEF|
|------------------------------------------------|----------------|
|00 14 81 00 7F C0 06 52 74 BC 92 00 00 00 00 00 |.......Rt.......|
|00 79 EF 00 00 00 00                            |.......         |
-------------------------------------------------------------------
[Server] packet : (0x0A) F_OBJECT_DEATH  Size = 15 
|------------------------------------------------|----------------|
|00 01 02 03 04 05 06 07 08 09 0A 0B 0C 0D 0E 0F |0123456789ABCDEF|
|------------------------------------------------|----------------|
|00 0C 0A 13 6F 00 00 00 00 00 00 00 00 00 00    |............... |
-------------------------------------------------------------------
[Server] packet : (0x0A) F_OBJECT_DEATH  Size = 15 
|------------------------------------------------|----------------|
|00 01 02 03 04 05 06 07 08 09 0A 0B 0C 0D 0E 0F |0123456789ABCDEF|
|------------------------------------------------|----------------|
|00 0C 0A 0A 47 00 00 00 00 00 00 00 00 00 00    |............... |
-------------------------------------------------------------------
[Server] packet : (0x0A) F_OBJECT_DEATH  Size = 15 
|------------------------------------------------|----------------|
|00 01 02 03 04 05 06 07 08 09 0A 0B 0C 0D 0E 0F |0123456789ABCDEF|
|------------------------------------------------|----------------|
|00 0C 0A 0B 3D 00 00 00 00 00 00 00 00 00 00    |............... |
-------------------------------------------------------------------
[Server] packet : (0x0A) F_OBJECT_DEATH  Size = 15 
|------------------------------------------------|----------------|
|00 01 02 03 04 05 06 07 08 09 0A 0B 0C 0D 0E 0F |0123456789ABCDEF|
|------------------------------------------------|----------------|
|00 0C 0A 26 DB 00 00 00 00 00 00 00 00 00 00    |............... |
-------------------------------------------------------------------
[Client] packet : (0xD2) F_INTERACT  Size = 24 
|------------------------------------------------|----------------|
|00 01 02 03 04 05 06 07 08 09 0A 0B 0C 0D 0E 0F |0123456789ABCDEF|
|------------------------------------------------|----------------|
|00 0C 79 F1 00 1E 00 00 00 D2 00 00 07 A7 00 00 |..y.............|
|00 00 00 00 00 00 00 00                         |........        |
-------------------------------------------------------------------
[Server] packet : (0x72) F_CREATE_MONSTER  Size = 101 
|------------------------------------------------|----------------|
|00 01 02 03 04 05 06 07 08 09 0A 0B 0C 0D 0E 0F |0123456789ABCDEF|
|------------------------------------------------|----------------|
|00 62 72 11 A3 00 00 0C 00 0C 7D 00 0D 07 A6 00 |.br.......}.....|
|0D 91 B3 00 00 03 E7 32 01 40 00 00 00 00 00 00 |.......2.@......|
|00 01 00 03 E8 00 00 00 01 53 A8 00 04 00 00 01 |.........S......|
|19 00 44 61 65 6D 6F 6E 20 4D 61 74 72 69 78 5E |..Daemon Matrix^|
|66 00 00 00 00 4F 01 0A 00 00 00 12 05 00 11 A3 |f....O..........|
|87 A6 11 B3 0C 7D 64 00 6A 00 00 00 00 4F 00 0C |.....}d.j....O..|
|11 A3 00 00 00                                  |.....           |
-------------------------------------------------------------------
[Server] packet : (0x7E) F_SET_ABILITY_TIMER  Size = 15 
|------------------------------------------------|----------------|
|00 01 02 03 04 05 06 07 08 09 0A 0B 0C 0D 0E 0F |0123456789ABCDEF|
|------------------------------------------------|----------------|
|00 0C 7E 00 01 01 00 00 00 00 00 00 00 00 00    |............... |
-------------------------------------------------------------------
[Server] packet : (0xE9) F_INTERACT_RESPONSE  Size = 11 
|------------------------------------------------|----------------|
|00 01 02 03 04 05 06 07 08 09 0A 0B 0C 0D 0E 0F |0123456789ABCDEF|
|------------------------------------------------|----------------|
|00 08 E9 00 07 A7 00 00 00 02 00                |...........     |
-------------------------------------------------------------------
[Client] packet : (0xD2) F_INTERACT  Size = 24 
|------------------------------------------------|----------------|
|00 01 02 03 04 05 06 07 08 09 0A 0B 0C 0D 0E 0F |0123456789ABCDEF|
|------------------------------------------------|----------------|
|00 0C 79 F2 00 1E 00 00 00 D2 00 00 07 A7 00 09 |..y.............|
|00 00 00 00 00 00 C7 5F                         |........        |
-------------------------------------------------------------------
[Server] packet : (0xBF) F_INIT_STORE  Size = 4470 
|------------------------------------------------|----------------|
|00 01 02 03 04 05 06 07 08 09 0A 0B 0C 0D 0E 0F |0123456789ABCDEF|
|------------------------------------------------|----------------|
|11 73 BF 00 00 00 10 01 00 00 00 00 03 00 00 00 |.s..............|
|00 00 00 03 2E 6A 01 A4 00 00 00 00 00 00 00 00 |.....j..........|
|00 24 00 00 00 00 00 01 00 00 00 00 00 00 00 00 |.$..............|
|00 00 00 00 00 00 00 FA 00 01 00 00 00 00 00 00 |................|
|00 00 00 00 00 00 2F 44 6F 6F 6D 66 6C 61 79 65 |....../Doomflaye|
|72 20 49 6E 73 69 67 6E 69 61 73 0A 45 78 63 68 |r Insignias.Exch|
|61 6E 67 65 20 42 61 67 20 6F 66 20 57 61 72 20 |ange Bag of War |
|43 72 65 73 74 73 00 00 00 00 00 00 63 52 65 63 |Crests......cRec|
|65 69 76 65 64 20 61 66 74 65 72 20 65 78 63 68 |eived after exch|
|61 6E 67 69 6E 67 20 73 6F 6D 65 20 6F 6C 64 20 |anging some old |
|44 6F 6F 6D 66 6C 61 79 65 72 20 49 6E 73 69 67 |Doomflayer Insig|
|6E 69 61 73 2E 0A 0A 43 6F 6E 76 65 72 74 20 74 |nias...Convert t|
|68 69 73 20 69 74 65 6D 20 74 6F 20 63 6C 61 69 |his item to clai|
|6D 20 31 30 20 57 61 72 20 43 72 65 73 74 73 2E |m 10 War Crests.|
|01 01 00 00 03 06 80 08 00 00 00 00 00 00 00 00 |................|
|00 00 00 00 00 00 00 00 00 00 00 01 00 03 2E 4D |...............M|
|22 A7 13 44 6F 6F 6D 66 6C 61 79 65 72 20 49 6E |"..Doomflayer In|
|73 69 67 6E 69 61 00 02 00 00 00 00 00 00 00 00 |signia..........|
|00 00 00 00 00 00 00 00 00 00 01 03 00 00 00 00 |................|
|00 00 03 1D 44 0F 2B 00 00 00 00 00 00 00 00 00 |....D.+.........|
|24 00 00 00 00 00 01 00 00 00 00 00 00 00 00 00 |$...............|
|00 00 00 00 00 00 19 00 01 00 00 00 00 00 00 00 |................|
|00 00 00 00 00 2F 44 6F 6F 6D 66 6C 61 79 65 72 |...../Doomflayer|
|20 49 6E 73 69 67 6E 69 61 73 0A 45 78 63 68 61 | Insignias.Excha|
|6E 67 65 20 42 61 67 20 6F 66 20 57 61 72 20 43 |nge Bag of War C|
|72 65 73 74 73 00 00 00 00 00 00 64 52 65 63 65 |rests......dRece|
|69 76 65 64 20 61 66 74 65 72 20 65 78 63 68 61 |ived after excha|
|6E 67 69 6E 67 20 73 6F 6D 65 20 6F 6C 64 20 44 |nging some old D|
|6F 6F 6D 66 6C 61 79 65 72 20 49 6E 73 69 67 6E |oomflayer Insign|
|69 61 73 2E 0A 0A 43 6F 6E 76 65 72 74 20 74 68 |ias...Convert th|
|69 73 20 69 74 65 6D 20 74 6F 20 63 6C 61 69 6D |is item to claim|
|20 31 30 30 20 57 61 72 20 43 72 65 73 74 73 2E | 100 War Crests.|
|01 01 00 00 03 06 80 08 00 00 00 00 00 00 00 00 |................|
|00 00 00 00 00 00 00 00 00 00 00 01 00 03 2E 4D |...............M|
|22 A7 13 44 6F 6F 6D 66 6C 61 79 65 72 20 49 6E |"..Doomflayer In|
|73 69 67 6E 69 61 00 14 00 00 00 00 00 00 00 00 |signia..........|
|00 00 00 00 00 00 00 00 00 00 02 03 00 00 00 00 |................|
|00 00 03 2E 6B 01 A4 00 00 00 00 00 00 00 00 00 |....k...........|
|24 00 00 00 00 00 01 00 00 00 00 00 00 00 00 00 |$...............|
|00 00 00 00 00 00 FA 00 01 00 00 00 00 00 00 00 |................|
|00 00 00 00 00 2A 43 61 70 74 61 69 6E 20 45 6D |.....*Captain Em|
|62 6C 65 6D 73 0A 45 78 63 68 61 6E 67 65 20 42 |blems.Exchange B|
|61 67 20 6F 66 20 57 61 72 20 43 72 65 73 74 73 |ag of War Crests|
|00 00 00 00 00 00 5E 52 65 63 65 69 76 65 64 20 |......^Received |
|61 66 74 65 72 20 65 78 63 68 61 6E 67 69 6E 67 |after exchanging|
|20 73 6F 6D 65 20 6F 6C 64 20 43 61 70 74 61 69 | some old Captai|
|6E 20 45 6D 62 6C 65 6D 73 2E 0A 0A 43 6F 6E 76 |n Emblems...Conv|
|65 72 74 20 74 68 69 73 20 69 74 65 6D 20 74 6F |ert this item to|
|20 63 6C 61 69 6D 20 31 30 20 57 61 72 20 43 72 | claim 10 War Cr|
|65 73 74 73 2E 01 01 00 00 03 06 80 08 00 00 00 |ests............|
|00 00 00 00 00 00 00 00 00 00 00 00 00 00 00 00 |................|
|01 00 03 2E 4B 22 A6 10 43 61 70 74 61 69 6E 27 |....K"..Captain'|
|73 20 45 6D 62 6C 65 6D 00 02 00 00 00 00 00 00 |s Emblem........|
|00 00 00 00 00 00 00 00 00 00 00 00 03 03 00 00 |................|
|00 00 00 00 03 1D 45 0F 2B 00 00 00 00 00 00 00 |......E.+.......|
|00 00 24 00 00 00 00 00 01 00 00 00 00 00 00 00 |..$.............|
|00 00 00 00 00 00 00 00 19 00 01 00 00 00 00 00 |................|
|00 00 00 00 00 00 00 2A 43 61 70 74 61 69 6E 20 |.......*Captain |
|45 6D 62 6C 65 6D 73 0A 45 78 63 68 61 6E 67 65 |Emblems.Exchange|
|20 42 61 67 20 6F 66 20 57 61 72 20 43 72 65 73 | Bag of War Cres|
|74 73 00 00 00 00 00 00 5F 52 65 63 65 69 76 65 |ts......_Receive|
|64 20 61 66 74 65 72 20 65 78 63 68 61 6E 67 69 |d after exchangi|
|6E 67 20 73 6F 6D 65 20 6F 6C 64 20 43 61 70 74 |ng some old Capt|
|61 69 6E 20 45 6D 62 6C 65 6D 73 2E 0A 0A 43 6F |ain Emblems...Co|
|6E 76 65 72 74 20 74 68 69 73 20 69 74 65 6D 20 |nvert this item |
|74 6F 20 63 6C 61 69 6D 20 31 30 30 20 57 61 72 |to claim 100 War|
|20 43 72 65 73 74 73 2E 01 01 00 00 03 06 80 08 | Crests.........|
|00 00 00 00 00 00 00 00 00 00 00 00 00 00 00 00 |................|
|00 00 00 01 00 03 2E 4B 22 A6 10 43 61 70 74 61 |.......K"..Capta|
|69 6E 27 73 20 45 6D 62 6C 65 6D 00 14 00 00 00 |in's Emblem.....|
|00 00 00 00 00 00 00 00 00 00 00 00 00 00 00 04 |................|
|03 00 00 00 00 00 00 03 2E 6C 01 A4 00 00 00 00 |.........l......|
|00 00 00 00 00 24 00 00 00 00 00 01 00 00 00 00 |.....$..........|
|00 00 00 00 00 00 00 00 00 00 00 FA 00 01 00 00 |................|
|00 00 00 00 00 00 00 00 00 00 2A 52 6F 79 61 6C |..........*Royal|
|20 49 6E 73 69 67 6E 69 61 73 0A 45 78 63 68 61 | Insignias.Excha|
|6E 67 65 20 42 61 67 20 6F 66 20 57 61 72 20 43 |nge Bag of War C|
|72 65 73 74 73 00 00 00 00 00 00 5D 52 65 63 65 |rests......]Rece|
|69 76 65 64 20 61 66 74 65 72 20 65 78 63 68 61 |ived after excha|
|6E 67 69 6E 67 20 73 6F 6D 65 20 6F 6C 64 20 52 |nging some old R|
|6F 79 61 6C 20 49 6E 73 69 67 6E 69 61 73 2E 0A |oyal Insignias..|
|0A 43 6F 6E 76 65 72 74 20 74 68 69 73 20 69 74 |.Convert this it|
|65 6D 20 74 6F 20 63 6C 61 69 6D 20 38 20 57 61 |em to claim 8 Wa|
|72 20 43 72 65 73 74 73 2E 01 01 00 00 03 06 80 |r Crests........|
|08 00 00 00 00 00 00 00 00 00 00 00 00 00 00 00 |................|
|00 00 00 00 01 00 03 2E 3B 22 81 0E 52 6F 79 61 |........;"..Roya|
|6C 20 49 6E 73 69 67 6E 69 61 00 02 00 00 00 00 |l Insignia......|
|00 00 00 00 00 00 00 00 00 00 00 00 00 00 05 03 |................|
|00 00 00 00 00 00 03 1D 46 0F 2B 00 00 00 00 00 |........F.+.....|
|00 00 00 00 24 00 00 00 00 00 01 00 00 00 00 00 |....$...........|
|00 00 00 00 00 00 00 00 00 00 19 00 01 00 00 00 |................|
|00 00 00 00 00 00 00 00 00 2A 52 6F 79 61 6C 20 |.........*Royal |
|49 6E 73 69 67 6E 69 61 73 0A 45 78 63 68 61 6E |Insignias.Exchan|
|67 65 20 42 61 67 20 6F 66 20 57 61 72 20 43 72 |ge Bag of War Cr|
|65 73 74 73 00 00 00 00 00 00 5E 52 65 63 65 69 |ests......^Recei|
|76 65 64 20 61 66 74 65 72 20 65 78 63 68 61 6E |ved after exchan|
|67 69 6E 67 20 73 6F 6D 65 20 6F 6C 64 20 52 6F |ging some old Ro|
|79 61 6C 20 49 6E 73 69 67 6E 69 61 73 2E 0A 0A |yal Insignias...|
|43 6F 6E 76 65 72 74 20 74 68 69 73 20 69 74 65 |Convert this ite|
|6D 20 74 6F 20 63 6C 61 69 6D 20 38 30 20 57 61 |m to claim 80 Wa|
|72 20 43 72 65 73 74 73 2E 01 01 00 00 03 06 80 |r Crests........|
|08 00 00 00 00 00 00 00 00 00 00 00 00 00 00 00 |................|
|00 00 00 00 01 00 03 2E 3B 22 81 0E 52 6F 79 61 |........;"..Roya|
|6C 20 49 6E 73 69 67 6E 69 61 00 14 00 00 00 00 |l Insignia......|
|00 00 00 00 00 00 00 00 00 00 00 00 00 00 06 03 |................|
|00 00 00 00 00 00 03 2E 6D 01 A4 00 00 00 00 00 |........m.......|
|00 00 00 00 24 00 00 00 00 00 01 00 00 00 00 00 |....$...........|
|00 00 00 00 00 00 00 00 00 00 FA 00 01 00 00 00 |................|
|00 00 00 00 00 00 00 00 00 2C 57 61 72 6C 6F 72 |.........,Warlor|
|64 20 49 6E 73 69 67 6E 69 61 73 0A 45 78 63 68 |d Insignias.Exch|
|61 6E 67 65 20 42 61 67 20 6F 66 20 57 61 72 20 |ange Bag of War |
|43 72 65 73 74 73 00 00 00 00 00 00 5F 52 65 63 |Crests......_Rec|
|65 69 76 65 64 20 61 66 74 65 72 20 65 78 63 68 |eived after exch|
|61 6E 67 69 6E 67 20 73 6F 6D 65 20 6F 6C 64 20 |anging some old |
|57 61 72 6C 6F 72 64 20 49 6E 73 69 67 6E 69 61 |Warlord Insignia|
|73 2E 0A 0A 43 6F 6E 76 65 72 74 20 74 68 69 73 |s...Convert this|
|20 69 74 65 6D 20 74 6F 20 63 6C 61 69 6D 20 39 | item to claim 9|
|20 57 61 72 20 43 72 65 73 74 73 2E 01 01 00 00 | War Crests.....|
|03 06 80 08 00 00 00 00 00 00 00 00 00 00 00 00 |................|
|00 00 00 00 00 00 00 01 00 03 2E 35 22 82 12 57 |...........5"..W|
|61 72 6C 6F 72 64 27 73 20 49 6E 73 69 67 6E 69 |arlord's Insigni|
|61 00 03 00 00 00 00 00 00 00 00 00 00 00 00 00 |a...............|
|00 00 00 00 00 07 03 00 00 00 00 00 00 03 1D 47 |...............G|
|0F 2B 00 00 00 00 00 00 00 00 00 24 00 00 00 00 |.+.........$....|
|00 01 00 00 00 00 00 00 00 00 00 00 00 00 00 00 |................|
|00 19 00 01 00 00 00 00 00 00 00 00 00 00 00 00 |................|
|2C 57 61 72 6C 6F 72 64 20 49 6E 73 69 67 6E 69 |,Warlord Insigni|
|61 73 0A 45 78 63 68 61 6E 67 65 20 42 61 67 20 |as.Exchange Bag |
|6F 66 20 57 61 72 20 43 72 65 73 74 73 00 00 00 |of War Crests...|
|00 00 00 60 52 65 63 65 69 76 65 64 20 61 66 74 |...`Received aft|
|65 72 20 65 78 63 68 61 6E 67 69 6E 67 20 73 6F |er exchanging so|
|6D 65 20 6F 6C 64 20 57 61 72 6C 6F 72 64 20 49 |me old Warlord I|
|6E 73 69 67 6E 69 61 73 2E 0A 0A 43 6F 6E 76 65 |nsignias...Conve|
|72 74 20 74 68 69 73 20 69 74 65 6D 20 74 6F 20 |rt this item to |
|63 6C 61 69 6D 20 39 30 20 57 61 72 20 43 72 65 |claim 90 War Cre|
|73 74 73 2E 01 01 00 00 03 06 80 08 00 00 00 00 |sts.............|
|00 00 00 00 00 00 00 00 00 00 00 00 00 00 00 01 |................|
|00 03 2E 35 22 82 12 57 61 72 6C 6F 72 64 27 73 |...5"..Warlord's|
|20 49 6E 73 69 67 6E 69 61 00 1E 00 00 00 00 00 | Insignia.......|
|00 00 00 00 00 00 00 00 00 00 00 00 00 08 03 00 |................|
|00 00 00 00 00 03 2E 6E 01 A4 00 00 00 00 00 00 |.......n........|
|00 00 00 24 00 00 00 00 00 01 00 00 00 00 00 00 |...$............|
|00 00 00 00 00 00 00 00 00 FA 00 01 00 00 00 00 |................|
|00 00 00 00 00 00 00 00 2C 49 6E 76 61 64 65 72 |........,Invader|
|20 49 6E 73 69 67 6E 69 61 73 0A 45 78 63 68 61 | Insignias.Excha|
|6E 67 65 20 42 61 67 20 6F 66 20 57 61 72 20 43 |nge Bag of War C|
|72 65 73 74 73 00 00 00 00 00 00 60 52 65 63 65 |rests......`Rece|
|69 76 65 64 20 61 66 74 65 72 20 65 78 63 68 61 |ived after excha|
|6E 67 69 6E 67 20 73 6F 6D 65 20 6F 6C 64 20 49 |nging some old I|
|6E 76 61 64 65 72 20 49 6E 73 69 67 6E 69 61 73 |nvader Insignias|
|2E 0A 0A 43 6F 6E 76 65 72 74 20 74 68 69 73 20 |...Convert this |
|69 74 65 6D 20 74 6F 20 63 6C 61 69 6D 20 31 30 |item to claim 10|
|20 57 61 72 20 43 72 65 73 74 73 2E 01 01 00 00 | War Crests.....|
|03 06 80 08 00 00 00 00 00 00 00 00 00 00 00 00 |................|
|00 00 00 00 00 00 00 01 00 03 2E 34 22 80 12 49 |...........4"..I|
|6E 76 61 64 65 72 27 73 20 49 6E 73 69 67 6E 69 |nvader's Insigni|
|61 00 05 00 00 00 00 00 00 00 00 00 00 00 00 00 |a...............|
|00 00 00 00 00 09 03 00 00 00 00 00 00 03 1D 48 |...............H|
|0F 2B 00 00 00 00 00 00 00 00 00 24 00 00 00 00 |.+.........$....|
|00 01 00 00 00 00 00 00 00 00 00 00 00 00 00 00 |................|
|00 19 00 01 00 00 00 00 00 00 00 00 00 00 00 00 |................|
|2C 49 6E 76 61 64 65 72 20 49 6E 73 69 67 6E 69 |,Invader Insigni|
|61 73 0A 45 78 63 68 61 6E 67 65 20 42 61 67 20 |as.Exchange Bag |
|6F 66 20 57 61 72 20 43 72 65 73 74 73 00 00 00 |of War Crests...|
|00 00 00 61 52 65 63 65 69 76 65 64 20 61 66 74 |...aReceived aft|
|65 72 20 65 78 63 68 61 6E 67 69 6E 67 20 73 6F |er exchanging so|
|6D 65 20 6F 6C 64 20 49 6E 76 61 64 65 72 20 49 |me old Invader I|
|6E 73 69 67 6E 69 61 73 2E 0A 0A 43 6F 6E 76 65 |nsignias...Conve|
|72 74 20 74 68 69 73 20 69 74 65 6D 20 74 6F 20 |rt this item to |
|63 6C 61 69 6D 20 31 30 30 20 57 61 72 20 43 72 |claim 100 War Cr|
|65 73 74 73 2E 01 01 00 00 03 06 80 08 00 00 00 |ests............|
|00 00 00 00 00 00 00 00 00 00 00 00 00 00 00 00 |................|
|01 00 03 2E 34 22 80 12 49 6E 76 61 64 65 72 27 |....4"..Invader'|
|73 20 49 6E 73 69 67 6E 69 61 00 32 00 00 00 00 |s Insignia.2....|
|00 00 00 00 00 00 00 00 00 00 00 00 00 00 0A 03 |................|
|00 00 00 00 00 00 03 2E 6F 01 A4 00 00 00 00 00 |........o.......|
|00 00 00 00 24 00 00 00 00 00 01 00 00 00 00 00 |....$...........|
|00 00 00 00 00 00 00 00 00 00 FA 00 01 00 00 00 |................|
|00 00 00 00 00 00 00 00 00 2E 43 6F 6E 71 75 65 |..........Conque|
|72 6F 72 20 49 6E 73 69 67 6E 69 61 73 0A 45 78 |ror Insignias.Ex|
|63 68 61 6E 67 65 20 42 61 67 20 6F 66 20 57 61 |change Bag of Wa|
|72 20 43 72 65 73 74 73 00 00 00 00 00 00 62 52 |r Crests......bR|
|65 63 65 69 76 65 64 20 61 66 74 65 72 20 65 78 |eceived after ex|
|63 68 61 6E 67 69 6E 67 20 73 6F 6D 65 20 6F 6C |changing some ol|
|64 20 43 6F 6E 71 75 65 72 6F 72 20 49 6E 73 69 |d Conqueror Insi|
|67 6E 69 61 73 2E 0A 0A 43 6F 6E 76 65 72 74 20 |gnias...Convert |
|74 68 69 73 20 69 74 65 6D 20 74 6F 20 63 6C 61 |this item to cla|
|69 6D 20 31 30 20 57 61 72 20 43 72 65 73 74 73 |im 10 War Crests|
|2E 01 01 00 00 03 06 80 08 00 00 00 00 00 00 00 |................|
|00 00 00 00 00 00 00 00 00 00 00 00 01 00 03 2E |................|
|33 22 7F 14 43 6F 6E 71 75 65 72 6F 72 27 73 20 |3"..Conqueror's |
|49 6E 73 69 67 6E 69 61 00 0A 00 00 00 00 00 00 |Insignia........|
|00 00 00 00 00 00 00 00 00 00 00 00 0B 03 00 00 |................|
|00 00 00 00 03 1D 49 0F 2B 00 00 00 00 00 00 00 |......I.+.......|
|00 00 24 00 00 00 00 00 01 00 00 00 00 00 00 00 |..$.............|
|00 00 00 00 00 00 00 00 19 00 01 00 00 00 00 00 |................|
|00 00 00 00 00 00 00 2E 43 6F 6E 71 75 65 72 6F |........Conquero|
|72 20 49 6E 73 69 67 6E 69 61 73 0A 45 78 63 68 |r Insignias.Exch|
|61 6E 67 65 20 42 61 67 20 6F 66 20 57 61 72 20 |ange Bag of War |
|43 72 65 73 74 73 00 00 00 00 00 00 63 52 65 63 |Crests......cRec|
|65 69 76 65 64 20 61 66 74 65 72 20 65 78 63 68 |eived after exch|
|61 6E 67 69 6E 67 20 73 6F 6D 65 20 6F 6C 64 20 |anging some old |
|43 6F 6E 71 75 65 72 6F 72 20 49 6E 73 69 67 6E |Conqueror Insign|
|69 61 73 2E 0A 0A 43 6F 6E 76 65 72 74 20 74 68 |ias...Convert th|
|69 73 20 69 74 65 6D 20 74 6F 20 63 6C 61 69 6D |is item to claim|
|20 31 30 30 20 57 61 72 20 43 72 65 73 74 73 2E | 100 War Crests.|
|01 01 00 00 03 06 80 08 00 00 00 00 00 00 00 00 |................|
|00 00 00 00 00 00 00 00 00 00 00 01 00 03 2E 33 |...............3|
|22 7F 14 43 6F 6E 71 75 65 72 6F 72 27 73 20 49 |"..Conqueror's I|
|6E 73 69 67 6E 69 61 00 64 00 00 00 00 00 00 00 |nsignia.d.......|
|00 00 00 00 00 00 00 00 00 00 00 0C 03 00 00 00 |................|
|00 00 00 03 2E 70 01 A4 00 00 00 00 00 00 00 00 |.....p..........|
|00 24 00 00 00 00 00 01 00 00 00 00 00 00 00 00 |.$..............|
|00 00 00 00 00 00 00 FA 00 01 00 00 00 00 00 00 |................|
|00 00 00 00 00 00 2A 4F 66 66 69 63 65 72 20 45 |......*Officer E|
|6D 62 6C 65 6D 73 0A 45 78 63 68 61 6E 67 65 20 |mblems.Exchange |
|42 61 67 20 6F 66 20 57 61 72 20 43 72 65 73 74 |Bag of War Crest|
|73 00 00 00 00 00 00 5E 52 65 63 65 69 76 65 64 |s......^Received|
|20 61 66 74 65 72 20 65 78 63 68 61 6E 67 69 6E | after exchangin|
|67 20 73 6F 6D 65 20 6F 6C 64 20 4F 66 66 69 63 |g some old Offic|
|65 72 20 45 6D 62 6C 65 6D 73 2E 0A 0A 43 6F 6E |er Emblems...Con|
|76 65 72 74 20 74 68 69 73 20 69 74 65 6D 20 74 |vert this item t|
|6F 20 63 6C 61 69 6D 20 31 30 20 57 61 72 20 43 |o claim 10 War C|
|72 65 73 74 73 2E 01 01 00 00 03 06 80 08 00 00 |rests...........|
|00 00 00 00 00 00 00 00 00 00 00 00 00 00 00 00 |................|
|00 01 00 03 2E 32 22 7E 10 4F 66 66 69 63 65 72 |.....2"~.Officer|
|27 73 20 45 6D 62 6C 65 6D 00 0A 00 00 00 00 00 |'s Emblem.......|
|00 00 00 00 00 00 00 00 00 00 00 00 00 0D 03 00 |................|
|00 00 00 00 00 03 1D 4A 0F 2B 00 00 00 00 00 00 |.......J.+......|
|00 00 00 24 00 00 00 00 00 01 00 00 00 00 00 00 |...$............|
|00 00 00 00 00 00 00 00 00 19 00 01 00 00 00 00 |................|
|00 00 00 00 00 00 00 00 2A 4F 66 66 69 63 65 72 |........*Officer|
|20 45 6D 62 6C 65 6D 73 0A 45 78 63 68 61 6E 67 | Emblems.Exchang|
|65 20 42 61 67 20 6F 66 20 57 61 72 20 43 72 65 |e Bag of War Cre|
|73 74 73 00 00 00 00 00 00 5F 52 65 63 65 69 76 |sts......_Receiv|
|65 64 20 61 66 74 65 72 20 65 78 63 68 61 6E 67 |ed after exchang|
|69 6E 67 20 73 6F 6D 65 20 6F 6C 64 20 4F 66 66 |ing some old Off|
|69 63 65 72 20 45 6D 62 6C 65 6D 73 2E 0A 0A 43 |icer Emblems...C|
|6F 6E 76 65 72 74 20 74 68 69 73 20 69 74 65 6D |onvert this item|
|20 74 6F 20 63 6C 61 69 6D 20 31 30 30 20 57 61 | to claim 100 Wa|
|72 20 43 72 65 73 74 73 2E 01 01 00 00 03 06 80 |r Crests........|
|08 00 00 00 00 00 00 00 00 00 00 00 00 00 00 00 |................|
|00 00 00 00 01 00 03 2E 32 22 7E 10 4F 66 66 69 |........2"~.Offi|
|63 65 72 27 73 20 45 6D 62 6C 65 6D 00 64 00 00 |cer's Emblem.d..|
|00 00 00 00 00 00 00 00 00 00 00 00 00 00 00 00 |................|
|0E 03 00 00 00 00 00 00 03 2E 71 01 A4 00 00 00 |..........q.....|
|00 00 00 00 00 00 24 00 00 00 00 00 01 00 00 00 |......$.........|
|00 00 00 00 00 00 00 00 00 00 00 00 FA 00 01 00 |................|
|00 00 00 00 00 00 00 00 00 00 00 2A 52 65 63 72 |...........*Recr|
|75 69 74 20 45 6D 62 6C 65 6D 73 0A 45 78 63 68 |uit Emblems.Exch|
|61 6E 67 65 20 42 61 67 20 6F 66 20 57 61 72 20 |ange Bag of War |
|43 72 65 73 74 73 00 00 00 00 00 00 5E 52 65 63 |Crests......^Rec|
|65 69 76 65 64 20 61 66 74 65 72 20 65 78 63 68 |eived after exch|
|61 6E 67 69 6E 67 20 73 6F 6D 65 20 6F 6C 64 20 |anging some old |
|52 65 63 72 75 69 74 20 45 6D 62 6C 65 6D 73 2E |Recruit Emblems.|
|0A 0A 43 6F 6E 76 65 72 74 20 74 68 69 73 20 69 |..Convert this i|
|74 65 6D 20 74 6F 20 63 6C 61 69 6D 20 31 30 20 |tem to claim 10 |
|57 61 72 20 43 72 65 73 74 73 2E 01 01 00 00 03 |War Crests......|
|06 80 08 00 00 00 00 00 00 00 00 00 00 00 00 00 |................|
|00 00 00 00 00 00 01 00 03 2E 2F 22 7D 10 52 65 |........../"}.Re|
|63 72 75 69 74 27 73 20 45 6D 62 6C 65 6D 04 E2 |cruit's Emblem..|
|00 00 00 00 00 00 00 00 00 00 00 00 00 00 00 00 |................|
|00 00 0F 03 00 00 00 00 00 00 03 1D 4B 0F 2B 00 |............K.+.|
|00 00 00 00 00 00 00 00 24 00 00 00 00 00 01 00 |........$.......|
|00 00 00 00 00 00 00 00 00 00 00 00 00 00 19 00 |................|
|01 00 00 00 00 00 00 00 00 00 00 00 00 2A 52 65 |.............*Re|
|63 72 75 69 74 20 45 6D 62 6C 65 6D 73 0A 45 78 |cruit Emblems.Ex|
|63 68 61 6E 67 65 20 42 61 67 20 6F 66 20 57 61 |change Bag of Wa|
|72 20 43 72 65 73 74 73 00 00 00 00 00 00 5F 52 |r Crests......_R|
|65 63 65 69 76 65 64 20 61 66 74 65 72 20 65 78 |eceived after ex|
|63 68 61 6E 67 69 6E 67 20 73 6F 6D 65 20 6F 6C |changing some ol|
|64 20 52 65 63 72 75 69 74 20 45 6D 62 6C 65 6D |d Recruit Emblem|
|73 2E 0A 0A 43 6F 6E 76 65 72 74 20 74 68 69 73 |s...Convert this|
|20 69 74 65 6D 20 74 6F 20 63 6C 61 69 6D 20 31 | item to claim 1|
|30 30 20 57 61 72 20 43 72 65 73 74 73 2E 01 01 |00 War Crests...|
|00 00 03 06 80 08 00 00 00 00 00 00 00 00 00 00 |................|
|00 00 00 00 00 00 00 00 00 01 00 03 2E 2F 22 7D |............./"}|
|10 52 65 63 72 75 69 74 27 73 20 45 6D 62 6C 65 |.Recruit's Emble|
|6D 30 D4 00 00 00 00 00 00 00 00 00 00 00 00 00 |m0..............|
|00 00 00 00 00 00                               |......          |
-------------------------------------------------------------------
[Server] packet : (0xC0) F_STORE_BUY_BACK  Size = 5 
|------------------------------------------------|----------------|
|00 01 02 03 04 05 06 07 08 09 0A 0B 0C 0D 0E 0F |0123456789ABCDEF|
|------------------------------------------------|----------------|
|00 02 C0 00 00                                  |.....           |
-------------------------------------------------------------------
[Server] packet : (0x0A) F_OBJECT_DEATH  Size = 15 
|------------------------------------------------|----------------|
|00 01 02 03 04 05 06 07 08 09 0A 0B 0C 0D 0E 0F |0123456789ABCDEF|
|------------------------------------------------|----------------|
|00 0C 0A 27 43 00 00 00 00 00 00 00 00 00 00    |............... |
-------------------------------------------------------------------
[Server] packet : (0x0A) F_OBJECT_DEATH  Size = 15 
|------------------------------------------------|----------------|
|00 01 02 03 04 05 06 07 08 09 0A 0B 0C 0D 0E 0F |0123456789ABCDEF|
|------------------------------------------------|----------------|
|00 0C 0A 1E 52 00 00 00 00 00 00 00 00 00 00    |............... |
-------------------------------------------------------------------
[Server] packet : (0x72) F_CREATE_MONSTER  Size = 101 
|------------------------------------------------|----------------|
|00 01 02 03 04 05 06 07 08 09 0A 0B 0C 0D 0E 0F |0123456789ABCDEF|
|------------------------------------------------|----------------|
|00 62 72 2C 4C 00 00 0C 00 0C B5 00 0D 08 FE 00 |.br,L...........|
|0D 92 EA 00 00 03 E7 32 01 40 00 00 00 00 00 00 |.......2.@......|
|00 01 00 03 E8 00 00 00 01 53 A8 00 03 00 00 01 |.........S......|
|19 00 44 61 65 6D 6F 6E 20 4D 61 74 72 69 78 5E |..Daemon Matrix^|
|66 00 00 00 00 4F 01 0A 00 00 00 12 05 00 2C 4C |f....O........,L|
|88 FE 12 EA 0C B5 64 00 6A 00 00 00 00 4F 00 0C |......d.j....O..|
|2C 4C 00 00 00                                  |.....           |
-------------------------------------------------------------------
[Server] packet : (0x72) F_CREATE_MONSTER  Size = 101 
|------------------------------------------------|----------------|
|00 01 02 03 04 05 06 07 08 09 0A 0B 0C 0D 0E 0F |0123456789ABCDEF|
|------------------------------------------------|----------------|
|00 62 72 10 66 00 00 0C 00 0C 85 00 0D 07 F8 00 |.br.f...........|
|0D 92 96 00 00 03 E7 32 01 40 00 00 00 00 00 00 |.......2.@......|
|00 01 00 03 E8 00 00 00 01 53 A8 00 07 00 00 01 |.........S......|
|19 00 44 61 65 6D 6F 6E 20 4D 61 74 72 69 78 5E |..Daemon Matrix^|
|66 00 00 00 00 4F 01 0A 00 00 00 12 05 00 10 66 |f....O.........f|
|87 F8 12 96 0C 85 64 00 6A 00 00 00 00 4F 00 0C |......d.j....O..|
|10 66 00 00 00                                  |.....           |
-------------------------------------------------------------------
[Server] packet : (0x72) F_CREATE_MONSTER  Size = 101 
|------------------------------------------------|----------------|
|00 01 02 03 04 05 06 07 08 09 0A 0B 0C 0D 0E 0F |0123456789ABCDEF|
|------------------------------------------------|----------------|
|00 62 72 35 3C 00 00 0C 00 0C E0 00 0D 09 54 00 |.br5<.........T.|
|0D 94 EE 00 00 03 E7 32 01 40 00 00 00 00 00 00 |.......2.@......|
|00 01 00 03 E8 00 00 00 01 53 A8 00 08 00 00 01 |.........S......|
|19 00 44 61 65 6D 6F 6E 20 4D 61 74 72 69 78 5E |..Daemon Matrix^|
|66 00 00 00 00 4F 01 0A 00 00 00 12 05 00 35 3C |f....O........5<|
|89 54 14 EE 0C E0 64 00 6A 00 00 00 00 4F 00 0C |.T....d.j....O..|
|35 3C 00 00 00                                  |.....           |
-------------------------------------------------------------------
[Client] packet : (0x16) F_REQUEST_INIT_OBJECT  Size = 16 
|------------------------------------------------|----------------|
|00 01 02 03 04 05 06 07 08 09 0A 0B 0C 0D 0E 0F |0123456789ABCDEF|
|------------------------------------------------|----------------|
|00 04 79 F7 00 1E 00 00 00 16 16 5B 00 00 00 00 |..y........[....|                                                
-------------------------------------------------------------------
[Server] packet : (0x0A) F_OBJECT_DEATH  Size = 15 
|------------------------------------------------|----------------|
|00 01 02 03 04 05 06 07 08 09 0A 0B 0C 0D 0E 0F |0123456789ABCDEF|
|------------------------------------------------|----------------|
|00 0C 0A 2C 4C 00 00 00 00 00 00 00 00 00 00    |............... |
-------------------------------------------------------------------
[Server] packet : (0x72) F_CREATE_MONSTER  Size = 109 
|------------------------------------------------|----------------|
|00 01 02 03 04 05 06 07 08 09 0A 0B 0C 0D 0E 0F |0123456789ABCDEF|
|------------------------------------------------|----------------|
|00 6A 72 16 5B 00 EB 0A B8 0C D8 00 0D 06 9A 00 |.jr.[...........|
|0D 93 E2 00 00 03 E7 32 01 40 00 00 00 00 00 00 |.......2.@......|
|00 01 00 03 E8 00 00 00 01 53 A8 00 05 00 00 01 |.........S......|
|19 00 44 61 65 6D 6F 6E 20 4D 61 74 72 69 78 5E |..Daemon Matrix^|
|66 00 00 00 00 4F 01 0A 00 00 00 1A 05 00 16 5B |f....O.........[|
|86 9A 13 E2 0C D8 64 01 6A 00 00 00 00 4F EB 00 |......d.j....O..|
|00 ED 86 B5 13 CC 0C 6A 16 5B 00 00 00          |.............   |
-------------------------------------------------------------------
[Server] packet : (0x0A) F_OBJECT_DEATH  Size = 15 
|------------------------------------------------|----------------|
|00 01 02 03 04 05 06 07 08 09 0A 0B 0C 0D 0E 0F |0123456789ABCDEF|
|------------------------------------------------|----------------|
|00 0C 0A 34 46 00 00 00 00 00 00 00 00 00 00    |............... |
-------------------------------------------------------------------
[Client] packet : (0x5A) F_PING_DATAGRAM  Size = 13 
|------------------------------------------------|----------------|
|00 01 02 03 04 05 06 07 08 09 0A 0B 0C 0D 0E 0F |0123456789ABCDEF|
|------------------------------------------------|----------------|
|00 01 79 FA 00 1E FF FF 00 5A 00 A7 1A          |.............   |
-------------------------------------------------------------------
[Client] packet : (0x16) F_REQUEST_INIT_OBJECT  Size = 16 
|------------------------------------------------|----------------|
|00 01 02 03 04 05 06 07 08 09 0A 0B 0C 0D 0E 0F |0123456789ABCDEF|
|------------------------------------------------|----------------|
|00 04 79 FA 00 1E 00 00 00 16 30 2F 00 00 5C 23 |..y.......0/..\#|                                                
-------------------------------------------------------------------
[Server] packet : (0x72) F_CREATE_MONSTER  Size = 101 
|------------------------------------------------|----------------|
|00 01 02 03 04 05 06 07 08 09 0A 0B 0C 0D 0E 0F |0123456789ABCDEF|
|------------------------------------------------|----------------|
|00 62 72 0A EE 00 00 0C 00 0C C4 00 0D 09 5A 00 |.br...........Z.|
|0D 93 4A 00 00 03 E7 32 01 40 00 00 00 00 00 00 |..J....2.@......|
|00 01 00 03 E8 00 00 00 01 53 A8 00 02 00 00 01 |.........S......|
|19 00 44 61 65 6D 6F 6E 20 4D 61 74 72 69 78 5E |..Daemon Matrix^|
|66 00 00 00 00 4F 01 0A 00 00 00 12 05 00 0A EE |f....O..........|
|89 5A 13 4A 0C C4 64 00 6A 00 00 00 00 4F 00 0C |.Z.J..d.j....O..|
|0A EE 00 00 00                                  |.....           |
-------------------------------------------------------------------
[Server] packet : (0x0A) F_OBJECT_DEATH  Size = 15 
|------------------------------------------------|----------------|
|00 01 02 03 04 05 06 07 08 09 0A 0B 0C 0D 0E 0F |0123456789ABCDEF|
|------------------------------------------------|----------------|
|00 0C 0A 16 5B 00 00 00 00 00 00 00 00 00 00    |............... |
-------------------------------------------------------------------
[Server] packet : (0x0A) F_OBJECT_DEATH  Size = 15 
|------------------------------------------------|----------------|
|00 01 02 03 04 05 06 07 08 09 0A 0B 0C 0D 0E 0F |0123456789ABCDEF|
|------------------------------------------------|----------------|
|00 0C 0A 35 3C 00 00 00 00 00 00 00 00 00 00    |............... |
-------------------------------------------------------------------
[Server] packet : (0x72) F_CREATE_MONSTER  Size = 109 
|------------------------------------------------|----------------|
|00 01 02 03 04 05 06 07 08 09 0A 0B 0C 0D 0E 0F |0123456789ABCDEF|
|------------------------------------------------|----------------|
|00 6A 72 30 2F 00 EB 09 F7 0C 7D 00 0D 06 73 00 |.jr0/.....}...s.|
|0D 92 25 00 00 03 E7 32 01 40 00 00 00 00 00 00 |..%....2.@......|
|00 01 00 03 E8 00 00 00 01 53 A8 00 09 00 00 01 |.........S......|
|19 00 44 61 65 6D 6F 6E 20 4D 61 74 72 69 78 5E |..Daemon Matrix^|
|66 00 00 00 00 4F 01 0A 00 00 00 1A 05 00 30 2F |f....O........0/|
|86 73 12 25 0C 7D 64 01 6A 00 00 00 00 4F EB 00 |.s.%.}d.j....O..|
|00 90 86 08 12 58 0C 6A 30 2F 00 00 00          |.............   |
-------------------------------------------------------------------
[Client] packet : (0x0B) F_PING  Size = 32 
|------------------------------------------------|----------------|
|00 01 02 03 04 05 06 07 08 09 0A 0B 0C 0D 0E 0F |0123456789ABCDEF|
|------------------------------------------------|----------------|
|00 14 79 FC 00 1E 00 00 00 0B 00 7F D3 9C 4F 58 |..y...........OX|
|82 02 D6 27 23 00 00 00 00 00 00 00 00 00 FE 14 |...'#...........|                                                
-------------------------------------------------------------------
[Server] packet : (0x0A) F_OBJECT_DEATH  Size = 15 
|------------------------------------------------|----------------|
|00 01 02 03 04 05 06 07 08 09 0A 0B 0C 0D 0E 0F |0123456789ABCDEF|
|------------------------------------------------|----------------|
|00 0C 0A 30 2F 00 00 00 00 00 00 00 00 00 00    |............... |
-------------------------------------------------------------------
[Server] packet : (0x72) F_CREATE_MONSTER  Size = 101 
|------------------------------------------------|----------------|
|00 01 02 03 04 05 06 07 08 09 0A 0B 0C 0D 0E 0F |0123456789ABCDEF|
|------------------------------------------------|----------------|
|00 62 72 24 D3 00 00 0C 00 0C 8F 00 0D 08 DE 00 |.br$............|
|0D 92 3F 00 00 03 E7 32 01 40 00 00 00 00 00 00 |..?....2.@......|
|00 01 00 03 E8 00 00 00 01 53 A8 00 01 00 00 01 |.........S......|
|19 00 44 61 65 6D 6F 6E 20 4D 61 74 72 69 78 5E |..Daemon Matrix^|
|66 00 00 00 00 4F 01 0A 00 00 00 12 05 00 24 D3 |f....O........$.|
|88 DE 12 3F 0C 8F 64 00 6A 00 00 00 00 4F 00 0C |...?..d.j....O..|
|24 D3 00 00 00                                  |.....           |
-------------------------------------------------------------------
[Server] packet : (0x72) F_CREATE_MONSTER  Size = 101 
|------------------------------------------------|----------------|
|00 01 02 03 04 05 06 07 08 09 0A 0B 0C 0D 0E 0F |0123456789ABCDEF|
|------------------------------------------------|----------------|
|00 62 72 33 CB 00 00 0C 00 0C C8 00 0D 09 1E 00 |.br3............|
|0D 93 99 00 00 03 E7 32 01 40 00 00 00 00 00 00 |.......2.@......|
|00 01 00 03 E8 00 00 00 01 53 A8 00 00 00 00 01 |.........S......|
|19 00 44 61 65 6D 6F 6E 20 4D 61 74 72 69 78 5E |..Daemon Matrix^|
|66 00 00 00 00 4F 01 0A 00 00 00 12 05 00 33 CB |f....O........3.|
|89 1E 13 99 0C C8 64 00 6A 00 00 00 00 4F 00 0C |......d.j....O..|
|33 CB 00 00 00                                  |.....           |
-------------------------------------------------------------------
[Server] packet : (0x72) F_CREATE_MONSTER  Size = 101 
|------------------------------------------------|----------------|
|00 01 02 03 04 05 06 07 08 09 0A 0B 0C 0D 0E 0F |0123456789ABCDEF|
|------------------------------------------------|----------------|
|00 62 72 23 3E 00 00 0C 00 0C F9 00 0D 07 32 00 |.br#>.........2.|
|0D 95 3C 00 00 03 E7 32 01 40 00 00 00 00 00 00 |..<....2.@......|
|00 01 00 03 E8 00 00 00 01 53 A8 00 03 00 00 01 |.........S......|
|19 00 44 61 65 6D 6F 6E 20 4D 61 74 72 69 78 5E |..Daemon Matrix^|
|66 00 00 00 00 4F 01 0A 00 00 00 12 05 00 23 3E |f....O........#>|
|87 32 15 3C 0C F9 64 00 6A 00 00 00 00 4F 00 0C |.2.<..d.j....O..|
|23 3E 00 00 00                                  |.....           |
-------------------------------------------------------------------
[Server] packet : (0x81) S_PONG  Size = 23 
|------------------------------------------------|----------------|
|00 01 02 03 04 05 06 07 08 09 0A 0B 0C 0D 0E 0F |0123456789ABCDEF|
|------------------------------------------------|----------------|
|00 14 81 00 7F D3 9C 52 74 BC 97 00 00 00 00 00 |.......Rt.......|
|00 79 FD 00 00 00 00                            |.......         |
-------------------------------------------------------------------
[Server] packet : (0x0A) F_OBJECT_DEATH  Size = 15 
|------------------------------------------------|----------------|
|00 01 02 03 04 05 06 07 08 09 0A 0B 0C 0D 0E 0F |0123456789ABCDEF|
|------------------------------------------------|----------------|
|00 0C 0A 11 A3 00 00 00 00 00 00 00 00 00 00    |............... |
-------------------------------------------------------------------
[Server] packet : (0x0A) F_OBJECT_DEATH  Size = 15 
|------------------------------------------------|----------------|
|00 01 02 03 04 05 06 07 08 09 0A 0B 0C 0D 0E 0F |0123456789ABCDEF|
|------------------------------------------------|----------------|
|00 0C 0A 24 D3 00 00 00 00 00 00 00 00 00 00    |............... |
-------------------------------------------------------------------
[Server] packet : (0x72) F_CREATE_MONSTER  Size = 101 
|------------------------------------------------|----------------|
|00 01 02 03 04 05 06 07 08 09 0A 0B 0C 0D 0E 0F |0123456789ABCDEF|
|------------------------------------------------|----------------|
|00 62 72 15 01 00 00 0C 00 0C 87 00 0D 08 A4 00 |.br.............|
|0D 92 50 00 00 03 E7 32 01 40 00 00 00 00 00 00 |..P....2.@......|
|00 01 00 03 E8 00 00 00 01 53 A8 00 06 00 00 01 |.........S......|
|19 00 44 61 65 6D 6F 6E 20 4D 61 74 72 69 78 5E |..Daemon Matrix^|
|66 00 00 00 00 4F 01 0A 00 00 00 12 05 00 15 01 |f....O..........|
|88 A4 12 50 0C 87 64 00 6A 00 00 00 00 4F 00 0C |...P..d.j....O..|
|15 01 00 00 00                                  |.....           |
-------------------------------------------------------------------
[Server] packet : (0x72) F_CREATE_MONSTER  Size = 101 
|------------------------------------------------|----------------|
|00 01 02 03 04 05 06 07 08 09 0A 0B 0C 0D 0E 0F |0123456789ABCDEF|
|------------------------------------------------|----------------|
|00 62 72 2E AC 00 00 0C 00 0C D3 00 0D 08 62 00 |.br...........b.|
|0D 94 3D 00 00 03 E7 32 01 40 00 00 00 00 00 00 |..=....2.@......|
|00 01 00 03 E8 00 00 00 01 53 A8 00 08 00 00 01 |.........S......|
|19 00 44 61 65 6D 6F 6E 20 4D 61 74 72 69 78 5E |..Daemon Matrix^|
|66 00 00 00 00 4F 01 0A 00 00 00 12 05 00 2E AC |f....O..........|
|88 62 14 3D 0C D3 64 00 6A 00 00 00 00 4F 00 0C |.b.=..d.j....O..|
|2E AC 00 00 00                                  |.....           |
-------------------------------------------------------------------
[Server] packet : (0x72) F_CREATE_MONSTER  Size = 101 
|------------------------------------------------|----------------|
|00 01 02 03 04 05 06 07 08 09 0A 0B 0C 0D 0E 0F |0123456789ABCDEF|
|------------------------------------------------|----------------|
|00 62 72 12 B5 00 00 0C 00 0C E0 00 0D 09 AF 00 |.br.............|
|0D 94 B5 00 00 03 E7 32 01 40 00 00 00 00 00 00 |.......2.@......|
|00 01 00 03 E8 00 00 00 01 53 A8 00 05 00 00 01 |.........S......|
|19 00 44 61 65 6D 6F 6E 20 4D 61 74 72 69 78 5E |..Daemon Matrix^|
|66 00 00 00 00 4F 01 0A 00 00 00 12 05 00 12 B5 |f....O..........|
|89 AF 14 B5 0C E0 64 00 6A 00 00 00 00 4F 00 0C |......d.j....O..|
|12 B5 00 00 00                                  |.....           |
-------------------------------------------------------------------
[Server] packet : (0x72) F_CREATE_MONSTER  Size = 101 
|------------------------------------------------|----------------|
|00 01 02 03 04 05 06 07 08 09 0A 0B 0C 0D 0E 0F |0123456789ABCDEF|
|------------------------------------------------|----------------|
|00 62 72 2B 78 00 00 0C 00 0C D0 00 0D 06 D1 00 |.br+x...........|
|0D 93 C4 00 00 03 E7 32 01 40 00 00 00 00 00 00 |.......2.@......|
|00 01 00 03 E8 00 00 00 01 53 A8 00 09 00 00 01 |.........S......|
|19 00 44 61 65 6D 6F 6E 20 4D 61 74 72 69 78 5E |..Daemon Matrix^|
|66 00 00 00 00 4F 01 0A 00 00 00 12 05 00 2B 78 |f....O........+x|
|86 D1 13 C4 0C D0 64 00 6A 00 00 00 00 4F 00 0C |......d.j....O..|
|2B 78 00 00 00                                  |.....           |
-------------------------------------------------------------------
[Server] packet : (0x0A) F_OBJECT_DEATH  Size = 15 
|------------------------------------------------|----------------|
|00 01 02 03 04 05 06 07 08 09 0A 0B 0C 0D 0E 0F |0123456789ABCDEF|
|------------------------------------------------|----------------|
|00 0C 0A 10 66 00 00 00 00 00 00 00 00 00 00    |............... |
-------------------------------------------------------------------
[Server] packet : (0x0A) F_OBJECT_DEATH  Size = 15 
|------------------------------------------------|----------------|
|00 01 02 03 04 05 06 07 08 09 0A 0B 0C 0D 0E 0F |0123456789ABCDEF|
|------------------------------------------------|----------------|
|00 0C 0A 2E AC 00 00 00 00 00 00 00 00 00 00    |............... |
-------------------------------------------------------------------
[Server] packet : (0x0A) F_OBJECT_DEATH  Size = 15 
|------------------------------------------------|----------------|
|00 01 02 03 04 05 06 07 08 09 0A 0B 0C 0D 0E 0F |0123456789ABCDEF|
|------------------------------------------------|----------------|
|00 0C 0A 24 23 00 00 00 00 00 00 00 00 00 00    |............... |
-------------------------------------------------------------------
[Server] packet : (0x0A) F_OBJECT_DEATH  Size = 15 
|------------------------------------------------|----------------|
|00 01 02 03 04 05 06 07 08 09 0A 0B 0C 0D 0E 0F |0123456789ABCDEF|
|------------------------------------------------|----------------|
|00 0C 0A 23 3E 00 00 00 00 00 00 00 00 00 00    |............... |
-------------------------------------------------------------------
[Server] packet : (0x0A) F_OBJECT_DEATH  Size = 15 
|------------------------------------------------|----------------|
|00 01 02 03 04 05 06 07 08 09 0A 0B 0C 0D 0E 0F |0123456789ABCDEF|
|------------------------------------------------|----------------|
|00 0C 0A 33 CB 00 00 00 00 00 00 00 00 00 00    |............... |
-------------------------------------------------------------------
[Server] packet : (0x0A) F_OBJECT_DEATH  Size = 15 
|------------------------------------------------|----------------|
|00 01 02 03 04 05 06 07 08 09 0A 0B 0C 0D 0E 0F |0123456789ABCDEF|
|------------------------------------------------|----------------|
|00 0C 0A 12 B5 00 00 00 00 00 00 00 00 00 00    |............... |
-------------------------------------------------------------------
[Server] packet : (0x0A) F_OBJECT_DEATH  Size = 15 
|------------------------------------------------|----------------|
|00 01 02 03 04 05 06 07 08 09 0A 0B 0C 0D 0E 0F |0123456789ABCDEF|
|------------------------------------------------|----------------|
|00 0C 0A 0A EE 00 00 00 00 00 00 00 00 00 00    |............... |
-------------------------------------------------------------------
[Server] packet : (0x0A) F_OBJECT_DEATH  Size = 15 
|------------------------------------------------|----------------|
|00 01 02 03 04 05 06 07 08 09 0A 0B 0C 0D 0E 0F |0123456789ABCDEF|
|------------------------------------------------|----------------|
|00 0C 0A 15 01 00 00 00 00 00 00 00 00 00 00    |............... |
-------------------------------------------------------------------
[Server] packet : (0x0A) F_OBJECT_DEATH  Size = 15 
|------------------------------------------------|----------------|
|00 01 02 03 04 05 06 07 08 09 0A 0B 0C 0D 0E 0F |0123456789ABCDEF|
|------------------------------------------------|----------------|
|00 0C 0A 2B 78 00 00 00 00 00 00 00 00 00 00    |............... |
-------------------------------------------------------------------
[Server] packet : (0x72) F_CREATE_MONSTER  Size = 101 
|------------------------------------------------|----------------|
|00 01 02 03 04 05 06 07 08 09 0A 0B 0C 0D 0E 0F |0123456789ABCDEF|
|------------------------------------------------|----------------|
|00 62 72 1E 7C 00 00 0C 00 0C CB 00 0D 06 C6 00 |.br.|...........|
|0D 93 A1 00 00 03 E7 32 01 40 00 00 00 00 00 00 |.......2.@......|
|00 01 00 03 E8 00 00 00 01 53 A8 00 01 00 00 01 |.........S......|
|19 00 44 61 65 6D 6F 6E 20 4D 61 74 72 69 78 5E |..Daemon Matrix^|
|66 00 00 00 00 4F 01 0A 00 00 00 12 05 00 1E 7C |f....O.........||
|86 C6 13 A1 0C CB 64 00 6A 00 00 00 00 4F 00 0C |......d.j....O..|
|1E 7C 00 00 00                                  |.....           |
-------------------------------------------------------------------
[Client] packet : (0x01) UNKNOWN  Size = 32 
|------------------------------------------------|----------------|
|00 01 02 03 04 05 06 07 08 09 0A 0B 0C 0D 0E 0F |0123456789ABCDEF|
|------------------------------------------------|----------------|
|00 14 7A 06 00 1E 00 00 00 01 00 7F DE E2 20 07 |..z........... .|
|2A 68 90 38 40 04 00 23 7B FC 08 18 E2 7F 00 00 |*h.8@..#{.......|                                                
-------------------------------------------------------------------
[Server] packet : (0x00) UNKNOWN  Size = 23 
|------------------------------------------------|----------------|
|00 01 02 03 04 05 06 07 08 09 0A 0B 0C 0D 0E 0F |0123456789ABCDEF|
|------------------------------------------------|----------------|
|00 14 00 00 7F DE E2 79 80 35 EA 00 00 00 00 00 |.......y.5......|
|23 7B FC 08 18 E2 00                            |.......         |
-------------------------------------------------------------------
[Server] packet : (0x72) F_CREATE_MONSTER  Size = 101 
|------------------------------------------------|----------------|
|00 01 02 03 04 05 06 07 08 09 0A 0B 0C 0D 0E 0F |0123456789ABCDEF|
|------------------------------------------------|----------------|
|00 62 72 0C 0D 00 00 0C 00 0C E6 00 0D 07 94 00 |.br.............|
|0D 93 43 00 00 03 E7 32 01 40 00 00 00 00 00 00 |..C....2.@......|
|00 01 00 03 E8 00 00 00 01 53 A8 00 03 00 00 01 |.........S......|
|19 00 44 61 65 6D 6F 6E 20 4D 61 74 72 69 78 5E |..Daemon Matrix^|
|66 00 00 00 00 4F 01 0A 00 00 00 12 05 00 0C 0D |f....O..........|
|87 94 13 43 0C E6 64 00 6A 00 00 00 00 4F 00 0C |...C..d.j....O..|
|0C 0D 00 00 00                                  |.....           |
-------------------------------------------------------------------
[Server] packet : (0x72) F_CREATE_MONSTER  Size = 101 
|------------------------------------------------|----------------|
|00 01 02 03 04 05 06 07 08 09 0A 0B 0C 0D 0E 0F |0123456789ABCDEF|
|------------------------------------------------|----------------|
|00 62 72 09 C4 00 00 0C 00 0C 7D 00 0D 07 E5 00 |.br.......}.....|
|0D 91 F8 00 00 03 E7 32 01 40 00 00 00 00 00 00 |.......2.@......|
|00 01 00 03 E8 00 00 00 01 53 A8 00 02 00 00 01 |.........S......|
|19 00 44 61 65 6D 6F 6E 20 4D 61 74 72 69 78 5E |..Daemon Matrix^|
|66 00 00 00 00 4F 01 0A 00 00 00 12 05 00 09 C4 |f....O..........|
|87 E5 11 F8 0C 7D 64 00 6A 00 00 00 00 4F 00 0C |.....}d.j....O..|
|09 C4 00 00 00                                  |.....           |
-------------------------------------------------------------------
[Server] packet : (0x72) F_CREATE_MONSTER  Size = 101 
|------------------------------------------------|----------------|
|00 01 02 03 04 05 06 07 08 09 0A 0B 0C 0D 0E 0F |0123456789ABCDEF|
|------------------------------------------------|----------------|
|00 62 72 2F A6 00 00 0C 00 0C D9 00 0D 08 34 00 |.br/..........4.|
|0D 94 68 00 00 03 E7 32 01 40 00 00 00 00 00 00 |..h....2.@......|
|00 01 00 03 E8 00 00 00 01 53 A8 00 05 00 00 01 |.........S......|
|19 00 44 61 65 6D 6F 6E 20 4D 61 74 72 69 78 5E |..Daemon Matrix^|
|66 00 00 00 00 4F 01 0A 00 00 00 12 05 00 2F A6 |f....O......../.|
|88 34 14 68 0C D9 64 00 6A 00 00 00 00 4F 00 0C |.4.h..d.j....O..|
|2F A6 00 00 00                                  |.....           |
-------------------------------------------------------------------
[Server] packet : (0x72) F_CREATE_MONSTER  Size = 101 
|------------------------------------------------|----------------|
|00 01 02 03 04 05 06 07 08 09 0A 0B 0C 0D 0E 0F |0123456789ABCDEF|
|------------------------------------------------|----------------|
|00 62 72 37 F0 00 00 0C 00 0C B5 00 0D 09 0E 00 |.br7............|
|0D 92 DB 00 00 03 E7 32 01 40 00 00 00 00 00 00 |.......2.@......|
|00 01 00 03 E8 00 00 00 01 53 A8 00 00 00 00 01 |.........S......|
|19 00 44 61 65 6D 6F 6E 20 4D 61 74 72 69 78 5E |..Daemon Matrix^|
|66 00 00 00 00 4F 01 0A 00 00 00 12 05 00 37 F0 |f....O........7.|
|89 0E 12 DB 0C B5 64 00 6A 00 00 00 00 4F 00 0C |......d.j....O..|
|37 F0 00 00 00                                  |.....           |
-------------------------------------------------------------------
[Server] packet : (0x72) F_CREATE_MONSTER  Size = 101 
|------------------------------------------------|----------------|
|00 01 02 03 04 05 06 07 08 09 0A 0B 0C 0D 0E 0F |0123456789ABCDEF|
|------------------------------------------------|----------------|
|00 62 72 34 9C 00 00 0C 00 0C A0 00 0D 09 86 00 |.br4............|
|0D 91 F5 00 00 03 E7 32 01 40 00 00 00 00 00 00 |.......2.@......|
|00 01 00 03 E8 00 00 00 01 53 A8 00 06 00 00 01 |.........S......|
|19 00 44 61 65 6D 6F 6E 20 4D 61 74 72 69 78 5E |..Daemon Matrix^|
|66 00 00 00 00 4F 01 0A 00 00 00 12 05 00 34 9C |f....O........4.|
|89 86 11 F5 0C A0 64 00 6A 00 00 00 00 4F 00 0C |......d.j....O..|
|34 9C 00 00 00                                  |.....           |
-------------------------------------------------------------------
[Client] packet : (0x0B) F_PING  Size = 32 
|------------------------------------------------|----------------|
|00 01 02 03 04 05 06 07 08 09 0A 0B 0C 0D 0E 0F |0123456789ABCDEF|
|------------------------------------------------|----------------|
|00 14 7A 08 00 1E 00 00 00 0B 00 7F E7 29 D5 88 |..z..........)..|
|D4 97 44 41 8A C3 00 00 00 00 00 00 00 00 FE 14 |..DA............|                                                
-------------------------------------------------------------------
[Server] packet : (0x81) S_PONG  Size = 23 
|------------------------------------------------|----------------|
|00 01 02 03 04 05 06 07 08 09 0A 0B 0C 0D 0E 0F |0123456789ABCDEF|
|------------------------------------------------|----------------|
|00 14 81 00 7F E7 29 52 74 BC 9C 00 00 00 00 00 |......)Rt.......|
|00 7A 09 00 00 00 00                            |.......         |
-------------------------------------------------------------------
[Server] packet : (0x72) F_CREATE_MONSTER  Size = 101 
|------------------------------------------------|----------------|
|00 01 02 03 04 05 06 07 08 09 0A 0B 0C 0D 0E 0F |0123456789ABCDEF|
|------------------------------------------------|----------------|
|00 62 72 09 B3 00 00 0C 00 0C 7D 00 0D 08 FC 00 |.br.......}.....|
|0D 91 7E 00 00 03 E7 32 01 40 00 00 00 00 00 00 |..~....2.@......|
|00 01 00 03 E8 00 00 00 01 53 A8 00 09 00 00 01 |.........S......|
|19 00 44 61 65 6D 6F 6E 20 4D 61 74 72 69 78 5E |..Daemon Matrix^|
|66 00 00 00 00 4F 01 0A 00 00 00 12 05 00 09 B3 |f....O..........|
|88 FC 11 7E 0C 7D 64 00 6A 00 00 00 00 4F 00 0C |...~.}d.j....O..|
|09 B3 00 00 00                                  |.....           |
-------------------------------------------------------------------
[Server] packet : (0x72) F_CREATE_MONSTER  Size = 101 
|------------------------------------------------|----------------|
|00 01 02 03 04 05 06 07 08 09 0A 0B 0C 0D 0E 0F |0123456789ABCDEF|
|------------------------------------------------|----------------|
|00 62 72 17 52 00 00 0C 00 0C E5 00 0D 07 39 00 |.br.R.........9.|
|0D 94 6B 00 00 03 E7 32 01 40 00 00 00 00 00 00 |..k....2.@......|
|00 01 00 03 E8 00 00 00 01 53 A8 00 04 00 00 01 |.........S......|
|19 00 44 61 65 6D 6F 6E 20 4D 61 74 72 69 78 5E |..Daemon Matrix^|
|66 00 00 00 00 4F 01 0A 00 00 00 12 05 00 17 52 |f....O.........R|
|87 39 14 6B 0C E5 64 00 6A 00 00 00 00 4F 00 0C |.9.k..d.j....O..|
|17 52 00 00 00                                  |.....           |
-------------------------------------------------------------------
[Server] packet : (0x0A) F_OBJECT_DEATH  Size = 15 
|------------------------------------------------|----------------|
|00 01 02 03 04 05 06 07 08 09 0A 0B 0C 0D 0E 0F |0123456789ABCDEF|
|------------------------------------------------|----------------|
|00 0C 0A 0C 0D 00 00 00 00 00 00 00 00 00 00    |............... |
-------------------------------------------------------------------
[Server] packet : (0x0A) F_OBJECT_DEATH  Size = 15 
|------------------------------------------------|----------------|
|00 01 02 03 04 05 06 07 08 09 0A 0B 0C 0D 0E 0F |0123456789ABCDEF|
|------------------------------------------------|----------------|
|00 0C 0A 37 F0 00 00 00 00 00 00 00 00 00 00    |............... |
-------------------------------------------------------------------
[Client] packet : (0x16) F_REQUEST_INIT_OBJECT  Size = 16 
|------------------------------------------------|----------------|
|00 01 02 03 04 05 06 07 08 09 0A 0B 0C 0D 0E 0F |0123456789ABCDEF|
|------------------------------------------------|----------------|
|00 04 7A 0B 00 1E 00 00 00 16 23 22 00 00 84 0A |..z.......#"....|                                                
-------------------------------------------------------------------
[Client] packet : (0x16) F_REQUEST_INIT_OBJECT  Size = 16 
|------------------------------------------------|----------------|
|00 01 02 03 04 05 06 07 08 09 0A 0B 0C 0D 0E 0F |0123456789ABCDEF|
|------------------------------------------------|----------------|
|00 04 7A 0C 00 1E 00 00 00 16 14 8C 00 00 FC B7 |..z.............|                                                
-------------------------------------------------------------------
[Server] packet : (0x72) F_CREATE_MONSTER  Size = 109 
|------------------------------------------------|----------------|
|00 01 02 03 04 05 06 07 08 09 0A 0B 0C 0D 0E 0F |0123456789ABCDEF|
|------------------------------------------------|----------------|
|00 6A 72 23 22 00 EB 09 93 0C D1 00 0D 06 DC 00 |.jr#"...........|
|0D 93 CC 00 00 03 E7 32 01 40 00 00 00 00 00 00 |.......2.@......|
|00 01 00 03 E8 00 00 00 01 53 A8 00 08 00 00 01 |.........S......|
|19 00 44 61 65 6D 6F 6E 20 4D 61 74 72 69 78 5E |..Daemon Matrix^|
|66 00 00 00 00 4F 01 0A 00 00 00 1A 05 00 23 22 |f....O........#"|
|86 DC 13 CC 0C D1 64 01 6A 00 00 00 00 4F EB 00 |......d.j....O..|
|00 ED 86 B5 13 CC 0C 6A 23 22 00 00 00          |.............   |
-------------------------------------------------------------------
[Server] packet : (0x72) F_CREATE_MONSTER  Size = 109 
|------------------------------------------------|----------------|
|00 01 02 03 04 05 06 07 08 09 0A 0B 0C 0D 0E 0F |0123456789ABCDEF|
|------------------------------------------------|----------------|
|00 6A 72 14 8C 00 EB 0B 6E 0C 7D 00 0D 06 90 00 |.jr.....n.}.....|
|0D 92 08 00 00 03 E7 32 01 40 00 00 00 00 00 00 |.......2.@......|
|00 01 00 03 E8 00 00 00 01 53 A8 00 07 00 00 01 |.........S......|
|19 00 44 61 65 6D 6F 6E 20 4D 61 74 72 69 78 5E |..Daemon Matrix^|
|66 00 00 00 00 4F 01 0A 00 00 00 1A 05 00 14 8C |f....O..........|
|86 90 12 08 0C 7D 64 01 6A 00 00 00 00 4F EB 00 |.....}d.j....O..|
|00 90 86 08 12 58 0C 6A 14 8C 00 00 00          |.............   |
-------------------------------------------------------------------
[Server] packet : (0x0A) F_OBJECT_DEATH  Size = 15 
|------------------------------------------------|----------------|
|00 01 02 03 04 05 06 07 08 09 0A 0B 0C 0D 0E 0F |0123456789ABCDEF|
|------------------------------------------------|----------------|
|00 0C 0A 09 C4 00 00 00 00 00 00 00 00 00 00    |............... |
-------------------------------------------------------------------
[Server] packet : (0x72) F_CREATE_MONSTER  Size = 101 
|------------------------------------------------|----------------|
|00 01 02 03 04 05 06 07 08 09 0A 0B 0C 0D 0E 0F |0123456789ABCDEF|
|------------------------------------------------|----------------|
|00 62 72 0E 1C 00 00 0C 00 0C E2 00 0D 07 C2 00 |.br.............|
|0D 92 D1 00 00 03 E7 32 01 40 00 00 00 00 00 00 |.......2.@......|
|00 01 00 03 E8 00 00 00 01 53 A8 00 00 00 00 01 |.........S......|
|19 00 44 61 65 6D 6F 6E 20 4D 61 74 72 69 78 5E |..Daemon Matrix^|
|66 00 00 00 00 4F 01 0A 00 00 00 12 05 00 0E 1C |f....O..........|
|87 C2 12 D1 0C E2 64 00 6A 00 00 00 00 4F 00 0C |......d.j....O..|
|0E 1C 00 00 00                                  |.....           |
-------------------------------------------------------------------
[Server] packet : (0x0A) F_OBJECT_DEATH  Size = 15 
|------------------------------------------------|----------------|
|00 01 02 03 04 05 06 07 08 09 0A 0B 0C 0D 0E 0F |0123456789ABCDEF|
|------------------------------------------------|----------------|
|00 0C 0A 14 8C 00 00 00 00 00 00 00 00 00 00    |............... |
-------------------------------------------------------------------
[Server] packet : (0x0A) F_OBJECT_DEATH  Size = 15 
|------------------------------------------------|----------------|
|00 01 02 03 04 05 06 07 08 09 0A 0B 0C 0D 0E 0F |0123456789ABCDEF|
|------------------------------------------------|----------------|
|00 0C 0A 17 52 00 00 00 00 00 00 00 00 00 00    |............... |
-------------------------------------------------------------------
[Server] packet : (0x0A) F_OBJECT_DEATH  Size = 15 
|------------------------------------------------|----------------|
|00 01 02 03 04 05 06 07 08 09 0A 0B 0C 0D 0E 0F |0123456789ABCDEF|
|------------------------------------------------|----------------|
|00 0C 0A 34 9C 00 00 00 00 00 00 00 00 00 00    |............... |
-------------------------------------------------------------------
[Server] packet : (0x0A) F_OBJECT_DEATH  Size = 15 
|------------------------------------------------|----------------|
|00 01 02 03 04 05 06 07 08 09 0A 0B 0C 0D 0E 0F |0123456789ABCDEF|
|------------------------------------------------|----------------|
|00 0C 0A 2F A6 00 00 00 00 00 00 00 00 00 00    |............... |
-------------------------------------------------------------------
[Server] packet : (0x0A) F_OBJECT_DEATH  Size = 15 
|------------------------------------------------|----------------|
|00 01 02 03 04 05 06 07 08 09 0A 0B 0C 0D 0E 0F |0123456789ABCDEF|
|------------------------------------------------|----------------|
|00 0C 0A 09 B3 00 00 00 00 00 00 00 00 00 00    |............... |
-------------------------------------------------------------------
[Server] packet : (0x0A) F_OBJECT_DEATH  Size = 15 
|------------------------------------------------|----------------|
|00 01 02 03 04 05 06 07 08 09 0A 0B 0C 0D 0E 0F |0123456789ABCDEF|
|------------------------------------------------|----------------|
|00 0C 0A 23 22 00 00 00 00 00 00 00 00 00 00    |............... |
-------------------------------------------------------------------
[Server] packet : (0x0A) F_OBJECT_DEATH  Size = 15 
|------------------------------------------------|----------------|
|00 01 02 03 04 05 06 07 08 09 0A 0B 0C 0D 0E 0F |0123456789ABCDEF|
|------------------------------------------------|----------------|
|00 0C 0A 1E 7C 00 00 00 00 00 00 00 00 00 00    |............... |
-------------------------------------------------------------------
[Server] packet : (0x0A) F_OBJECT_DEATH  Size = 15 
|------------------------------------------------|----------------|
|00 01 02 03 04 05 06 07 08 09 0A 0B 0C 0D 0E 0F |0123456789ABCDEF|
|------------------------------------------------|----------------|
|00 0C 0A 0E 1C 00 00 00 00 00 00 00 00 00 00    |............... |
-------------------------------------------------------------------
[Server] packet : (0x72) F_CREATE_MONSTER  Size = 101 
|------------------------------------------------|----------------|
|00 01 02 03 04 05 06 07 08 09 0A 0B 0C 0D 0E 0F |0123456789ABCDEF|
|------------------------------------------------|----------------|
|00 62 72 30 04 00 00 0C 00 0C D0 00 0D 08 DE 00 |.br0............|
|0D 94 2B 00 00 03 E7 32 01 40 00 00 00 00 00 00 |..+....2.@......|
|00 01 00 03 E8 00 00 00 01 53 A8 00 03 00 00 01 |.........S......|
|19 00 44 61 65 6D 6F 6E 20 4D 61 74 72 69 78 5E |..Daemon Matrix^|
|66 00 00 00 00 4F 01 0A 00 00 00 12 05 00 30 04 |f....O........0.|
|88 DE 14 2B 0C D0 64 00 6A 00 00 00 00 4F 00 0C |...+..d.j....O..|
|30 04 00 00 00                                  |.....           |
-------------------------------------------------------------------
[Server] packet : (0x72) F_CREATE_MONSTER  Size = 101 
|------------------------------------------------|----------------|
|00 01 02 03 04 05 06 07 08 09 0A 0B 0C 0D 0E 0F |0123456789ABCDEF|
|------------------------------------------------|----------------|
|00 62 72 38 DD 00 00 0C 00 0C C2 00 0D 08 1A 00 |.br8............|
|0D 93 88 00 00 03 E7 32 01 40 00 00 00 00 00 00 |.......2.@......|
|00 01 00 03 E8 00 00 00 01 53 A8 00 02 00 00 01 |.........S......|
|19 00 44 61 65 6D 6F 6E 20 4D 61 74 72 69 78 5E |..Daemon Matrix^|
|66 00 00 00 00 4F 01 0A 00 00 00 12 05 00 38 DD |f....O........8.|
|88 1A 13 88 0C C2 64 00 6A 00 00 00 00 4F 00 0C |......d.j....O..|
|38 DD 00 00 00                                  |.....           |
-------------------------------------------------------------------
[Client] packet : (0x0B) F_PING  Size = 32 
|------------------------------------------------|----------------|
|00 01 02 03 04 05 06 07 08 09 0A 0B 0C 0D 0E 0F |0123456789ABCDEF|
|------------------------------------------------|----------------|
|00 14 7A 16 00 1E 00 00 00 0B 00 7F FA BF F9 27 |..z............'|
|AE 6C 9A BE 76 87 00 00 00 00 00 00 00 00 FE 14 |.l..v...........|                                                
-------------------------------------------------------------------
[Server] packet : (0x81) S_PONG  Size = 23 
|------------------------------------------------|----------------|
|00 01 02 03 04 05 06 07 08 09 0A 0B 0C 0D 0E 0F |0123456789ABCDEF|
|------------------------------------------------|----------------|
|00 14 81 00 7F FA BF 52 74 BC A1 00 00 00 00 00 |.......Rt.......|
|00 7A 17 00 00 00 00                            |.......         |
-------------------------------------------------------------------
[Server] packet : (0x72) F_CREATE_MONSTER  Size = 101 
|------------------------------------------------|----------------|
|00 01 02 03 04 05 06 07 08 09 0A 0B 0C 0D 0E 0F |0123456789ABCDEF|
|------------------------------------------------|----------------|
|00 62 72 1B 37 00 00 0C 00 0C 9B 00 0D 09 57 00 |.br.7.........W.|
|0D 92 06 00 00 03 E7 32 01 40 00 00 00 00 00 00 |.......2.@......|
|00 01 00 03 E8 00 00 00 01 53 A8 00 06 00 00 01 |.........S......|
|19 00 44 61 65 6D 6F 6E 20 4D 61 74 72 69 78 5E |..Daemon Matrix^|
|66 00 00 00 00 4F 01 0A 00 00 00 12 05 00 1B 37 |f....O.........7|
|89 57 12 06 0C 9B 64 00 6A 00 00 00 00 4F 00 0C |.W....d.j....O..|
|1B 37 00 00 00                                  |.....           |
-------------------------------------------------------------------
[Server] packet : (0x72) F_CREATE_MONSTER  Size = 101 
|------------------------------------------------|----------------|
|00 01 02 03 04 05 06 07 08 09 0A 0B 0C 0D 0E 0F |0123456789ABCDEF|
|------------------------------------------------|----------------|
|00 62 72 21 D9 00 00 0C 00 0C 7D 00 0D 06 C2 00 |.br!......}.....|
|0D 92 07 00 00 03 E7 32 01 40 00 00 00 00 00 00 |.......2.@......|
|00 01 00 03 E8 00 00 00 01 53 A8 00 09 00 00 01 |.........S......|
|19 00 44 61 65 6D 6F 6E 20 4D 61 74 72 69 78 5E |..Daemon Matrix^|
|66 00 00 00 00 4F 01 0A 00 00 00 12 05 00 21 D9 |f....O........!.|
|86 C2 12 07 0C 7D 64 00 6A 00 00 00 00 4F 00 0C |.....}d.j....O..|
|21 D9 00 00 00                                  |.....           |
-------------------------------------------------------------------
[Server] packet : (0x72) F_CREATE_MONSTER  Size = 101 
|------------------------------------------------|----------------|
|00 01 02 03 04 05 06 07 08 09 0A 0B 0C 0D 0E 0F |0123456789ABCDEF|
|------------------------------------------------|----------------|
|00 62 72 08 F8 00 00 0C 00 0C 7D 00 0D 08 70 00 |.br.......}...p.|
|0D 91 B1 00 00 03 E7 32 01 40 00 00 00 00 00 00 |.......2.@......|
|00 01 00 03 E8 00 00 00 01 53 A8 00 04 00 00 01 |.........S......|
|19 00 44 61 65 6D 6F 6E 20 4D 61 74 72 69 78 5E |..Daemon Matrix^|
|66 00 00 00 00 4F 01 0A 00 00 00 12 05 00 08 F8 |f....O..........|
|88 70 11 B1 0C 7D 64 00 6A 00 00 00 00 4F 00 0C |.p...}d.j....O..|
|08 F8 00 00 00                                  |.....           |
-------------------------------------------------------------------
[Server] packet : (0x72) F_CREATE_MONSTER  Size = 101 
|------------------------------------------------|----------------|
|00 01 02 03 04 05 06 07 08 09 0A 0B 0C 0D 0E 0F |0123456789ABCDEF|
|------------------------------------------------|----------------|
|00 62 72 2E E1 00 00 0C 00 0C E3 00 0D 07 F7 00 |.br.............|
|0D 94 9B 00 00 03 E7 32 01 40 00 00 00 00 00 00 |.......2.@......|
|00 01 00 03 E8 00 00 00 01 53 A8 00 05 00 00 01 |.........S......|
|19 00 44 61 65 6D 6F 6E 20 4D 61 74 72 69 78 5E |..Daemon Matrix^|
|66 00 00 00 00 4F 01 0A 00 00 00 12 05 00 2E E1 |f....O..........|
|87 F7 14 9B 0C E3 64 00 6A 00 00 00 00 4F 00 0C |......d.j....O..|
|2E E1 00 00 00                                  |.....           |
-------------------------------------------------------------------
[Server] packet : (0x0A) F_OBJECT_DEATH  Size = 15 
|------------------------------------------------|----------------|
|00 01 02 03 04 05 06 07 08 09 0A 0B 0C 0D 0E 0F |0123456789ABCDEF|
|------------------------------------------------|----------------|
|00 0C 0A 30 04 00 00 00 00 00 00 00 00 00 00    |............... |
-------------------------------------------------------------------
[Client] packet : (0x16) F_REQUEST_INIT_OBJECT  Size = 16 
|------------------------------------------------|----------------|
|00 01 02 03 04 05 06 07 08 09 0A 0B 0C 0D 0E 0F |0123456789ABCDEF|
|------------------------------------------------|----------------|
|00 04 7A 1A 00 1E 00 00 00 16 18 B3 00 00 F3 B4 |..z.............|                                                
-------------------------------------------------------------------
[Client] packet : (0x16) F_REQUEST_INIT_OBJECT  Size = 16 
|------------------------------------------------|----------------|
|00 01 02 03 04 05 06 07 08 09 0A 0B 0C 0D 0E 0F |0123456789ABCDEF|
|------------------------------------------------|----------------|
|00 04 7A 1B 00 1E 00 00 00 16 2B C4 00 00 65 5E |..z.......+...e^|                                                
-------------------------------------------------------------------
[Server] packet : (0x72) F_CREATE_MONSTER  Size = 101 
|------------------------------------------------|----------------|
|00 01 02 03 04 05 06 07 08 09 0A 0B 0C 0D 0E 0F |0123456789ABCDEF|
|------------------------------------------------|----------------|
|00 62 72 13 4D 00 00 0C 00 0C E7 00 0D 06 C3 00 |.br.M...........|
|0D 94 3E 00 00 03 E7 32 01 40 00 00 00 00 00 00 |..>....2.@......|
|00 01 00 03 E8 00 00 00 01 53 A8 00 00 00 00 01 |.........S......|
|19 00 44 61 65 6D 6F 6E 20 4D 61 74 72 69 78 5E |..Daemon Matrix^|
|66 00 00 00 00 4F 01 0A 00 00 00 12 05 00 13 4D |f....O.........M|
|86 C3 14 3E 0C E7 64 00 6A 00 00 00 00 4F 00 0C |...>..d.j....O..|
|13 4D 00 00 00                                  |.....           |
-------------------------------------------------------------------
[Server] packet : (0x72) F_CREATE_MONSTER  Size = 109 
|------------------------------------------------|----------------|
|00 01 02 03 04 05 06 07 08 09 0A 0B 0C 0D 0E 0F |0123456789ABCDEF|
|------------------------------------------------|----------------|
|00 6A 72 18 B3 00 EB 01 7C 0D 01 00 0D 05 E5 00 |.jr.....|.......|
|0D 95 08 00 00 03 E7 32 01 40 00 00 00 00 00 00 |.......2.@......|
|00 01 00 03 E8 00 00 00 01 53 A8 00 07 00 00 01 |.........S......|
|19 00 44 61 65 6D 6F 6E 20 4D 61 74 72 69 78 5E |..Daemon Matrix^|
|66 00 00 00 00 4F 01 0A 00 00 00 1A 05 00 18 B3 |f....O..........|
|85 E5 15 08 0D 01 64 01 6A 00 00 00 00 4F EB 00 |......d.j....O..|
|00 D6 85 1F 15 02 0D 6A 18 B3 00 00 00          |.............   |
-------------------------------------------------------------------
[Server] packet : (0x72) F_CREATE_MONSTER  Size = 109 
|------------------------------------------------|----------------|
|00 01 02 03 04 05 06 07 08 09 0A 0B 0C 0D 0E 0F |0123456789ABCDEF|
|------------------------------------------------|----------------|
|00 6A 72 2B C4 00 EB 02 CF 0C FD 00 0D 06 36 00 |.jr+..........6.|
|0D 94 EF 00 00 03 E7 32 01 40 00 00 00 00 00 00 |.......2.@......|
|00 01 00 03 E8 00 00 00 01 53 A8 00 08 00 00 01 |.........S......|
|19 00 44 61 65 6D 6F 6E 20 4D 61 74 72 69 78 5E |..Daemon Matrix^|
|66 00 00 00 00 4F 01 0A 00 00 00 1A 05 00 2B C4 |f....O........+.|
|86 36 14 EF 0C FD 64 01 6A 00 00 00 00 4F EB 00 |.6....d.j....O..|
|00 D6 85 1F 15 02 0D 6A 2B C4 00 00 00          |.............   |
-------------------------------------------------------------------