
[Server] packet : (0x1B) F_REQ_CAMPAIGN_STATUS  Size = 15 
|------------------------------------------------|----------------|
|00 01 02 03 04 05 06 07 08 09 0A 0B 0C 0D 0E 0F |0123456789ABCDEF|
|------------------------------------------------|----------------|
|00 0C 1B 00 14 48 00 00 15 40 C9 00 0E 47 00    |............... |
-------------------------------------------------------------------
[Server] packet : (0x1B) F_REQ_CAMPAIGN_STATUS  Size = 15 
|------------------------------------------------|----------------|
|00 01 02 03 04 05 06 07 08 09 0A 0B 0C 0D 0E 0F |0123456789ABCDEF|
|------------------------------------------------|----------------|
|00 0C 1B 00 1B D3 00 00 15 31 3D 00 0E 33 00    |............... |
-------------------------------------------------------------------
[Server] packet : (0x1B) F_REQ_CAMPAIGN_STATUS  Size = 15 
|------------------------------------------------|----------------|
|00 01 02 03 04 05 06 07 08 09 0A 0B 0C 0D 0E 0F |0123456789ABCDEF|
|------------------------------------------------|----------------|
|00 0C 1B 00 23 3C 00 00 15 48 57 00 0E 4D 00    |............... |
-------------------------------------------------------------------
[Client] packet : (0x01) UNKNOWN  Size = 32 
|------------------------------------------------|----------------|
|00 01 02 03 04 05 06 07 08 09 0A 0B 0C 0D 0E 0F |0123456789ABCDEF|
|------------------------------------------------|----------------|
|00 14 01 78 00 49 00 00 00 01 00 01 9F 6F 00 23 |...x.I.......o.#|
|39 B0 08 18 C0 4A 20 07 3F E8 90 38 76 C7 5C 12 |9....J .?..8v.\.|                                                
-------------------------------------------------------------------
[Server] packet : (0x00) UNKNOWN  Size = 23 
|------------------------------------------------|----------------|
|00 01 02 03 04 05 06 07 08 09 0A 0B 0C 0D 0E 0F |0123456789ABCDEF|
|------------------------------------------------|----------------|
|00 14 00 00 01 9F 6F AF 4E A4 EE 00 00 00 00 20 |......o.N...... |
|07 3F E8 90 38 76 00                            |.......         |
-------------------------------------------------------------------
[Client] packet : (0xD2) F_INTERACT  Size = 24 
|------------------------------------------------|----------------|
|00 01 02 03 04 05 06 07 08 09 0A 0B 0C 0D 0E 0F |0123456789ABCDEF|
|------------------------------------------------|----------------|
|00 0C 01 7B 00 49 00 00 00 D2 00 00 03 89 00 00 |...{.I..........|
|00 00 00 00 00 00 00 00                         |........        |
-------------------------------------------------------------------
[Client] packet : (0xE8) F_CLIENT_DATA  Size = 20 
|------------------------------------------------|----------------|
|00 01 02 03 04 05 06 07 08 09 0A 0B 0C 0D 0E 0F |0123456789ABCDEF|
|------------------------------------------------|----------------|
|00 08 01 7D 00 49 00 00 00 E8 00 18 00 04 65 21 |...}.I........e!|
|01 00 00 00                                     |....            |
-------------------------------------------------------------------
[Client] packet : (0xE8) F_CLIENT_DATA  Size = 20 
|------------------------------------------------|----------------|
|00 01 02 03 04 05 06 07 08 09 0A 0B 0C 0D 0E 0F |0123456789ABCDEF|
|------------------------------------------------|----------------|
|00 08 01 7E 00 49 00 00 00 E8 00 A4 00 04 4F 38 |...~.I........O8|
|01 00 CD DB                                     |....            |
-------------------------------------------------------------------
[Client] packet : (0xE8) F_CLIENT_DATA  Size = 20 
|------------------------------------------------|----------------|
|00 01 02 03 04 05 06 07 08 09 0A 0B 0C 0D 0E 0F |0123456789ABCDEF|
|------------------------------------------------|----------------|
|00 08 01 7F 00 49 00 00 00 E8 00 24 00 04 79 21 |.....I.....$..y!|
|01 00 34 AD                                     |....            |
-------------------------------------------------------------------
[Client] packet : (0xE8) F_CLIENT_DATA  Size = 20 
|------------------------------------------------|----------------|
|00 01 02 03 04 05 06 07 08 09 0A 0B 0C 0D 0E 0F |0123456789ABCDEF|
|------------------------------------------------|----------------|
|00 08 01 80 00 49 00 00 00 E8 00 34 00 04 6B 21 |.....I.....4..k!|
|01 00 CF 1E                                     |....            |
-------------------------------------------------------------------
[Client] packet : (0x0B) F_PING  Size = 32 
|------------------------------------------------|----------------|
|00 01 02 03 04 05 06 07 08 09 0A 0B 0C 0D 0E 0F |0123456789ABCDEF|
|------------------------------------------------|----------------|
|00 14 01 81 00 49 00 00 00 0B 00 01 A7 1C 36 0C |.....I........6.|
|84 03 96 E0 24 A0 00 00 00 00 00 00 00 00 7F 05 |....$...........|                                                
-------------------------------------------------------------------
[Server] packet : (0x44) F_ACTION_COUNTER_UPDATE  Size = 11 
|------------------------------------------------|----------------|
|00 01 02 03 04 05 06 07 08 09 0A 0B 0C 0D 0E 0F |0123456789ABCDEF|
|------------------------------------------------|----------------|
|00 08 44 01 D7 00 00 00 00 00 00                |...........     |
-------------------------------------------------------------------
[Server] packet : (0x86) F_MAIL  Size = 6 
|------------------------------------------------|----------------|
|00 01 02 03 04 05 06 07 08 09 0A 0B 0C 0D 0E 0F |0123456789ABCDEF|
|------------------------------------------------|----------------|
|00 03 86 00 00 00                               |......          |
-------------------------------------------------------------------
[Server] packet : (0x86) F_MAIL  Size = 13 
|------------------------------------------------|----------------|
|00 01 02 03 04 05 06 07 08 09 0A 0B 0C 0D 0E 0F |0123456789ABCDEF|
|------------------------------------------------|----------------|
|00 0A 86 0E 00 00 00 00 1E 0A D7 A3 00          |.............   |
-------------------------------------------------------------------
[Server] packet : (0x81) S_PONG  Size = 23 
|------------------------------------------------|----------------|
|00 01 02 03 04 05 06 07 08 09 0A 0B 0C 0D 0E 0F |0123456789ABCDEF|
|------------------------------------------------|----------------|
|00 14 81 00 01 A7 1C 52 82 82 C3 00 00 00 00 00 |.......R........|
|00 01 82 00 00 00 00                            |.......         |
-------------------------------------------------------------------
[Server] packet : (0x86) F_MAIL  Size = 255 
|------------------------------------------------|----------------|
|00 01 02 03 04 05 06 07 08 09 0A 0B 0C 0D 0E 0F |0123456789ABCDEF|
|------------------------------------------------|----------------|
|00 FC 86 0A 00 00 03 00 00 00 00 01 39 90 D5 00 |............9...|
|01 64 FF F4 2B C5 FF F4 2B C5 00 08 CF E1 00 00 |.d..+...+.......|
|10 45 6D 69 6C 65 73 69 6E 63 6C 61 69 72 5E 4D |.Emilesinclair^M|
|00 00 07 48 61 73 61 72 64 00 00 0A 67 6F 6F 64 |...Hasard...good|
|20 6E 65 77 73 00 00 00 00 00 00 00 00 00 00 00 | news...........|
|00 00 00 00 01 39 A4 01 00 01 64 FF F6 FB FC FF |.....9....d.....|
|F6 FB FC 00 0A 88 57 00 00 10 45 6D 69 6C 65 73 |......W...Emiles|
|69 6E 63 6C 61 69 72 5E 4D 00 00 07 48 61 73 61 |inclair^M...Hasa|
|72 64 00 00 19 73 75 62 6A 65 63 74 69 76 6C 79 |rd...subjectivly|
|20 6F 62 6A 65 63 74 69 76 65 29 29 29 00 00 00 | objective)))...|
|00 00 00 00 00 00 00 00 00 00 00 00 01 39 C5 91 |.............9..|
|00 00 64 FF FC 45 F5 FF FD 97 75 00 23 D2 F5 00 |..d..E....u.#...|
|00 10 55 73 69 72 69 61 6E 27 73 20 56 61 75 6C |..Usirian's Vaul|
|74 00 00 09 48 61 73 61 72 64 5E 46 00 00 0F 55 |t...Hasard^F...U|
|6E 63 6C 61 69 6D 65 64 20 4C 6F 6F 74 00 00 00 |nclaimed Loot...|
|00 00 00 00 00 00 00 01 00 00 00 05 73 00 00    |............... |
-------------------------------------------------------------------
[Server] packet : (0x86) F_MAIL  Size = 9 
|------------------------------------------------|----------------|
|00 01 02 03 04 05 06 07 08 09 0A 0B 0C 0D 0E 0F |0123456789ABCDEF|
|------------------------------------------------|----------------|
|00 06 86 0A 01 00 00 00 00                      |.........       |
-------------------------------------------------------------------
[Server] packet : (0x5E) F_SET_TARGET  Size = 9 
|------------------------------------------------|----------------|
|00 01 02 03 04 05 06 07 08 09 0A 0B 0C 0D 0E 0F |0123456789ABCDEF|
|------------------------------------------------|----------------|
|00 06 5E 03 83 3A 14 02 00                      |.........       |
-------------------------------------------------------------------
[Server] packet : (0x1B) F_REQ_CAMPAIGN_STATUS  Size = 15 
|------------------------------------------------|----------------|
|00 01 02 03 04 05 06 07 08 09 0A 0B 0C 0D 0E 0F |0123456789ABCDEF|
|------------------------------------------------|----------------|
|00 0C 1B 00 1B D3 00 00 15 37 7F 00 0E 30 00    |............... |
-------------------------------------------------------------------
[Server] packet : (0x1B) F_REQ_CAMPAIGN_STATUS  Size = 15 
|------------------------------------------------|----------------|
|00 01 02 03 04 05 06 07 08 09 0A 0B 0C 0D 0E 0F |0123456789ABCDEF|
|------------------------------------------------|----------------|
|00 0C 1B 00 23 3C 00 00 15 4D F3 00 0E 51 00    |............... |
-------------------------------------------------------------------
[Server] packet : (0x1B) F_REQ_CAMPAIGN_STATUS  Size = 15 
|------------------------------------------------|----------------|
|00 01 02 03 04 05 06 07 08 09 0A 0B 0C 0D 0E 0F |0123456789ABCDEF|
|------------------------------------------------|----------------|
|00 0C 1B 00 14 48 00 00 15 46 D0 00 0E 4C 00    |............... |
-------------------------------------------------------------------
[Server] packet : (0x0A) F_OBJECT_DEATH  Size = 15 
|------------------------------------------------|----------------|
|00 01 02 03 04 05 06 07 08 09 0A 0B 0C 0D 0E 0F |0123456789ABCDEF|
|------------------------------------------------|----------------|
|00 0C 0A 1B C8 01 00 0B 49 00 00 00 00 1F 00    |............... |
-------------------------------------------------------------------
[Client] packet : (0x0B) F_PING  Size = 32 
|------------------------------------------------|----------------|
|00 01 02 03 04 05 06 07 08 09 0A 0B 0C 0D 0E 0F |0123456789ABCDEF|
|------------------------------------------------|----------------|
|00 14 01 8B 00 49 00 00 00 0B 00 01 BA AC D0 48 |.....I.........H|
|C0 4F 73 C6 36 30 00 00 00 00 00 00 00 00 7F 05 |.Os.60..........|                                                
-------------------------------------------------------------------
[Server] packet : (0x81) S_PONG  Size = 23 
|------------------------------------------------|----------------|
|00 01 02 03 04 05 06 07 08 09 0A 0B 0C 0D 0E 0F |0123456789ABCDEF|
|------------------------------------------------|----------------|
|00 14 81 00 01 BA AC 52 82 82 C8 00 00 00 00 00 |.......R........|
|00 01 8C 00 00 00 00                            |.......         |
-------------------------------------------------------------------
[Client] packet : (0x86) F_MAIL  Size = 23 
|------------------------------------------------|----------------|
|00 01 02 03 04 05 06 07 08 09 0A 0B 0C 0D 0E 0F |0123456789ABCDEF|
|------------------------------------------------|----------------|
|00 0B 01 8D 00 49 FF FF 00 86 04 00 D5 90 39 01 |.....I........9.|
|00 00 00 00 00 00 00                            |.......         |
-------------------------------------------------------------------
[Server] packet : (0x0A) F_OBJECT_DEATH  Size = 15 
|------------------------------------------------|----------------|
|00 01 02 03 04 05 06 07 08 09 0A 0B 0C 0D 0E 0F |0123456789ABCDEF|
|------------------------------------------------|----------------|
|00 0C 0A 0B 08 00 00 00 00 00 00 00 00 00 00    |............... |
-------------------------------------------------------------------
[Server] packet : (0x86) F_MAIL  Size = 13 
|------------------------------------------------|----------------|
|00 01 02 03 04 05 06 07 08 09 0A 0B 0C 0D 0E 0F |0123456789ABCDEF|
|------------------------------------------------|----------------|
|00 0A 86 0C 00 00 00 00 00 01 39 90 00          |.............   |
-------------------------------------------------------------------
[Server] packet : (0x86) F_MAIL  Size = 6 
|------------------------------------------------|----------------|
|00 01 02 03 04 05 06 07 08 09 0A 0B 0C 0D 0E 0F |0123456789ABCDEF|
|------------------------------------------------|----------------|
|00 03 86 0F 00 00                               |......          |
-------------------------------------------------------------------
[Client] packet : (0x86) F_MAIL  Size = 23 
|------------------------------------------------|----------------|
|00 01 02 03 04 05 06 07 08 09 0A 0B 0C 0D 0E 0F |0123456789ABCDEF|
|------------------------------------------------|----------------|
|00 0B 01 91 00 49 FF FF 00 86 04 00 D5 90 39 01 |.....I........9.|
|00 00 00 00 00 00 00                            |.......         |
-------------------------------------------------------------------
[Server] packet : (0x86) F_MAIL  Size = 6 
|------------------------------------------------|----------------|
|00 01 02 03 04 05 06 07 08 09 0A 0B 0C 0D 0E 0F |0123456789ABCDEF|
|------------------------------------------------|----------------|
|00 03 86 0F 00 00                               |......          |
-------------------------------------------------------------------
[Server] packet : (0x49) F_REMOVE_PLAYER  Size = 7 
|------------------------------------------------|----------------|
|00 01 02 03 04 05 06 07 08 09 0A 0B 0C 0D 0E 0F |0123456789ABCDEF|
|------------------------------------------------|----------------|
|00 04 49 3A 14 00 00                            |.......         |
-------------------------------------------------------------------
[Server] packet : (0x0A) F_OBJECT_DEATH  Size = 15 
|------------------------------------------------|----------------|
|00 01 02 03 04 05 06 07 08 09 0A 0B 0C 0D 0E 0F |0123456789ABCDEF|
|------------------------------------------------|----------------|
|00 0C 0A 1C 83 00 00 00 00 00 00 00 00 00 00    |............... |
-------------------------------------------------------------------
[Client] packet : (0x5A) F_PING_DATAGRAM  Size = 13 
|------------------------------------------------|----------------|
|00 01 02 03 04 05 06 07 08 09 0A 0B 0C 0D 0E 0F |0123456789ABCDEF|
|------------------------------------------------|----------------|
|00 01 01 95 00 49 FF FF 00 5A 00 AE C4          |.............   |
-------------------------------------------------------------------
[Client] packet : (0x01) UNKNOWN  Size = 32 
|------------------------------------------------|----------------|
|00 01 02 03 04 05 06 07 08 09 0A 0B 0C 0D 0E 0F |0123456789ABCDEF|
|------------------------------------------------|----------------|
|00 14 01 97 00 49 00 00 00 01 00 01 C7 60 00 00 |.....I.......`..|
|00 00 00 00 00 00 00 00 00 0E 00 00 0C 14 00 00 |................|                                                
-------------------------------------------------------------------
[Server] packet : (0x00) UNKNOWN  Size = 23 
|------------------------------------------------|----------------|
|00 01 02 03 04 05 06 07 08 09 0A 0B 0C 0D 0E 0F |0123456789ABCDEF|
|------------------------------------------------|----------------|
|00 14 00 00 01 C7 60 AF 4E CC 24 00 00 00 00 00 |......`.N.$.....|
|00 00 0E 00 00 0C 00                            |.......         |
-------------------------------------------------------------------
[Client] packet : (0x0B) F_PING  Size = 32 
|------------------------------------------------|----------------|
|00 01 02 03 04 05 06 07 08 09 0A 0B 0C 0D 0E 0F |0123456789ABCDEF|
|------------------------------------------------|----------------|
|00 14 01 99 00 49 00 00 00 0B 00 01 CE 35 93 D8 |.....I.......5..|
|D4 95 44 01 05 71 00 00 00 00 00 00 00 00 7F 05 |..D..q..........|                                                
-------------------------------------------------------------------
[Server] packet : (0x81) S_PONG  Size = 23 
|------------------------------------------------|----------------|
|00 01 02 03 04 05 06 07 08 09 0A 0B 0C 0D 0E 0F |0123456789ABCDEF|
|------------------------------------------------|----------------|
|00 14 81 00 01 CE 35 52 82 82 CD 00 00 00 00 00 |......5R........|
|00 01 9A 00 00 00 00                            |.......         |
-------------------------------------------------------------------
[Client] packet : (0x86) F_MAIL  Size = 23 
|------------------------------------------------|----------------|
|00 01 02 03 04 05 06 07 08 09 0A 0B 0C 0D 0E 0F |0123456789ABCDEF|
|------------------------------------------------|----------------|
|00 0B 01 9B 00 49 FF FF 00 86 04 00 01 A4 39 01 |.....I........9.|
|00 00 00 00 00 00 00                            |.......         |
-------------------------------------------------------------------
[Server] packet : (0x86) F_MAIL  Size = 13 
|------------------------------------------------|----------------|
|00 01 02 03 04 05 06 07 08 09 0A 0B 0C 0D 0E 0F |0123456789ABCDEF|
|------------------------------------------------|----------------|
|00 0A 86 0C 00 00 00 00 00 01 39 A4 00          |.............   |
-------------------------------------------------------------------
[Server] packet : (0x86) F_MAIL  Size = 6 
|------------------------------------------------|----------------|
|00 01 02 03 04 05 06 07 08 09 0A 0B 0C 0D 0E 0F |0123456789ABCDEF|
|------------------------------------------------|----------------|
|00 03 86 0F 00 00                               |......          |
-------------------------------------------------------------------
[Client] packet : (0x86) F_MAIL  Size = 23 
|------------------------------------------------|----------------|
|00 01 02 03 04 05 06 07 08 09 0A 0B 0C 0D 0E 0F |0123456789ABCDEF|
|------------------------------------------------|----------------|
|00 0B 01 9E 00 49 FF FF 00 86 02 00 91 C5 39 01 |.....I........9.|
|00 00 00 00 00 00 00                            |.......         |
-------------------------------------------------------------------
[Server] packet : (0x1B) F_REQ_CAMPAIGN_STATUS  Size = 15 
|------------------------------------------------|----------------|
|00 01 02 03 04 05 06 07 08 09 0A 0B 0C 0D 0E 0F |0123456789ABCDEF|
|------------------------------------------------|----------------|
|00 0C 1B 00 14 48 00 00 15 51 39 00 0E 53 00    |............... |
-------------------------------------------------------------------
[Server] packet : (0x86) F_MAIL  Size = 336 
|------------------------------------------------|----------------|
|00 01 02 03 04 05 06 07 08 09 0A 0B 0C 0D 0E 0F |0123456789ABCDEF|
|------------------------------------------------|----------------|
|01 4D 86 0D 00 00 00 00 00 01 39 C5 91 00 00 64 |.M........9....d|
|FF FC 45 E9 FF FD 97 69 00 23 D2 E9 00 00 10 55 |..E....i.#.....U|
|73 69 72 69 61 6E 27 73 20 56 61 75 6C 74 00 00 |sirian's Vault..|
|09 48 61 73 61 72 64 5E 46 00 00 0F 55 6E 63 6C |.Hasard^F...Uncl|
|61 69 6D 65 64 20 4C 6F 6F 74 00 00 00 00 00 00 |aimed Loot......|
|00 00 00 00 01 00 00 00 05 73 00 8B 54 68 65 20 |.........s..The |
|61 74 74 61 63 68 65 64 20 69 74 65 6D 20 77 61 |attached item wa|
|73 20 6E 6F 74 20 63 6C 61 69 6D 65 64 20 64 75 |s not claimed du|
|72 69 6E 67 20 74 68 65 20 6C 6F 6F 74 20 70 68 |ring the loot ph|
|61 73 65 20 61 6E 64 20 68 61 73 20 62 65 65 6E |ase and has been|
|20 73 65 6E 74 20 74 6F 20 79 6F 75 20 61 75 74 | sent to you aut|
|6F 6D 61 74 69 63 61 6C 6C 79 2E 20 28 55 6E 63 |omatically. (Unc|
|6C 61 69 6D 65 64 20 6C 6F 6F 74 20 74 61 6B 65 |laimed loot take|
|73 20 32 34 20 68 6F 75 72 73 20 74 6F 20 61 72 |s 24 hours to ar|
|72 69 76 65 2E 29 00 01 00 00 00 26 D6 05 73 00 |rive.).....&..s.|
|00 00 00 00 00 00 00 00 00 00 00 00 00 00 01 00 |................|
|00 00 00 00 00 00 00 00 00 00 00 11 94 00 01 00 |................|
|01 00 00 00 00 00 00 00 00 00 00 00 00 10 47 72 |..............Gr|
|65 61 74 65 72 20 4C 6F 6F 74 20 42 61 67 00 00 |eater Loot Bag..|
|00 00 00 00 00 01 01 00 00 03 04 00 00 00 00 00 |................|
|00 00 00 00 00 00 00 00 00 00 00 00 00 00 00 00 |................|                                                
-------------------------------------------------------------------
[Server] packet : (0x1B) F_REQ_CAMPAIGN_STATUS  Size = 15 
|------------------------------------------------|----------------|
|00 01 02 03 04 05 06 07 08 09 0A 0B 0C 0D 0E 0F |0123456789ABCDEF|
|------------------------------------------------|----------------|
|00 0C 1B 00 1B D3 00 00 15 44 1C 00 0E 2B 00    |............... |
-------------------------------------------------------------------
[Server] packet : (0x1B) F_REQ_CAMPAIGN_STATUS  Size = 15 
|------------------------------------------------|----------------|
|00 01 02 03 04 05 06 07 08 09 0A 0B 0C 0D 0E 0F |0123456789ABCDEF|
|------------------------------------------------|----------------|
|00 0C 1B 00 23 3C 00 00 15 5A 25 00 0E 57 00    |............... |
-------------------------------------------------------------------
[Server] packet : (0x86) F_MAIL  Size = 7 
|------------------------------------------------|----------------|
|00 01 02 03 04 05 06 07 08 09 0A 0B 0C 0D 0E 0F |0123456789ABCDEF|
|------------------------------------------------|----------------|
|00 04 86 09 00 00 00                            |.......         |
-------------------------------------------------------------------
[Server] packet : (0x86) F_MAIL  Size = 90 
|------------------------------------------------|----------------|
|00 01 02 03 04 05 06 07 08 09 0A 0B 0C 0D 0E 0F |0123456789ABCDEF|
|------------------------------------------------|----------------|
|00 57 86 0B 00 00 00 00 00 01 39 C5 91 00 01 64 |.W........9....d|
|FF FC 45 E9 FF FD 97 69 00 12 75 00 00 00 10 55 |..E....i..u....U|
|73 69 72 69 61 6E 27 73 20 56 61 75 6C 74 00 00 |sirian's Vault..|
|09 48 61 73 61 72 64 5E 46 00 00 0F 55 6E 63 6C |.Hasard^F...Uncl|
|61 69 6D 65 64 20 4C 6F 6F 74 00 00 00 00 00 00 |aimed Loot......|
|00 00 00 00 01 00 00 00 05 00                   |..........      |
-------------------------------------------------------------------
[Client] packet : (0xFE) F_PLAY_VOICE_OVER  Size = 16 
|------------------------------------------------|----------------|
|00 01 02 03 04 05 06 07 08 09 0A 0B 0C 0D 0E 0F |0123456789ABCDEF|
|------------------------------------------------|----------------|
|00 04 01 A2 00 49 FF FF 00 FE 02 00 00 00 8D A0 |.....I..........|                                                
-------------------------------------------------------------------
[Server] packet : (0x74) UNKNOWN  Size = 44 
|------------------------------------------------|----------------|
|00 01 02 03 04 05 06 07 08 09 0A 0B 0C 0D 0E 0F |0123456789ABCDEF|
|------------------------------------------------|----------------|
|00 29 74 01 01 00 00 00 04 02 00 00 01 00 03 00 |.)t.............|
|00 00 00 00 00 00 01 00 01 00 00 01 F4 00 00 00 |................|
|5A 02 00 01 00 00 01 F4 00 00 01 00             |............    |
-------------------------------------------------------------------
[Client] packet : (0x86) F_MAIL  Size = 23 
|------------------------------------------------|----------------|
|00 01 02 03 04 05 06 07 08 09 0A 0B 0C 0D 0E 0F |0123456789ABCDEF|
|------------------------------------------------|----------------|
|00 0B 01 A4 00 49 FF FF 00 86 08 00 91 C5 39 01 |.....I........9.|
|00 00 00 00 00 00 00                            |.......         |
-------------------------------------------------------------------
[Server] packet : (0x86) F_MAIL  Size = 94 
|------------------------------------------------|----------------|
|00 01 02 03 04 05 06 07 08 09 0A 0B 0C 0D 0E 0F |0123456789ABCDEF|
|------------------------------------------------|----------------|
|00 5B 86 0A 00 00 01 00 00 00 00 01 39 C5 91 00 |.[..........9...|
|01 64 FF FC 45 E8 FF FD 97 68 00 12 74 FF 00 00 |.d..E....h..t...|
|10 55 73 69 72 69 61 6E 27 73 20 56 61 75 6C 74 |.Usirian's Vault|
|00 00 09 48 61 73 61 72 64 5E 46 00 00 0F 55 6E |...Hasard^F...Un|
|63 6C 61 69 6D 65 64 20 4C 6F 6F 74 00 00 00 00 |claimed Loot....|
|00 00 00 00 00 04 01 01 00 00 05 73 00 00       |..............  |
-------------------------------------------------------------------
[Server] packet : (0x86) F_MAIL  Size = 90 
|------------------------------------------------|----------------|
|00 01 02 03 04 05 06 07 08 09 0A 0B 0C 0D 0E 0F |0123456789ABCDEF|
|------------------------------------------------|----------------|
|00 57 86 0B 00 00 00 00 00 01 39 C5 91 00 01 64 |.W........9....d|
|FF FC 45 E7 FF FD 97 67 00 12 74 FE 00 00 10 55 |..E....g..t....U|
|73 69 72 69 61 6E 27 73 20 56 61 75 6C 74 00 00 |sirian's Vault..|
|09 48 61 73 61 72 64 5E 46 00 00 0F 55 6E 63 6C |.Hasard^F...Uncl|
|61 69 6D 65 64 20 4C 6F 6F 74 00 00 00 00 00 00 |aimed Loot......|
|00 00 00 00 01 01 00 00 05 00                   |..........      |
-------------------------------------------------------------------
[Server] packet : (0x6F) F_LOCALIZED_STRING  Size = 38 
|------------------------------------------------|----------------|
|00 01 02 03 04 05 06 07 08 09 0A 0B 0C 0D 0E 0F |0123456789ABCDEF|
|------------------------------------------------|----------------|
|00 23 6F 02 20 00 00 05 23 00 00 00 02 01 00 11 |.#o. ...#.......|
|47 72 65 61 74 65 72 20 4C 6F 6F 74 20 42 61 67 |Greater Loot Bag|
|00 01 00 02 31 00                               |......          |
-------------------------------------------------------------------
[Server] packet : (0xAA) F_GET_ITEM  Size = 113 
|------------------------------------------------|----------------|
|00 01 02 03 04 05 06 07 08 09 0A 0B 0C 0D 0E 0F |0123456789ABCDEF|
|------------------------------------------------|----------------|
|00 6E AA 01 00 00 00 00 28 00 00 00 26 D6 05 73 |.n......(...&..s|
|00 00 00 00 00 00 00 00 00 00 00 00 00 00 00 01 |................|
|00 00 00 00 00 00 00 00 00 00 00 00 11 94 00 01 |................|
|00 01 00 00 00 00 00 00 00 00 00 00 00 00 10 47 |...............G|
|72 65 61 74 65 72 20 4C 6F 6F 74 20 42 61 67 00 |reater Loot Bag.|
|00 00 00 00 00 00 01 01 00 00 03 04 00 00 01 00 |................|
|00 00 00 00 00 00 00 00 00 00 00 00 00 00 00 00 |................|
|00                                              |.               |
-------------------------------------------------------------------
[Client] packet : (0x86) F_MAIL  Size = 23 
|------------------------------------------------|----------------|
|00 01 02 03 04 05 06 07 08 09 0A 0B 0C 0D 0E 0F |0123456789ABCDEF|
|------------------------------------------------|----------------|
|00 0B 01 A6 00 49 FF FF 00 86 04 00 91 C5 39 01 |.....I........9.|
|00 00 00 00 00 00 00                            |.......         |
-------------------------------------------------------------------
[Server] packet : (0x86) F_MAIL  Size = 13 
|------------------------------------------------|----------------|
|00 01 02 03 04 05 06 07 08 09 0A 0B 0C 0D 0E 0F |0123456789ABCDEF|
|------------------------------------------------|----------------|
|00 0A 86 0C 00 00 00 00 00 01 39 C5 00          |.............   |
-------------------------------------------------------------------
[Server] packet : (0x86) F_MAIL  Size = 6 
|------------------------------------------------|----------------|
|00 01 02 03 04 05 06 07 08 09 0A 0B 0C 0D 0E 0F |0123456789ABCDEF|
|------------------------------------------------|----------------|
|00 03 86 0F 00 00                               |......          |
-------------------------------------------------------------------
[Client] packet : (0x0B) F_PING  Size = 32 
|------------------------------------------------|----------------|
|00 01 02 03 04 05 06 07 08 09 0A 0B 0C 0D 0E 0F |0123456789ABCDEF|
|------------------------------------------------|----------------|
|00 14 01 A9 00 49 00 00 00 0B 00 01 E1 C6 11 EF |.....I..........|
|3D BC 7A BC D7 5A 00 00 00 00 00 00 00 00 7F 05 |=.z..Z..........|                                                
-------------------------------------------------------------------
[Server] packet : (0x81) S_PONG  Size = 23 
|------------------------------------------------|----------------|
|00 01 02 03 04 05 06 07 08 09 0A 0B 0C 0D 0E 0F |0123456789ABCDEF|
|------------------------------------------------|----------------|
|00 14 81 00 01 E1 C6 52 82 82 D2 00 00 00 00 00 |.......R........|
|00 01 AA 00 00 00 00                            |.......         |
-------------------------------------------------------------------
[Server] packet : (0x1B) F_REQ_CAMPAIGN_STATUS  Size = 15 
|------------------------------------------------|----------------|
|00 01 02 03 04 05 06 07 08 09 0A 0B 0C 0D 0E 0F |0123456789ABCDEF|
|------------------------------------------------|----------------|
|00 0C 1B 00 14 48 00 00 15 58 B3 00 0E 56 00    |............... |
-------------------------------------------------------------------
[Client] packet : (0xE8) F_CLIENT_DATA  Size = 20 
|------------------------------------------------|----------------|
|00 01 02 03 04 05 06 07 08 09 0A 0B 0C 0D 0E 0F |0123456789ABCDEF|
|------------------------------------------------|----------------|
|00 08 01 B1 00 49 00 00 00 E8 00 18 00 04 6E 21 |.....I........n!|
|01 00 00 00                                     |....            |
-------------------------------------------------------------------
[Client] packet : (0xE8) F_CLIENT_DATA  Size = 20 
|------------------------------------------------|----------------|
|00 01 02 03 04 05 06 07 08 09 0A 0B 0C 0D 0E 0F |0123456789ABCDEF|
|------------------------------------------------|----------------|
|00 08 01 B2 00 49 00 00 00 E8 00 A4 00 04 4E 38 |.....I........N8|
|01 00 BB BE                                     |....            |
-------------------------------------------------------------------
[Client] packet : (0xE8) F_CLIENT_DATA  Size = 20 
|------------------------------------------------|----------------|
|00 01 02 03 04 05 06 07 08 09 0A 0B 0C 0D 0E 0F |0123456789ABCDEF|
|------------------------------------------------|----------------|
|00 08 01 B3 00 49 00 00 00 E8 00 24 00 04 74 21 |.....I.....$..t!|
|01 00 BB 31                                     |....            |
-------------------------------------------------------------------
[Client] packet : (0xE8) F_CLIENT_DATA  Size = 20 
|------------------------------------------------|----------------|
|00 01 02 03 04 05 06 07 08 09 0A 0B 0C 0D 0E 0F |0123456789ABCDEF|
|------------------------------------------------|----------------|
|00 08 01 B4 00 49 00 00 00 E8 00 34 00 04 6C 21 |.....I.....4..l!|
|01 00 E7 BA                                     |....            |
-------------------------------------------------------------------
[Server] packet : (0x1B) F_REQ_CAMPAIGN_STATUS  Size = 15 
|------------------------------------------------|----------------|
|00 01 02 03 04 05 06 07 08 09 0A 0B 0C 0D 0E 0F |0123456789ABCDEF|
|------------------------------------------------|----------------|
|00 0C 1B 00 1B D3 00 00 15 4B 91 00 0E 28 00    |............... |
-------------------------------------------------------------------
[Server] packet : (0x1B) F_REQ_CAMPAIGN_STATUS  Size = 15 
|------------------------------------------------|----------------|
|00 01 02 03 04 05 06 07 08 09 0A 0B 0C 0D 0E 0F |0123456789ABCDEF|
|------------------------------------------------|----------------|
|00 0C 1B 00 23 3C 00 00 15 5E F7 00 0E 5D 00    |............... |
-------------------------------------------------------------------
[Client] packet : (0x0B) F_PING  Size = 32 
|------------------------------------------------|----------------|
|00 01 02 03 04 05 06 07 08 09 0A 0B 0C 0D 0E 0F |0123456789ABCDEF|
|------------------------------------------------|----------------|
|00 14 01 C6 00 49 00 00 00 0B 00 02 09 F2 C6 77 |.....I.........w|
|3B B9 5C 3C C1 CE 00 00 00 00 00 00 00 00 7F 05 |;.\<............|                                                
-------------------------------------------------------------------
[Server] packet : (0x1B) F_REQ_CAMPAIGN_STATUS  Size = 15 
|------------------------------------------------|----------------|
|00 01 02 03 04 05 06 07 08 09 0A 0B 0C 0D 0E 0F |0123456789ABCDEF|
|------------------------------------------------|----------------|
|00 0C 1B 00 14 48 00 00 15 5E F3 00 0E 5D 00    |............... |
-------------------------------------------------------------------
[Server] packet : (0x81) S_PONG  Size = 23 
|------------------------------------------------|----------------|
|00 01 02 03 04 05 06 07 08 09 0A 0B 0C 0D 0E 0F |0123456789ABCDEF|
|------------------------------------------------|----------------|
|00 14 81 00 02 09 F2 52 82 82 DC 00 00 00 00 00 |.......R........|
|00 01 C7 00 00 00 00                            |.......         |
-------------------------------------------------------------------
[Server] packet : (0x1B) F_REQ_CAMPAIGN_STATUS  Size = 15 
|------------------------------------------------|----------------|
|00 01 02 03 04 05 06 07 08 09 0A 0B 0C 0D 0E 0F |0123456789ABCDEF|
|------------------------------------------------|----------------|
|00 0C 1B 00 1B D3 00 00 15 55 34 00 0E 29 00    |............... |
-------------------------------------------------------------------
[Server] packet : (0x1B) F_REQ_CAMPAIGN_STATUS  Size = 15 
|------------------------------------------------|----------------|
|00 01 02 03 04 05 06 07 08 09 0A 0B 0C 0D 0E 0F |0123456789ABCDEF|
|------------------------------------------------|----------------|
|00 0C 1B 00 23 3C 00 00 15 5A 03 00 0E 64 00    |............... |
-------------------------------------------------------------------
[Client] packet : (0xD2) F_INTERACT  Size = 24 
|------------------------------------------------|----------------|
|00 01 02 03 04 05 06 07 08 09 0A 0B 0C 0D 0E 0F |0123456789ABCDEF|
|------------------------------------------------|----------------|
|00 0C 01 C9 00 49 00 00 00 D2 00 00 03 89 00 00 |.....I..........|
|00 00 00 00 00 00 00 00                         |........        |
-------------------------------------------------------------------
[Client] packet : (0xE8) F_CLIENT_DATA  Size = 20 
|------------------------------------------------|----------------|
|00 01 02 03 04 05 06 07 08 09 0A 0B 0C 0D 0E 0F |0123456789ABCDEF|
|------------------------------------------------|----------------|
|00 08 01 CB 00 49 00 00 00 E8 00 18 00 04 65 21 |.....I........e!|
|01 00 00 00                                     |....            |
-------------------------------------------------------------------
[Client] packet : (0xE8) F_CLIENT_DATA  Size = 20 
|------------------------------------------------|----------------|
|00 01 02 03 04 05 06 07 08 09 0A 0B 0C 0D 0E 0F |0123456789ABCDEF|
|------------------------------------------------|----------------|
|00 08 01 CC 00 49 00 00 00 E8 00 A4 00 04 4F 38 |.....I........O8|
|01 00 ED 56                                     |....            |
-------------------------------------------------------------------
[Client] packet : (0xE8) F_CLIENT_DATA  Size = 20 
|------------------------------------------------|----------------|
|00 01 02 03 04 05 06 07 08 09 0A 0B 0C 0D 0E 0F |0123456789ABCDEF|
|------------------------------------------------|----------------|
|00 08 01 CD 00 49 00 00 00 E8 00 24 00 04 79 21 |.....I.....$..y!|
|01 00 D4 06                                     |....            |
-------------------------------------------------------------------
[Client] packet : (0xE8) F_CLIENT_DATA  Size = 20 
|------------------------------------------------|----------------|
|00 01 02 03 04 05 06 07 08 09 0A 0B 0C 0D 0E 0F |0123456789ABCDEF|
|------------------------------------------------|----------------|
|00 08 01 CE 00 49 00 00 00 E8 00 34 00 04 6B 21 |.....I.....4..k!|
|01 00 2F 7D                                     |....            |
-------------------------------------------------------------------
[Server] packet : (0x44) F_ACTION_COUNTER_UPDATE  Size = 11 
|------------------------------------------------|----------------|
|00 01 02 03 04 05 06 07 08 09 0A 0B 0C 0D 0E 0F |0123456789ABCDEF|
|------------------------------------------------|----------------|
|00 08 44 01 D7 00 00 00 00 00 00                |...........     |
-------------------------------------------------------------------
[Server] packet : (0x86) F_MAIL  Size = 6 
|------------------------------------------------|----------------|
|00 01 02 03 04 05 06 07 08 09 0A 0B 0C 0D 0E 0F |0123456789ABCDEF|
|------------------------------------------------|----------------|
|00 03 86 00 00 00                               |......          |
-------------------------------------------------------------------
[Server] packet : (0x86) F_MAIL  Size = 13 
|------------------------------------------------|----------------|
|00 01 02 03 04 05 06 07 08 09 0A 0B 0C 0D 0E 0F |0123456789ABCDEF|
|------------------------------------------------|----------------|
|00 0A 86 0E 00 00 00 00 1E 0A D7 A3 00          |.............   |
-------------------------------------------------------------------
[Server] packet : (0x0A) F_OBJECT_DEATH  Size = 15 
|------------------------------------------------|----------------|
|00 01 02 03 04 05 06 07 08 09 0A 0B 0C 0D 0E 0F |0123456789ABCDEF|
|------------------------------------------------|----------------|
|00 0C 0A 35 91 01 00 34 8E 00 00 00 00 20 00    |............... |
-------------------------------------------------------------------
[Server] packet : (0x86) F_MAIL  Size = 9 
|------------------------------------------------|----------------|
|00 01 02 03 04 05 06 07 08 09 0A 0B 0C 0D 0E 0F |0123456789ABCDEF|
|------------------------------------------------|----------------|
|00 06 86 0A 00 00 00 00 00                      |.........       |
-------------------------------------------------------------------
[Server] packet : (0x86) F_MAIL  Size = 9 
|------------------------------------------------|----------------|
|00 01 02 03 04 05 06 07 08 09 0A 0B 0C 0D 0E 0F |0123456789ABCDEF|
|------------------------------------------------|----------------|
|00 06 86 0A 01 00 00 00 00                      |.........       |
-------------------------------------------------------------------
[Server] packet : (0x06) F_CHAT  Size = 50 
|------------------------------------------------|----------------|
|00 01 02 03 04 05 06 07 08 09 0A 0B 0C 0D 0E 0F |0123456789ABCDEF|
|------------------------------------------------|----------------|
|00 2F 06 00 00 06 01 00 00 00 0A 53 6E 69 65 64 |./.........Snied|
|65 72 5E 4D 00 00 1A 74 61 6B 65 20 6C 61 73 74 |er^M...take last|
|20 62 6F 20 69 6E 20 74 6D 20 6D 61 79 62 65 3F | bo in tm maybe?|
|00 00                                           |..              |
-------------------------------------------------------------------