
[Client] packet : (0x5A) F_PING_DATAGRAM  Size = 13 
|------------------------------------------------|----------------|
|00 01 02 03 04 05 06 07 08 09 0A 0B 0C 0D 0E 0F |0123456789ABCDEF|
|------------------------------------------------|----------------|
|00 01 03 CB 00 2F FF FF 00 5A 00 D8 FA          |.............   |
-------------------------------------------------------------------
[Client] packet : (0x16) F_REQUEST_INIT_OBJECT  Size = 16 
|------------------------------------------------|----------------|
|00 01 02 03 04 05 06 07 08 09 0A 0B 0C 0D 0E 0F |0123456789ABCDEF|
|------------------------------------------------|----------------|
|00 04 03 CC 00 2F 00 00 00 16 01 D1 00 00 00 00 |...../..........|                                                
-------------------------------------------------------------------
[Client] packet : (0x16) F_REQUEST_INIT_OBJECT  Size = 16 
|------------------------------------------------|----------------|
|00 01 02 03 04 05 06 07 08 09 0A 0B 0C 0D 0E 0F |0123456789ABCDEF|
|------------------------------------------------|----------------|
|00 04 03 CD 00 2F 00 00 00 16 01 D2 00 00 3C D5 |...../........<.|                                                
-------------------------------------------------------------------
[Client] packet : (0x16) F_REQUEST_INIT_OBJECT  Size = 16 
|------------------------------------------------|----------------|
|00 01 02 03 04 05 06 07 08 09 0A 0B 0C 0D 0E 0F |0123456789ABCDEF|
|------------------------------------------------|----------------|
|00 04 03 CE 00 2F 00 00 00 16 01 D3 00 00 83 FC |...../..........|                                                
-------------------------------------------------------------------
[Client] packet : (0x01) UNKNOWN  Size = 32 
|------------------------------------------------|----------------|
|00 01 02 03 04 05 06 07 08 09 0A 0B 0C 0D 0E 0F |0123456789ABCDEF|
|------------------------------------------------|----------------|
|00 14 03 CF 00 2F 00 00 00 01 00 01 E7 97 00 23 |...../.........#|
|39 B0 08 18 C0 4A 20 07 7E 7B 90 38 59 8C 00 00 |9....J .~{.8Y...|                                                
-------------------------------------------------------------------
[Server] packet : (0x72) F_CREATE_MONSTER  Size = 114 
|------------------------------------------------|----------------|
|00 01 02 03 04 05 06 07 08 09 0A 0B 0C 0D 0E 0F |0123456789ABCDEF|
|------------------------------------------------|----------------|
|00 6F 72 01 D1 00 00 00 22 43 CA 00 06 B8 86 00 |.or....."C......|
|02 56 32 00 00 04 C4 32 28 81 00 00 00 00 00 00 |.V2....2(.......|
|00 01 00 03 E8 00 00 00 00 BA 01 00 00 00 00 01 |................|
|19 00 43 68 61 6F 73 20 41 73 70 69 72 61 6E 74 |..Chaos Aspirant|
|5E 6D 00 00 00 00 08 01 0A 00 00 00 12 11 00 01 |^m..............|
|D1 78 86 D6 32 43 CA 64 00 A1 00 00 00 00 08 22 |.x..2C.d......."|
|00 01 D1 00 03 00 0A 05 2D 00 14 09 E1 00 16 09 |........-.......|
|E0 00                                           |..              |
-------------------------------------------------------------------
[Server] packet : (0x00) UNKNOWN  Size = 23 
|------------------------------------------------|----------------|
|00 01 02 03 04 05 06 07 08 09 0A 0B 0C 0D 0E 0F |0123456789ABCDEF|
|------------------------------------------------|----------------|
|00 14 00 00 01 E7 97 83 6F E4 4A 00 00 00 00 20 |........o.J.... |
|07 7E 7B 90 38 59 00                            |.......         |
-------------------------------------------------------------------
[Server] packet : (0x72) F_CREATE_MONSTER  Size = 138 
|------------------------------------------------|----------------|
|00 01 02 03 04 05 06 07 08 09 0A 0B 0C 0D 0E 0F |0123456789ABCDEF|
|------------------------------------------------|----------------|
|00 87 72 01 D2 00 00 02 2D 43 CC 00 06 B8 60 00 |..r.....-C....`.|
|02 56 60 00 00 04 C5 32 1C 81 00 00 00 00 00 00 |.V`....2........|
|00 01 00 03 E8 00 00 00 00 BA 01 00 02 00 00 01 |................|
|19 00 52 61 76 65 6E 20 5A 65 61 6C 6F 74 5E 66 |..Raven Zealot^f|
|00 00 00 00 08 01 0A 00 00 00 18 25 00 01 D2 78 |...........%...x|
|60 D6 60 43 CC 64 00 A1 20 00 00 00 08 D1 01 DD |`.`C.d.. .......|
|FF 30 00 02 00 01 D2 00 08 00 0A 0C B7 00 0B 07 |.0..............|
|5B 00 14 0B 30 00 15 0B 32 00 16 0B 31 00 17 0B |[...0...2...1...|
|34 00 18 0B 33 00 1C 0B 2F 00                   |..........      |
-------------------------------------------------------------------
[Server] packet : (0x72) F_CREATE_MONSTER  Size = 138 
|------------------------------------------------|----------------|
|00 01 02 03 04 05 06 07 08 09 0A 0B 0C 0D 0E 0F |0123456789ABCDEF|
|------------------------------------------------|----------------|
|00 87 72 01 D3 00 00 03 BB 43 CC 00 06 B8 B3 00 |..r......C......|
|02 56 5C 00 00 04 C4 32 25 81 00 00 00 00 00 00 |.V\....2%.......|
|00 01 00 03 E8 00 00 00 00 BA 01 00 01 00 00 01 |................|
|19 00 52 61 76 65 6E 20 4D 61 72 61 75 64 65 72 |..Raven Marauder|
|5E 6D 00 00 00 00 08 01 0A 00 00 00 18 23 00 01 |^m...........#..|
|D3 78 B3 D6 5C 43 CC 64 00 A1 20 00 00 00 08 D1 |.x..\C.d.. .....|
|01 2F 00 27 00 02 00 01 D3 00 07 00 0A 07 8C 00 |./.'............|
|14 0B CC 00 15 0B CD 00 16 0B CE 00 18 0B CF 00 |................|
|19 0C 7A 01 1C 0B D0 36 35 00                   |..........      |
-------------------------------------------------------------------
[Client] packet : (0xD2) F_INTERACT  Size = 24 
|------------------------------------------------|----------------|
|00 01 02 03 04 05 06 07 08 09 0A 0B 0C 0D 0E 0F |0123456789ABCDEF|
|------------------------------------------------|----------------|
|00 0C 03 D4 00 2F 00 00 00 D2 00 00 00 1F 00 00 |...../..........|
|00 00 00 00 00 00 00 00                         |........        |
-------------------------------------------------------------------
[Client] packet : (0xE8) F_CLIENT_DATA  Size = 20 
|------------------------------------------------|----------------|
|00 01 02 03 04 05 06 07 08 09 0A 0B 0C 0D 0E 0F |0123456789ABCDEF|
|------------------------------------------------|----------------|
|00 08 03 D6 00 2F 00 00 00 E8 00 34 00 04 6B 21 |...../.....4..k!|
|01 00 00 00                                     |....            |
-------------------------------------------------------------------
[Server] packet : (0x7E) F_SET_ABILITY_TIMER  Size = 15 
|------------------------------------------------|----------------|
|00 01 02 03 04 05 06 07 08 09 0A 0B 0C 0D 0E 0F |0123456789ABCDEF|
|------------------------------------------------|----------------|
|00 0C 7E 00 01 01 00 00 00 00 00 00 00 00 00    |............... |
-------------------------------------------------------------------
[Server] packet : (0xE9) F_INTERACT_RESPONSE  Size = 11 
|------------------------------------------------|----------------|
|00 01 02 03 04 05 06 07 08 09 0A 0B 0C 0D 0E 0F |0123456789ABCDEF|
|------------------------------------------------|----------------|
|00 08 E9 00 00 1F 00 00 00 02 00                |...........     |
-------------------------------------------------------------------
[Client] packet : (0xD2) F_INTERACT  Size = 24 
|------------------------------------------------|----------------|
|00 01 02 03 04 05 06 07 08 09 0A 0B 0C 0D 0E 0F |0123456789ABCDEF|
|------------------------------------------------|----------------|
|00 0C 03 D7 00 2F 00 00 00 D2 00 00 00 1F 00 09 |...../..........|
|00 00 00 00 00 00 1F BA                         |........        |
-------------------------------------------------------------------
[Server] packet : (0xBF) F_INIT_STORE  Size = 4434 
|------------------------------------------------|----------------|
|00 01 02 03 04 05 06 07 08 09 0A 0B 0C 0D 0E 0F |0123456789ABCDEF|
|------------------------------------------------|----------------|
|11 4F BF 00 00 00 10 01 00 00 00 00 03 00 00 00 |.O..............|
|00 00 00 03 2E 61 01 A4 00 00 00 00 00 00 00 00 |.....a..........|
|00 24 00 00 00 00 00 01 00 00 00 00 00 00 00 00 |.$..............|
|00 00 00 00 00 00 00 FA 00 01 00 00 00 00 00 00 |................|
|00 00 00 00 00 00 2C 44 6F 6F 6D 66 6C 61 79 65 |......,Doomflaye|
|72 20 43 72 65 73 74 73 0A 45 78 63 68 61 6E 67 |r Crests.Exchang|
|65 20 42 61 67 20 6F 66 20 57 61 72 20 43 72 65 |e Bag of War Cre|
|73 74 73 00 00 00 00 00 00 60 52 65 63 65 69 76 |sts......`Receiv|
|65 64 20 61 66 74 65 72 20 65 78 63 68 61 6E 67 |ed after exchang|
|69 6E 67 20 73 6F 6D 65 20 6F 6C 64 20 44 6F 6F |ing some old Doo|
|6D 66 6C 61 79 65 72 20 43 72 65 73 74 73 2E 0A |mflayer Crests..|
|0A 43 6F 6E 76 65 72 74 20 74 68 69 73 20 69 74 |.Convert this it|
|65 6D 20 74 6F 20 63 6C 61 69 6D 20 31 30 20 57 |em to claim 10 W|
|61 72 20 43 72 65 73 74 73 2E 01 01 00 00 03 06 |ar Crests.......|
|80 08 00 00 00 00 00 00 00 00 00 00 00 00 00 00 |................|
|00 00 00 00 00 01 00 03 2E 4C 22 A4 10 44 6F 6F |.........L"..Doo|
|6D 66 6C 61 79 65 72 20 43 72 65 73 74 00 02 00 |mflayer Crest...|
|00 00 00 00 00 00 00 00 00 00 00 00 00 00 00 00 |................|
|00 01 03 00 00 00 00 00 00 03 1D 3B 0F 2B 00 00 |...........;.+..|
|00 00 00 00 00 00 00 24 00 00 00 00 00 01 00 00 |.......$........|
|00 00 00 00 00 00 00 00 00 00 00 00 00 19 00 01 |................|
|00 00 00 00 00 00 00 00 00 00 00 00 2C 44 6F 6F |............,Doo|
|6D 66 6C 61 79 65 72 20 43 72 65 73 74 73 0A 45 |mflayer Crests.E|
|78 63 68 61 6E 67 65 20 42 61 67 20 6F 66 20 57 |xchange Bag of W|
|61 72 20 43 72 65 73 74 73 00 00 00 00 00 00 61 |ar Crests......a|
|52 65 63 65 69 76 65 64 20 61 66 74 65 72 20 65 |Received after e|
|78 63 68 61 6E 67 69 6E 67 20 73 6F 6D 65 20 6F |xchanging some o|
|6C 64 20 44 6F 6F 6D 66 6C 61 79 65 72 20 43 72 |ld Doomflayer Cr|
|65 73 74 73 2E 0A 0A 43 6F 6E 76 65 72 74 20 74 |ests...Convert t|
|68 69 73 20 69 74 65 6D 20 74 6F 20 63 6C 61 69 |his item to clai|
|6D 20 31 30 30 20 57 61 72 20 43 72 65 73 74 73 |m 100 War Crests|
|2E 01 01 00 00 03 06 80 08 00 00 00 00 00 00 00 |................|
|00 00 00 00 00 00 00 00 00 00 00 00 01 00 03 2E |................|
|4C 22 A4 10 44 6F 6F 6D 66 6C 61 79 65 72 20 43 |L"..Doomflayer C|
|72 65 73 74 00 14 00 00 00 00 00 00 00 00 00 00 |rest............|
|00 00 00 00 00 00 00 00 02 03 00 00 00 00 00 00 |................|
|03 2E 62 01 A4 00 00 00 00 00 00 00 00 00 24 00 |..b...........$.|
|00 00 00 00 01 00 00 00 00 00 00 00 00 00 00 00 |................|
|00 00 00 00 FA 00 01 00 00 00 00 00 00 00 00 00 |................|
|00 00 00 2D 43 61 70 74 61 69 6E 20 4D 65 64 61 |...-Captain Meda|
|6C 6C 69 6F 6E 73 0A 45 78 63 68 61 6E 67 65 20 |llions.Exchange |
|42 61 67 20 6F 66 20 57 61 72 20 43 72 65 73 74 |Bag of War Crest|
|73 00 00 00 00 00 00 61 52 65 63 65 69 76 65 64 |s......aReceived|
|20 61 66 74 65 72 20 65 78 63 68 61 6E 67 69 6E | after exchangin|
|67 20 73 6F 6D 65 20 6F 6C 64 20 43 61 70 74 61 |g some old Capta|
|69 6E 20 4D 65 64 61 6C 6C 69 6F 6E 73 2E 0A 0A |in Medallions...|
|43 6F 6E 76 65 72 74 20 74 68 69 73 20 69 74 65 |Convert this ite|
|6D 20 74 6F 20 63 6C 61 69 6D 20 31 30 20 57 61 |m to claim 10 Wa|
|72 20 43 72 65 73 74 73 2E 01 01 00 00 03 06 80 |r Crests........|
|08 00 00 00 00 00 00 00 00 00 00 00 00 00 00 00 |................|
|00 00 00 00 01 00 03 2E 4A 22 A3 13 43 61 70 74 |........J"..Capt|
|61 69 6E 27 73 20 4D 65 64 61 6C 6C 69 6F 6E 00 |ain's Medallion.|
|02 00 00 00 00 00 00 00 00 00 00 00 00 00 00 00 |................|
|00 00 00 03 03 00 00 00 00 00 00 03 1D 3C 0F 2B |.............<.+|
|00 00 00 00 00 00 00 00 00 24 00 00 00 00 00 01 |.........$......|
|00 00 00 00 00 00 00 00 00 00 00 00 00 00 00 19 |................|
|00 01 00 00 00 00 00 00 00 00 00 00 00 00 2D 43 |..............-C|
|61 70 74 61 69 6E 20 4D 65 64 61 6C 6C 69 6F 6E |aptain Medallion|
|73 0A 45 78 63 68 61 6E 67 65 20 42 61 67 20 6F |s.Exchange Bag o|
|66 20 57 61 72 20 43 72 65 73 74 73 00 00 00 00 |f War Crests....|
|00 00 62 52 65 63 65 69 76 65 64 20 61 66 74 65 |..bReceived afte|
|72 20 65 78 63 68 61 6E 67 69 6E 67 20 73 6F 6D |r exchanging som|
|65 20 6F 6C 64 20 43 61 70 74 61 69 6E 20 4D 65 |e old Captain Me|
|64 61 6C 6C 69 6F 6E 73 2E 0A 0A 43 6F 6E 76 65 |dallions...Conve|
|72 74 20 74 68 69 73 20 69 74 65 6D 20 74 6F 20 |rt this item to |
|63 6C 61 69 6D 20 31 30 30 20 57 61 72 20 43 72 |claim 100 War Cr|
|65 73 74 73 2E 01 01 00 00 03 06 80 08 00 00 00 |ests............|
|00 00 00 00 00 00 00 00 00 00 00 00 00 00 00 00 |................|
|01 00 03 2E 4A 22 A3 13 43 61 70 74 61 69 6E 27 |....J"..Captain'|
|73 20 4D 65 64 61 6C 6C 69 6F 6E 00 14 00 00 00 |s Medallion.....|
|00 00 00 00 00 00 00 00 00 00 00 00 00 00 00 04 |................|
|03 00 00 00 00 00 00 03 2E 63 01 A4 00 00 00 00 |.........c......|
|00 00 00 00 00 24 00 00 00 00 00 01 00 00 00 00 |.....$..........|
|00 00 00 00 00 00 00 00 00 00 00 FA 00 01 00 00 |................|
|00 00 00 00 00 00 00 00 00 00 27 52 6F 79 61 6C |..........'Royal|
|20 43 72 65 73 74 73 0A 45 78 63 68 61 6E 67 65 | Crests.Exchange|
|20 42 61 67 20 6F 66 20 57 61 72 20 43 72 65 73 | Bag of War Cres|
|74 73 00 00 00 00 00 00 5A 52 65 63 65 69 76 65 |ts......ZReceive|
|64 20 61 66 74 65 72 20 65 78 63 68 61 6E 67 69 |d after exchangi|
|6E 67 20 73 6F 6D 65 20 6F 6C 64 20 52 6F 79 61 |ng some old Roya|
|6C 20 43 72 65 73 74 73 2E 0A 0A 43 6F 6E 76 65 |l Crests...Conve|
|72 74 20 74 68 69 73 20 69 74 65 6D 20 74 6F 20 |rt this item to |
|63 6C 61 69 6D 20 38 20 57 61 72 20 43 72 65 73 |claim 8 War Cres|
|74 73 2E 01 01 00 00 03 06 80 08 00 00 00 00 00 |ts..............|
|00 00 00 00 00 00 00 00 00 00 00 00 00 00 01 00 |................|
|03 2E 47 1E 20 0B 52 6F 79 61 6C 20 43 72 65 73 |..G. .Royal Cres|
|74 00 02 00 00 00 00 00 00 00 00 00 00 00 00 00 |t...............|
|00 00 00 00 00 05 03 00 00 00 00 00 00 03 1D 3D |...............=|
|0F 2B 00 00 00 00 00 00 00 00 00 24 00 00 00 00 |.+.........$....|
|00 01 00 00 00 00 00 00 00 00 00 00 00 00 00 00 |................|
|00 19 00 01 00 00 00 00 00 00 00 00 00 00 00 00 |................|
|27 52 6F 79 61 6C 20 43 72 65 73 74 73 0A 45 78 |'Royal Crests.Ex|
|63 68 61 6E 67 65 20 42 61 67 20 6F 66 20 57 61 |change Bag of Wa|
|72 20 43 72 65 73 74 73 00 00 00 00 00 00 5B 52 |r Crests......[R|
|65 63 65 69 76 65 64 20 61 66 74 65 72 20 65 78 |eceived after ex|
|63 68 61 6E 67 69 6E 67 20 73 6F 6D 65 20 6F 6C |changing some ol|
|64 20 52 6F 79 61 6C 20 43 72 65 73 74 73 2E 0A |d Royal Crests..|
|0A 43 6F 6E 76 65 72 74 20 74 68 69 73 20 69 74 |.Convert this it|
|65 6D 20 74 6F 20 63 6C 61 69 6D 20 38 30 20 57 |em to claim 80 W|
|61 72 20 43 72 65 73 74 73 2E 01 01 00 00 03 06 |ar Crests.......|
|80 08 00 00 00 00 00 00 00 00 00 00 00 00 00 00 |................|
|00 00 00 00 00 01 00 03 2E 47 1E 20 0B 52 6F 79 |.........G. .Roy|
|61 6C 20 43 72 65 73 74 00 14 00 00 00 00 00 00 |al Crest........|
|00 00 00 00 00 00 00 00 00 00 00 00 06 03 00 00 |................|
|00 00 00 00 03 2E 64 01 A4 00 00 00 00 00 00 00 |......d.........|
|00 00 24 00 00 00 00 00 01 00 00 00 00 00 00 00 |..$.............|
|00 00 00 00 00 00 00 00 FA 00 01 00 00 00 00 00 |................|
|00 00 00 00 00 00 00 29 57 61 72 6C 6F 72 64 20 |.......)Warlord |
|43 72 65 73 74 73 0A 45 78 63 68 61 6E 67 65 20 |Crests.Exchange |
|42 61 67 20 6F 66 20 57 61 72 20 43 72 65 73 74 |Bag of War Crest|
|73 00 00 00 00 00 00 5C 52 65 63 65 69 76 65 64 |s......\Received|
|20 61 66 74 65 72 20 65 78 63 68 61 6E 67 69 6E | after exchangin|
|67 20 73 6F 6D 65 20 6F 6C 64 20 57 61 72 6C 6F |g some old Warlo|
|72 64 20 43 72 65 73 74 73 2E 0A 0A 43 6F 6E 76 |rd Crests...Conv|
|65 72 74 20 74 68 69 73 20 69 74 65 6D 20 74 6F |ert this item to|
|20 63 6C 61 69 6D 20 39 20 57 61 72 20 43 72 65 | claim 9 War Cre|
|73 74 73 2E 01 01 00 00 03 06 80 08 00 00 00 00 |sts.............|
|00 00 00 00 00 00 00 00 00 00 00 00 00 00 00 01 |................|
|00 03 2E 46 1E 23 0F 57 61 72 6C 6F 72 64 27 73 |...F.#.Warlord's|
|20 43 72 65 73 74 00 03 00 00 00 00 00 00 00 00 | Crest..........|
|00 00 00 00 00 00 00 00 00 00 07 03 00 00 00 00 |................|
|00 00 03 1D 3E 0F 2B 00 00 00 00 00 00 00 00 00 |....>.+.........|
|24 00 00 00 00 00 01 00 00 00 00 00 00 00 00 00 |$...............|
|00 00 00 00 00 00 19 00 01 00 00 00 00 00 00 00 |................|
|00 00 00 00 00 29 57 61 72 6C 6F 72 64 20 43 72 |.....)Warlord Cr|
|65 73 74 73 0A 45 78 63 68 61 6E 67 65 20 42 61 |ests.Exchange Ba|
|67 20 6F 66 20 57 61 72 20 43 72 65 73 74 73 00 |g of War Crests.|
|00 00 00 00 00 5D 52 65 63 65 69 76 65 64 20 61 |.....]Received a|
|66 74 65 72 20 65 78 63 68 61 6E 67 69 6E 67 20 |fter exchanging |
|73 6F 6D 65 20 6F 6C 64 20 57 61 72 6C 6F 72 64 |some old Warlord|
|20 43 72 65 73 74 73 2E 0A 0A 43 6F 6E 76 65 72 | Crests...Conver|
|74 20 74 68 69 73 20 69 74 65 6D 20 74 6F 20 63 |t this item to c|
|6C 61 69 6D 20 39 30 20 57 61 72 20 43 72 65 73 |laim 90 War Cres|
|74 73 2E 01 01 00 00 03 06 80 08 00 00 00 00 00 |ts..............|
|00 00 00 00 00 00 00 00 00 00 00 00 00 00 01 00 |................|
|03 2E 46 1E 23 0F 57 61 72 6C 6F 72 64 27 73 20 |..F.#.Warlord's |
|43 72 65 73 74 00 1E 00 00 00 00 00 00 00 00 00 |Crest...........|
|00 00 00 00 00 00 00 00 00 08 03 00 00 00 00 00 |................|
|00 03 2E 65 01 A4 00 00 00 00 00 00 00 00 00 24 |...e...........$|
|00 00 00 00 00 01 00 00 00 00 00 00 00 00 00 00 |................|
|00 00 00 00 00 FA 00 01 00 00 00 00 00 00 00 00 |................|
|00 00 00 00 29 49 6E 76 61 64 65 72 20 43 72 65 |....)Invader Cre|
|73 74 73 0A 45 78 63 68 61 6E 67 65 20 42 61 67 |sts.Exchange Bag|
|20 6F 66 20 57 61 72 20 43 72 65 73 74 73 00 00 | of War Crests..|
|00 00 00 00 5D 52 65 63 65 69 76 65 64 20 61 66 |....]Received af|
|74 65 72 20 65 78 63 68 61 6E 67 69 6E 67 20 73 |ter exchanging s|
|6F 6D 65 20 6F 6C 64 20 49 6E 76 61 64 65 72 20 |ome old Invader |
|43 72 65 73 74 73 2E 0A 0A 43 6F 6E 76 65 72 74 |Crests...Convert|
|20 74 68 69 73 20 69 74 65 6D 20 74 6F 20 63 6C | this item to cl|
|61 69 6D 20 31 30 20 57 61 72 20 43 72 65 73 74 |aim 10 War Crest|
|73 2E 01 01 00 00 03 06 80 08 00 00 00 00 00 00 |s...............|
|00 00 00 00 00 00 00 00 00 00 00 00 00 01 00 03 |................|
|2E 45 1E 1E 0F 49 6E 76 61 64 65 72 27 73 20 43 |.E...Invader's C|
|72 65 73 74 00 05 00 00 00 00 00 00 00 00 00 00 |rest............|
|00 00 00 00 00 00 00 00 09 03 00 00 00 00 00 00 |................|
|03 1D 3F 0F 2B 00 00 00 00 00 00 00 00 00 24 00 |..?.+.........$.|
|00 00 00 00 01 00 00 00 00 00 00 00 00 00 00 00 |................|
|00 00 00 00 19 00 01 00 00 00 00 00 00 00 00 00 |................|
|00 00 00 29 49 6E 76 61 64 65 72 20 43 72 65 73 |...)Invader Cres|
|74 73 0A 45 78 63 68 61 6E 67 65 20 42 61 67 20 |ts.Exchange Bag |
|6F 66 20 57 61 72 20 43 72 65 73 74 73 00 00 00 |of War Crests...|
|00 00 00 5E 52 65 63 65 69 76 65 64 20 61 66 74 |...^Received aft|
|65 72 20 65 78 63 68 61 6E 67 69 6E 67 20 73 6F |er exchanging so|
|6D 65 20 6F 6C 64 20 49 6E 76 61 64 65 72 20 43 |me old Invader C|
|72 65 73 74 73 2E 0A 0A 43 6F 6E 76 65 72 74 20 |rests...Convert |
|74 68 69 73 20 69 74 65 6D 20 74 6F 20 63 6C 61 |this item to cla|
|69 6D 20 31 30 30 20 57 61 72 20 43 72 65 73 74 |im 100 War Crest|
|73 2E 01 01 00 00 03 06 80 08 00 00 00 00 00 00 |s...............|
|00 00 00 00 00 00 00 00 00 00 00 00 00 01 00 03 |................|
|2E 45 1E 1E 0F 49 6E 76 61 64 65 72 27 73 20 43 |.E...Invader's C|
|72 65 73 74 00 32 00 00 00 00 00 00 00 00 00 00 |rest.2..........|
|00 00 00 00 00 00 00 00 0A 03 00 00 00 00 00 00 |................|
|03 2E 66 01 A4 00 00 00 00 00 00 00 00 00 24 00 |..f...........$.|
|00 00 00 00 01 00 00 00 00 00 00 00 00 00 00 00 |................|
|00 00 00 00 FA 00 01 00 00 00 00 00 00 00 00 00 |................|
|00 00 00 2B 43 6F 6E 71 75 65 72 6F 72 20 43 72 |...+Conqueror Cr|
|65 73 74 73 0A 45 78 63 68 61 6E 67 65 20 42 61 |ests.Exchange Ba|
|67 20 6F 66 20 57 61 72 20 43 72 65 73 74 73 00 |g of War Crests.|
|00 00 00 00 00 5F 52 65 63 65 69 76 65 64 20 61 |....._Received a|
|66 74 65 72 20 65 78 63 68 61 6E 67 69 6E 67 20 |fter exchanging |
|73 6F 6D 65 20 6F 6C 64 20 43 6F 6E 71 75 65 72 |some old Conquer|
|6F 72 20 43 72 65 73 74 73 2E 0A 0A 43 6F 6E 76 |or Crests...Conv|
|65 72 74 20 74 68 69 73 20 69 74 65 6D 20 74 6F |ert this item to|
|20 63 6C 61 69 6D 20 31 30 20 57 61 72 20 43 72 | claim 10 War Cr|
|65 73 74 73 2E 01 01 00 00 03 06 80 08 00 00 00 |ests............|
|00 00 00 00 00 00 00 00 00 00 00 00 00 00 00 00 |................|
|01 00 03 2E 44 1E 1C 11 43 6F 6E 71 75 65 72 6F |....D...Conquero|
|72 27 73 20 43 72 65 73 74 00 0A 00 00 00 00 00 |r's Crest.......|
|00 00 00 00 00 00 00 00 00 00 00 00 00 0B 03 00 |................|
|00 00 00 00 00 03 1D 40 0F 2B 00 00 00 00 00 00 |.......@.+......|
|00 00 00 24 00 00 00 00 00 01 00 00 00 00 00 00 |...$............|
|00 00 00 00 00 00 00 00 00 19 00 01 00 00 00 00 |................|
|00 00 00 00 00 00 00 00 2B 43 6F 6E 71 75 65 72 |........+Conquer|
|6F 72 20 43 72 65 73 74 73 0A 45 78 63 68 61 6E |or Crests.Exchan|
|67 65 20 42 61 67 20 6F 66 20 57 61 72 20 43 72 |ge Bag of War Cr|
|65 73 74 73 00 00 00 00 00 00 60 52 65 63 65 69 |ests......`Recei|
|76 65 64 20 61 66 74 65 72 20 65 78 63 68 61 6E |ved after exchan|
|67 69 6E 67 20 73 6F 6D 65 20 6F 6C 64 20 43 6F |ging some old Co|
|6E 71 75 65 72 6F 72 20 43 72 65 73 74 73 2E 0A |nqueror Crests..|
|0A 43 6F 6E 76 65 72 74 20 74 68 69 73 20 69 74 |.Convert this it|
|65 6D 20 74 6F 20 63 6C 61 69 6D 20 31 30 30 20 |em to claim 100 |
|57 61 72 20 43 72 65 73 74 73 2E 01 01 00 00 03 |War Crests......|
|06 80 08 00 00 00 00 00 00 00 00 00 00 00 00 00 |................|
|00 00 00 00 00 00 01 00 03 2E 44 1E 1C 11 43 6F |..........D...Co|
|6E 71 75 65 72 6F 72 27 73 20 43 72 65 73 74 00 |nqueror's Crest.|
|64 00 00 00 00 00 00 00 00 00 00 00 00 00 00 00 |d...............|
|00 00 00 0C 03 00 00 00 00 00 00 03 2E 67 01 A4 |.............g..|
|00 00 00 00 00 00 00 00 00 24 00 00 00 00 00 01 |.........$......|
|00 00 00 00 00 00 00 00 00 00 00 00 00 00 00 FA |................|
|00 01 00 00 00 00 00 00 00 00 00 00 00 00 2D 4F |..............-O|
|66 66 69 63 65 72 20 4D 65 64 61 6C 6C 69 6F 6E |fficer Medallion|
|73 0A 45 78 63 68 61 6E 67 65 20 42 61 67 20 6F |s.Exchange Bag o|
|66 20 57 61 72 20 43 72 65 73 74 73 00 00 00 00 |f War Crests....|
|00 00 61 52 65 63 65 69 76 65 64 20 61 66 74 65 |..aReceived afte|
|72 20 65 78 63 68 61 6E 67 69 6E 67 20 73 6F 6D |r exchanging som|
|65 20 6F 6C 64 20 4F 66 66 69 63 65 72 20 4D 65 |e old Officer Me|
|64 61 6C 6C 69 6F 6E 73 2E 0A 0A 43 6F 6E 76 65 |dallions...Conve|
|72 74 20 74 68 69 73 20 69 74 65 6D 20 74 6F 20 |rt this item to |
|63 6C 61 69 6D 20 31 30 20 57 61 72 20 43 72 65 |claim 10 War Cre|
|73 74 73 2E 01 01 00 00 03 06 80 08 00 00 00 00 |sts.............|
|00 00 00 00 00 00 00 00 00 00 00 00 00 00 00 01 |................|
|00 03 2E 13 1E 1D 13 4F 66 66 69 63 65 72 27 73 |.......Officer's|
|20 4D 65 64 61 6C 6C 69 6F 6E 00 0A 00 00 00 00 | Medallion......|
|00 00 00 00 00 00 00 00 00 00 00 00 00 00 0D 03 |................|
|00 00 00 00 00 00 03 1D 41 0F 2B 00 00 00 00 00 |........A.+.....|
|00 00 00 00 24 00 00 00 00 00 01 00 00 00 00 00 |....$...........|
|00 00 00 00 00 00 00 00 00 00 19 00 01 00 00 00 |................|
|00 00 00 00 00 00 00 00 00 2D 4F 66 66 69 63 65 |.........-Office|
|72 20 4D 65 64 61 6C 6C 69 6F 6E 73 0A 45 78 63 |r Medallions.Exc|
|68 61 6E 67 65 20 42 61 67 20 6F 66 20 57 61 72 |hange Bag of War|
|20 43 72 65 73 74 73 00 00 00 00 00 00 62 52 65 | Crests......bRe|
|63 65 69 76 65 64 20 61 66 74 65 72 20 65 78 63 |ceived after exc|
|68 61 6E 67 69 6E 67 20 73 6F 6D 65 20 6F 6C 64 |hanging some old|
|20 4F 66 66 69 63 65 72 20 4D 65 64 61 6C 6C 69 | Officer Medalli|
|6F 6E 73 2E 0A 0A 43 6F 6E 76 65 72 74 20 74 68 |ons...Convert th|
|69 73 20 69 74 65 6D 20 74 6F 20 63 6C 61 69 6D |is item to claim|
|20 31 30 30 20 57 61 72 20 43 72 65 73 74 73 2E | 100 War Crests.|
|01 01 00 00 03 06 80 08 00 00 00 00 00 00 00 00 |................|
|00 00 00 00 00 00 00 00 00 00 00 01 00 03 2E 13 |................|
|1E 1D 13 4F 66 66 69 63 65 72 27 73 20 4D 65 64 |...Officer's Med|
|61 6C 6C 69 6F 6E 00 64 00 00 00 00 00 00 00 00 |allion.d........|
|00 00 00 00 00 00 00 00 00 00 0E 03 00 00 00 00 |................|
|00 00 03 2E 68 01 A4 00 00 00 00 00 00 00 00 00 |....h...........|
|24 00 00 00 00 00 01 00 00 00 00 00 00 00 00 00 |$...............|
|00 00 00 00 00 00 FA 00 01 00 00 00 00 00 00 00 |................|
|00 00 00 00 00 2D 52 65 63 72 75 69 74 20 4D 65 |.....-Recruit Me|
|64 61 6C 6C 69 6F 6E 73 0A 45 78 63 68 61 6E 67 |dallions.Exchang|
|65 20 42 61 67 20 6F 66 20 57 61 72 20 43 72 65 |e Bag of War Cre|
|73 74 73 00 00 00 00 00 00 61 52 65 63 65 69 76 |sts......aReceiv|
|65 64 20 61 66 74 65 72 20 65 78 63 68 61 6E 67 |ed after exchang|
|69 6E 67 20 73 6F 6D 65 20 6F 6C 64 20 52 65 63 |ing some old Rec|
|72 75 69 74 20 4D 65 64 61 6C 6C 69 6F 6E 73 2E |ruit Medallions.|
|0A 0A 43 6F 6E 76 65 72 74 20 74 68 69 73 20 69 |..Convert this i|
|74 65 6D 20 74 6F 20 63 6C 61 69 6D 20 31 30 20 |tem to claim 10 |
|57 61 72 20 43 72 65 73 74 73 2E 01 01 00 00 03 |War Crests......|
|06 80 08 00 00 00 00 00 00 00 00 00 00 00 00 00 |................|
|00 00 00 00 00 00 01 00 03 2E 10 1E 1F 13 52 65 |..............Re|
|63 72 75 69 74 27 73 20 4D 65 64 61 6C 6C 69 6F |cruit's Medallio|
|6E 04 E2 00 00 00 00 00 00 00 00 00 00 00 00 00 |n...............|
|00 00 00 00 00 0F 03 00 00 00 00 00 00 03 1D 42 |...............B|
|0F 2B 00 00 00 00 00 00 00 00 00 24 00 00 00 00 |.+.........$....|
|00 01 00 00 00 00 00 00 00 00 00 00 00 00 00 00 |................|
|00 19 00 01 00 00 00 00 00 00 00 00 00 00 00 00 |................|
|2D 52 65 63 72 75 69 74 20 4D 65 64 61 6C 6C 69 |-Recruit Medalli|
|6F 6E 73 0A 45 78 63 68 61 6E 67 65 20 42 61 67 |ons.Exchange Bag|
|20 6F 66 20 57 61 72 20 43 72 65 73 74 73 00 00 | of War Crests..|
|00 00 00 00 62 52 65 63 65 69 76 65 64 20 61 66 |....bReceived af|
|74 65 72 20 65 78 63 68 61 6E 67 69 6E 67 20 73 |ter exchanging s|
|6F 6D 65 20 6F 6C 64 20 52 65 63 72 75 69 74 20 |ome old Recruit |
|4D 65 64 61 6C 6C 69 6F 6E 73 2E 0A 0A 43 6F 6E |Medallions...Con|
|76 65 72 74 20 74 68 69 73 20 69 74 65 6D 20 74 |vert this item t|
|6F 20 63 6C 61 69 6D 20 31 30 30 20 57 61 72 20 |o claim 100 War |
|43 72 65 73 74 73 2E 01 01 00 00 03 06 80 08 00 |Crests..........|
|00 00 00 00 00 00 00 00 00 00 00 00 00 00 00 00 |................|
|00 00 01 00 03 2E 10 1E 1F 13 52 65 63 72 75 69 |..........Recrui|
|74 27 73 20 4D 65 64 61 6C 6C 69 6F 6E 30 D4 00 |t's Medallion0..|
|00 00 00 00 00 00 00 00 00 00 00 00 00 00 00 00 |................|
|00 00                                           |..              |
-------------------------------------------------------------------
[Server] packet : (0xC0) F_STORE_BUY_BACK  Size = 5 
|------------------------------------------------|----------------|
|00 01 02 03 04 05 06 07 08 09 0A 0B 0C 0D 0E 0F |0123456789ABCDEF|
|------------------------------------------------|----------------|
|00 02 C0 00 00                                  |.....           |
-------------------------------------------------------------------
[Client] packet : (0xC8) F_INTERFACE_COMMAND  Size = 50 
|------------------------------------------------|----------------|
|00 01 02 03 04 05 06 07 08 09 0A 0B 0C 0D 0E 0F |0123456789ABCDEF|
|------------------------------------------------|----------------|
|00 26 03 D8 00 2F FF FF 00 C8 12 08 00 00 2E 4C |.&.../.........L|
|03 00 4A 2E 03 00 47 2E 03 00 46 2E 03 00 45 2E |..J...G...F...E.|
|03 00 44 2E 03 00 13 2E 03 00 10 2E 03 00 00 00 |..D.............|
|00 00                                           |..              |
-------------------------------------------------------------------
[Server] packet : (0xAA) F_GET_ITEM  Size = 1817 
|------------------------------------------------|----------------|
|00 01 02 03 04 05 06 07 08 09 0A 0B 0C 0D 0E 0F |0123456789ABCDEF|
|------------------------------------------------|----------------|
|07 16 AA 08 00 00 00 00 FE 00 00 03 2E 4C 22 A4 |.............L".|
|00 00 00 00 00 00 00 00 00 24 00 00 00 00 00 04 |.........$......|
|00 00 00 00 00 00 00 00 00 00 00 00 00 00 27 0F |..............'.|
|00 01 00 00 00 00 00 00 00 00 00 00 00 00 10 44 |...............D|
|6F 6F 6D 66 6C 61 79 65 72 20 43 72 65 73 74 00 |oomflayer Crest.|
|00 00 00 00 00 6E 41 20 73 65 61 6C 20 6F 66 20 |.....nA seal of |
|74 68 65 20 44 6F 6F 6D 66 6C 61 79 65 72 2E 20 |the Doomflayer. |
|54 68 65 73 65 20 63 61 6E 20 62 65 20 75 73 65 |These can be use|
|64 20 74 6F 20 74 72 61 64 65 20 66 6F 72 20 69 |d to trade for i|
|6E 63 72 65 64 69 62 6C 65 20 65 71 75 69 70 6D |ncredible equipm|
|65 6E 74 20 61 6E 64 20 73 75 70 70 6C 69 65 73 |ent and supplies|
|20 61 74 20 61 20 71 75 61 72 74 65 72 6D 61 73 | at a quartermas|
|74 65 72 2E 01 01 00 00 03 06 80 08 00 00 00 00 |ter.............|
|00 00 00 00 00 00 00 00 00 00 00 00 00 00 00 00 |................|
|FE 00 00 03 2E 4A 22 A3 00 00 00 00 00 00 00 00 |.....J".........|
|00 24 00 00 00 00 00 03 00 00 00 00 00 00 00 00 |.$..............|
|00 00 00 00 00 00 27 0F 00 01 00 00 00 00 00 00 |......'.........|
|00 00 00 00 00 00 13 43 61 70 74 61 69 6E 27 73 |.......Captain's|
|20 4D 65 64 61 6C 6C 69 6F 6E 00 00 00 00 00 00 | Medallion......|
|68 41 6E 20 65 6E 65 6D 79 20 63 61 70 74 61 69 |hAn enemy captai|
|6E 27 73 20 6D 65 64 61 6C 6C 69 6F 6E 2E 20 20 |n's medallion.  |
|54 68 65 73 65 20 63 61 6E 20 62 65 20 75 73 65 |These can be use|
|64 20 74 6F 20 74 72 61 64 65 20 66 6F 72 20 65 |d to trade for e|
|71 75 69 70 6D 65 6E 74 20 61 6E 64 20 73 75 70 |quipment and sup|
|70 6C 69 65 73 20 61 74 20 61 20 71 75 61 72 74 |plies at a quart|
|65 72 6D 61 73 74 65 72 2E 01 01 00 00 03 06 80 |ermaster........|
|08 00 00 00 00 00 00 00 00 00 00 00 00 00 00 00 |................|
|00 00 00 00 00 FE 00 00 03 2E 47 1E 20 00 00 00 |..........G. ...|
|00 00 00 00 00 00 24 00 00 00 00 00 05 00 00 00 |......$.........|
|00 00 00 00 00 00 00 00 00 00 00 27 0F 00 01 00 |...........'....|
|00 00 00 00 00 00 00 00 00 00 00 0B 52 6F 79 61 |............Roya|
|6C 20 43 72 65 73 74 00 00 00 00 00 00 63 54 68 |l Crest......cTh|
|65 20 52 6F 79 61 6C 20 43 72 65 73 74 2E 20 54 |e Royal Crest. T|
|68 65 73 65 20 63 61 6E 20 62 65 20 75 73 65 64 |hese can be used|
|20 74 6F 20 74 72 61 64 65 20 66 6F 72 20 65 78 | to trade for ex|
|74 72 61 6F 72 64 69 6E 61 72 79 20 65 71 75 69 |traordinary equi|
|70 6D 65 6E 74 20 61 74 20 74 68 65 20 52 6F 79 |pment at the Roy|
|61 6C 20 51 75 61 72 74 65 72 6D 61 73 74 65 72 |al Quartermaster|
|2E 01 01 00 00 03 04 80 08 00 00 00 00 00 00 00 |................|
|00 00 00 00 00 00 00 00 00 00 00 00 00 FE 00 00 |................|
|03 2E 46 1E 23 00 00 00 00 00 00 00 00 00 24 00 |..F.#.........$.|
|00 00 00 00 04 00 00 00 00 00 00 00 00 00 00 00 |................|
|00 00 00 27 0F 00 01 00 00 00 00 00 00 00 00 00 |...'............|
|00 00 00 0F 57 61 72 6C 6F 72 64 27 73 20 43 72 |....Warlord's Cr|
|65 73 74 00 00 00 00 00 00 7A 41 6E 20 65 6E 65 |est......zAn ene|
|6D 79 20 77 61 72 6C 6F 72 64 27 73 20 73 65 61 |my warlord's sea|
|6C 2E 20 54 68 65 73 65 20 63 61 6E 20 62 65 20 |l. These can be |
|75 73 65 64 20 74 6F 20 74 72 61 64 65 20 66 6F |used to trade fo|
|72 20 69 6E 63 72 65 64 69 62 6C 65 20 65 71 75 |r incredible equ|
|69 70 6D 65 6E 74 20 61 6E 64 20 73 75 70 70 6C |ipment and suppl|
|69 65 73 20 61 74 20 74 68 65 20 43 72 75 73 61 |ies at the Crusa|
|64 65 72 27 73 20 51 75 61 72 74 65 72 6D 61 73 |der's Quartermas|
|74 65 72 2E 01 01 00 00 03 04 80 08 00 00 00 00 |ter.............|
|00 00 00 00 00 00 00 00 00 00 00 00 00 00 00 00 |................|
|FE 00 00 03 2E 45 1E 1E 00 00 00 00 00 00 00 00 |.....E..........|
|00 24 00 00 00 00 00 04 00 00 00 00 00 00 00 00 |.$..............|
|00 00 00 00 00 00 27 0F 00 01 00 00 00 00 00 00 |......'.........|
|00 00 00 00 00 00 0F 49 6E 76 61 64 65 72 27 73 |.......Invader's|
|20 43 72 65 73 74 00 00 00 00 00 00 8C 41 6E 20 | Crest.......An |
|65 6E 65 6D 79 20 67 65 6E 65 72 61 6C 27 73 20 |enemy general's |
|77 61 72 63 72 65 73 74 2E 20 54 68 65 73 65 20 |warcrest. These |
|63 61 6E 20 62 65 20 75 73 65 64 20 74 6F 20 74 |can be used to t|
|72 61 64 65 20 66 6F 72 20 70 6F 77 65 72 66 75 |rade for powerfu|
|6C 20 65 71 75 69 70 6D 65 6E 74 20 61 6E 64 20 |l equipment and |
|73 75 70 70 6C 69 65 73 20 61 74 20 74 68 65 20 |supplies at the |
|43 72 75 73 61 64 65 72 27 73 20 6F 72 20 56 61 |Crusader's or Va|
|6E 71 75 69 73 68 65 72 27 73 20 51 75 61 72 74 |nquisher's Quart|
|65 72 6D 61 73 74 65 72 2E 01 01 00 00 03 04 80 |ermaster........|
|08 00 00 00 00 00 00 00 00 00 00 00 00 00 00 00 |................|
|00 00 00 00 00 FE 00 00 03 2E 44 1E 1C 00 00 00 |..........D.....|
|00 00 00 00 00 00 24 00 00 00 00 00 03 00 00 00 |......$.........|
|00 00 00 00 00 00 00 00 00 00 00 27 0F 00 01 00 |...........'....|
|00 00 00 00 00 00 00 00 00 00 00 11 43 6F 6E 71 |............Conq|
|75 65 72 6F 72 27 73 20 43 72 65 73 74 00 00 00 |ueror's Crest...|
|00 00 00 84 41 6E 20 65 6E 65 6D 79 20 63 68 61 |....An enemy cha|
|6D 70 69 6F 6E 27 73 20 65 6D 62 6C 65 6D 2E 20 |mpion's emblem. |
|54 68 65 73 65 20 63 61 6E 20 62 65 20 75 73 65 |These can be use|
|64 20 74 6F 20 74 72 61 64 65 20 66 6F 72 20 70 |d to trade for p|
|6F 77 65 72 66 75 6C 20 65 71 75 69 70 6D 65 6E |owerful equipmen|
|74 20 61 6E 64 20 73 75 70 70 6C 69 65 73 20 61 |t and supplies a|
|74 20 74 68 65 20 4F 66 66 69 63 65 72 27 73 20 |t the Officer's |
|4D 65 64 61 6C 6C 69 6F 6E 20 51 75 61 72 74 65 |Medallion Quarte|
|72 6D 61 73 74 65 72 2E 01 01 00 00 03 04 80 08 |rmaster.........|
|00 00 00 00 00 00 00 00 00 00 00 00 00 00 00 00 |................|
|00 00 00 00 FE 00 00 03 2E 13 1E 1D 00 00 00 00 |................|
|00 00 00 00 00 24 00 00 00 00 00 02 00 00 00 00 |.....$..........|
|00 00 00 00 00 00 00 00 00 00 27 0F 00 01 00 00 |..........'.....|
|00 00 00 00 00 00 00 00 00 00 13 4F 66 66 69 63 |...........Offic|
|65 72 27 73 20 4D 65 64 61 6C 6C 69 6F 6E 00 00 |er's Medallion..|
|00 00 00 00 81 41 6E 20 65 6E 65 6D 79 20 6F 66 |.....An enemy of|
|66 69 63 65 72 27 73 20 6D 65 64 61 6C 2E 20 54 |ficer's medal. T|
|68 65 73 65 20 63 61 6E 20 62 65 20 75 73 65 64 |hese can be used|
|20 74 6F 20 74 72 61 64 65 20 66 6F 72 20 71 75 | to trade for qu|
|61 6C 69 74 79 20 65 71 75 69 70 6D 65 6E 74 20 |ality equipment |
|61 6E 64 20 73 75 70 70 6C 69 65 73 20 61 74 20 |and supplies at |
|74 68 65 20 4F 66 66 69 63 65 72 27 73 20 4D 65 |the Officer's Me|
|64 61 6C 6C 69 6F 6E 20 51 75 61 72 74 65 72 6D |dallion Quarterm|
|61 73 74 65 72 2E 01 01 00 00 03 06 80 08 00 00 |aster...........|
|00 00 00 00 00 00 00 00 00 00 00 00 00 00 00 00 |................|
|00 00 FE 00 00 03 2E 10 1E 1F 00 00 00 00 00 00 |................|
|00 00 00 24 00 00 00 00 00 02 00 00 00 00 00 00 |...$............|
|00 00 00 00 00 00 00 00 27 0F 00 01 00 00 00 00 |........'.......|
|00 00 00 00 00 00 00 00 13 52 65 63 72 75 69 74 |.........Recruit|
|27 73 20 4D 65 64 61 6C 6C 69 6F 6E 00 00 00 00 |'s Medallion....|
|00 00 7A 41 6E 20 65 6E 65 6D 79 20 69 6E 69 74 |..zAn enemy init|
|69 61 74 65 27 73 20 6D 65 64 61 6C 2E 20 54 68 |iate's medal. Th|
|65 73 65 20 63 61 6E 20 62 65 20 75 73 65 64 20 |ese can be used |
|74 6F 20 74 72 61 64 65 20 66 6F 72 20 65 71 75 |to trade for equ|
|69 70 6D 65 6E 74 20 61 6E 64 20 73 75 70 70 6C |ipment and suppl|
|69 65 73 20 61 74 20 74 68 65 20 52 65 63 72 75 |ies at the Recru|
|69 74 27 73 20 4D 65 64 61 6C 6C 69 6F 6E 20 51 |it's Medallion Q|
|75 61 72 74 65 72 6D 61 73 74 65 72 2E 01 01 00 |uartermaster....|
|00 03 06 80 08 00 00 00 00 00 00 00 00 00 00 00 |................|
|00 00 00 00 00 00 00 00 00                      |.........       |
-------------------------------------------------------------------
[Client] packet : (0x0B) F_PING  Size = 32 
|------------------------------------------------|----------------|
|00 01 02 03 04 05 06 07 08 09 0A 0B 0C 0D 0E 0F |0123456789ABCDEF|
|------------------------------------------------|----------------|
|00 14 03 DB 00 2F 00 00 00 0B 00 01 FC 87 21 77 |...../........!w|
|FB 6D B6 38 60 55 00 00 00 00 00 00 00 00 6F 58 |.m.8`U........oX|                                                
-------------------------------------------------------------------
[Server] packet : (0x81) S_PONG  Size = 23 
|------------------------------------------------|----------------|
|00 01 02 03 04 05 06 07 08 09 0A 0B 0C 0D 0E 0F |0123456789ABCDEF|
|------------------------------------------------|----------------|
|00 14 81 00 01 FC 87 52 77 47 A6 00 00 00 00 00 |.......RwG......|
|00 03 DC 00 00 00 00                            |.......         |
-------------------------------------------------------------------
[Client] packet : (0x16) F_REQUEST_INIT_OBJECT  Size = 16 
|------------------------------------------------|----------------|
|00 01 02 03 04 05 06 07 08 09 0A 0B 0C 0D 0E 0F |0123456789ABCDEF|
|------------------------------------------------|----------------|
|00 04 03 DD 00 2F 00 00 00 16 03 83 00 00 23 CD |...../........#.|                                                
-------------------------------------------------------------------
[Client] packet : (0x16) F_REQUEST_INIT_OBJECT  Size = 16 
|------------------------------------------------|----------------|
|00 01 02 03 04 05 06 07 08 09 0A 0B 0C 0D 0E 0F |0123456789ABCDEF|
|------------------------------------------------|----------------|
|00 04 03 DE 00 2F 00 00 00 16 03 84 00 00 08 D4 |...../..........|                                                
-------------------------------------------------------------------
[Server] packet : (0x72) F_CREATE_MONSTER  Size = 133 
|------------------------------------------------|----------------|
|00 01 02 03 04 05 06 07 08 09 0A 0B 0C 0D 0E 0F |0123456789ABCDEF|
|------------------------------------------------|----------------|
|00 82 72 03 83 00 EB 03 BD 41 6E 00 06 CD FD 00 |..r......An.....|
|02 52 6A 00 00 04 C1 32 01 80 00 00 00 00 00 00 |.Rj....2........|
|00 01 00 03 E8 00 00 00 00 BC 62 00 02 00 00 01 |..........b.....|
|19 00 42 6C 6F 6F 64 79 20 53 75 6E 20 53 69 65 |..Bloody Sun Sie|
|67 65 20 43 72 65 77 5E 6D 00 00 00 00 0F 01 0A |ge Crew^m.......|
|00 00 00 1A 15 00 03 83 8D FD D2 6A 41 6E 64 01 |...........jAnd.|
|A1 00 00 00 00 0F EB 00 00 C0 8D 71 D2 6E 41 A1 |...........q.nA.|
|03 83 02 04 00 0B 04 07 00 14 0B CC 00 16 09 04 |................|
|00 18 0B E3 00                                  |.....           |
-------------------------------------------------------------------
[Server] packet : (0x72) F_CREATE_MONSTER  Size = 133 
|------------------------------------------------|----------------|
|00 01 02 03 04 05 06 07 08 09 0A 0B 0C 0D 0E 0F |0123456789ABCDEF|
|------------------------------------------------|----------------|
|00 82 72 03 84 00 EB 03 BD 41 6E 00 06 CD FD 00 |..r......An.....|
|02 52 6A 00 00 04 C1 32 01 80 00 00 00 00 00 00 |.Rj....2........|
|00 01 00 03 E8 00 00 00 00 BC 62 00 03 00 00 01 |..........b.....|
|19 00 42 6C 6F 6F 64 79 20 53 75 6E 20 53 69 65 |..Bloody Sun Sie|
|67 65 20 43 72 65 77 5E 6D 00 00 00 00 0F 01 0A |ge Crew^m.......|
|00 00 00 1A 15 00 03 84 8D FD D2 6A 41 6E 64 01 |...........jAnd.|
|A1 00 00 00 00 0F EB 00 00 C0 8D 71 D2 6E 41 A1 |...........q.nA.|
|03 84 02 04 00 0B 04 07 00 14 0B CC 00 16 09 04 |................|
|00 18 0B E3 00                                  |.....           |
-------------------------------------------------------------------
[Client] packet : (0x86) F_MAIL  Size = 16 
|------------------------------------------------|----------------|
|00 01 02 03 04 05 06 07 08 09 0A 0B 0C 0D 0E 0F |0123456789ABCDEF|
|------------------------------------------------|----------------|
|00 04 03 E3 00 2F FF FF 00 86 00 00 00 00 00 00 |...../..........|                                                
-------------------------------------------------------------------
[Server] packet : (0xC5) F_OBJECTIVE_STATE  Size = 19 
|------------------------------------------------|----------------|
|00 01 02 03 04 05 06 07 08 09 0A 0B 0C 0D 0E 0F |0123456789ABCDEF|
|------------------------------------------------|----------------|
|00 10 C5 00 00 1B 9C FF FF FF FF FF FF 00 00 00 |................|
|00 00 00                                        |...             |
-------------------------------------------------------------------
[Server] packet : (0xC6) F_REALM_BONUS  Size = 6 
|------------------------------------------------|----------------|
|00 01 02 03 04 05 06 07 08 09 0A 0B 0C 0D 0E 0F |0123456789ABCDEF|
|------------------------------------------------|----------------|
|00 03 C6 02 00 00                               |......          |
-------------------------------------------------------------------
[Client] packet : (0x0B) F_PING  Size = 32 
|------------------------------------------------|----------------|
|00 01 02 03 04 05 06 07 08 09 0A 0B 0C 0D 0E 0F |0123456789ABCDEF|
|------------------------------------------------|----------------|
|00 14 03 E8 00 2F 00 00 00 0B 00 02 10 1B FE B7 |...../..........|
|2A FC 98 3F DD 55 00 00 00 00 00 00 00 00 6F 58 |*..?.U........oX|                                                
-------------------------------------------------------------------
[Server] packet : (0x81) S_PONG  Size = 23 
|------------------------------------------------|----------------|
|00 01 02 03 04 05 06 07 08 09 0A 0B 0C 0D 0E 0F |0123456789ABCDEF|
|------------------------------------------------|----------------|
|00 14 81 00 02 10 1B 52 77 47 AB 00 00 00 00 00 |.......RwG......|
|00 03 E9 00 00 00 00                            |.......         |
-------------------------------------------------------------------