
[Client] packet : (0xD2) F_INTERACT  Size = 24 
|------------------------------------------------|----------------|
|00 01 02 03 04 05 06 07 08 09 0A 0B 0C 0D 0E 0F |0123456789ABCDEF|
|------------------------------------------------|----------------|
|00 0C 13 A3 00 05 00 00 00 D2 00 00 27 94 00 00 |............'...|
|00 00 00 00 00 00 00 00                         |........        |
-------------------------------------------------------------------
[Client] packet : (0x0B) F_PING  Size = 32 
|------------------------------------------------|----------------|
|00 01 02 03 04 05 06 07 08 09 0A 0B 0C 0D 0E 0F |0123456789ABCDEF|
|------------------------------------------------|----------------|
|00 14 13 A5 00 05 00 00 00 0B 00 13 DD 21 1B 90 |.............!..|
|40 91 02 07 26 43 00 00 00 00 00 00 00 00 F0 ED |@...&C..........|                                                
-------------------------------------------------------------------
[Server] packet : (0x81) S_PONG  Size = 23 
|------------------------------------------------|----------------|
|00 01 02 03 04 05 06 07 08 09 0A 0B 0C 0D 0E 0F |0123456789ABCDEF|
|------------------------------------------------|----------------|
|00 14 81 00 13 DD 21 52 81 5F 8A 00 00 00 00 00 |......!R._......|
|00 13 A6 00 00 00 00                            |.......         |
-------------------------------------------------------------------
[Client] packet : (0x01) UNKNOWN  Size = 32 
|------------------------------------------------|----------------|
|00 01 02 03 04 05 06 07 08 09 0A 0B 0C 0D 0E 0F |0123456789ABCDEF|
|------------------------------------------------|----------------|
|00 14 13 AA 00 05 00 00 00 01 00 13 DF 8A 20 07 |.............. .|
|2A 68 90 38 40 04 00 23 39 F5 08 18 FD 4E C2 F3 |*h.8@..#9....N..|                                                
-------------------------------------------------------------------
[Server] packet : (0x00) UNKNOWN  Size = 23 
|------------------------------------------------|----------------|
|00 01 02 03 04 05 06 07 08 09 0A 0B 0C 0D 0E 0F |0123456789ABCDEF|
|------------------------------------------------|----------------|
|00 14 00 00 13 DF 8A AA DD 0B EA 00 00 00 00 00 |................|
|23 39 F5 08 18 FD 00                            |.......         |
-------------------------------------------------------------------
[Client] packet : (0x37) F_GROUP_COMMAND  Size = 20 
|------------------------------------------------|----------------|
|00 01 02 03 04 05 06 07 08 09 0A 0B 0C 0D 0E 0F |0123456789ABCDEF|
|------------------------------------------------|----------------|
|00 08 13 AE 00 05 FF FF 00 37 00 1B 32 1C 0A 00 |.........7..2...|
|00 00 00 00                                     |....            |
-------------------------------------------------------------------
[Server] packet : (0x6F) F_LOCALIZED_STRING  Size = 26 
|------------------------------------------------|----------------|
|00 01 02 03 04 05 06 07 08 09 0A 0B 0C 0D 0E 0F |0123456789ABCDEF|
|------------------------------------------------|----------------|
|00 17 6F 00 00 00 00 04 57 00 00 00 01 01 00 0A |..o.....W.......|
|44 61 73 63 6F 75 62 5E 4D 00                   |..........      |
-------------------------------------------------------------------
[Server] packet : (0xBE) F_CHARACTER_INFO  Size = 30 
|------------------------------------------------|----------------|
|00 01 02 03 04 05 06 07 08 09 0A 0B 0C 0D 0E 0F |0123456789ABCDEF|
|------------------------------------------------|----------------|
|00 1B BE 06 04 C4 7D 9C E4 6C 94 4F 00 EA A1 86 |......}..l.O....|
|01 BD 72 00 CC DF 96 01 F5 17 00 00 00 00       |..............  |
-------------------------------------------------------------------
[Server] packet : (0xD8) F_GROUP_STATUS  Size = 23 
|------------------------------------------------|----------------|
|00 01 02 03 04 05 06 07 08 09 0A 0B 0C 0D 0E 0F |0123456789ABCDEF|
|------------------------------------------------|----------------|
|00 14 D8 3E C4 01 FF 00 02 00 00 00 00 00 01 00 |...>............|
|25 AF CC 00 1B 32 00                            |.......         |
-------------------------------------------------------------------
[Server] packet : (0xD8) F_GROUP_STATUS  Size = 11 
|------------------------------------------------|----------------|
|00 01 02 03 04 05 06 07 08 09 0A 0B 0C 0D 0E 0F |0123456789ABCDEF|
|------------------------------------------------|----------------|
|00 08 D8 3E C4 02 FF 01 00 00 00                |...........     |
-------------------------------------------------------------------
[Server] packet : (0xD8) F_GROUP_STATUS  Size = 11 
|------------------------------------------------|----------------|
|00 01 02 03 04 05 06 07 08 09 0A 0B 0C 0D 0E 0F |0123456789ABCDEF|
|------------------------------------------------|----------------|
|00 08 D8 3E C4 02 FF 01 00 00 00                |...........     |
-------------------------------------------------------------------
[Client] packet : (0x0B) F_PING  Size = 32 
|------------------------------------------------|----------------|
|00 01 02 03 04 05 06 07 08 09 0A 0B 0C 0D 0E 0F |0123456789ABCDEF|
|------------------------------------------------|----------------|
|00 14 13 B2 00 05 00 00 00 0B 00 13 F0 B5 03 38 |...............8|
|D0 13 68 44 B0 48 00 00 00 00 00 00 00 00 F0 ED |..hD.H..........|                                                
-------------------------------------------------------------------
[Server] packet : (0x81) S_PONG  Size = 23 
|------------------------------------------------|----------------|
|00 01 02 03 04 05 06 07 08 09 0A 0B 0C 0D 0E 0F |0123456789ABCDEF|
|------------------------------------------------|----------------|
|00 14 81 00 13 F0 B5 52 81 5F 8F 00 00 00 00 00 |.......R._......|
|00 13 B3 00 00 00 00                            |.......         |
-------------------------------------------------------------------
[Server] packet : (0x51) F_ANIMATION  Size = 9 
|------------------------------------------------|----------------|
|00 01 02 03 04 05 06 07 08 09 0A 0B 0C 0D 0E 0F |0123456789ABCDEF|
|------------------------------------------------|----------------|
|00 06 51 01 3C 00 E5 00 00                      |.........       |
-------------------------------------------------------------------
[Client] packet : (0x5A) F_PING_DATAGRAM  Size = 13 
|------------------------------------------------|----------------|
|00 01 02 03 04 05 06 07 08 09 0A 0B 0C 0D 0E 0F |0123456789ABCDEF|
|------------------------------------------------|----------------|
|00 01 13 B4 00 05 FF FF 00 5A 00 89 F6          |.............   |
-------------------------------------------------------------------
[Server] packet : (0x51) F_ANIMATION  Size = 9 
|------------------------------------------------|----------------|
|00 01 02 03 04 05 06 07 08 09 0A 0B 0C 0D 0E 0F |0123456789ABCDEF|
|------------------------------------------------|----------------|
|00 06 51 01 3B 00 AC 00 00                      |.........       |
-------------------------------------------------------------------