
[Client] packet : (0x0B) F_PING  Size = 32 
|------------------------------------------------|----------------|
|00 01 02 03 04 05 06 07 08 09 0A 0B 0C 0D 0E 0F |0123456789ABCDEF|
|------------------------------------------------|----------------|
|00 14 77 89 00 1E 00 00 00 0B 00 7C C0 EC 95 94 |..w........|....|
|06 08 C3 06 33 25 00 00 00 00 00 00 00 00 FE 14 |....3%..........|                                                
-------------------------------------------------------------------
[Server] packet : (0x81) S_PONG  Size = 23 
|------------------------------------------------|----------------|
|00 01 02 03 04 05 06 07 08 09 0A 0B 0C 0D 0E 0F |0123456789ABCDEF|
|------------------------------------------------|----------------|
|00 14 81 00 7C C0 EC 52 74 BB CE 00 00 00 00 00 |....|..Rt.......|
|00 77 8A 00 00 00 00                            |.......         |
-------------------------------------------------------------------
[Client] packet : (0xFE) F_PLAY_VOICE_OVER  Size = 16 
|------------------------------------------------|----------------|
|00 01 02 03 04 05 06 07 08 09 0A 0B 0C 0D 0E 0F |0123456789ABCDEF|
|------------------------------------------------|----------------|
|00 04 77 8B 00 1E FF FF 00 FE 02 00 00 00 47 91 |..w...........G.|                                                
-------------------------------------------------------------------
[Server] packet : (0x74) UNKNOWN  Size = 44 
|------------------------------------------------|----------------|
|00 01 02 03 04 05 06 07 08 09 0A 0B 0C 0D 0E 0F |0123456789ABCDEF|
|------------------------------------------------|----------------|
|00 29 74 01 01 00 00 00 04 02 00 00 02 00 03 00 |.)t.............|
|00 00 00 00 00 00 01 00 01 00 00 01 F4 00 00 01 |................|
|0B 02 00 01 00 00 01 F4 00 00 01 00             |............    |
-------------------------------------------------------------------
[Client] packet : (0x16) F_REQUEST_INIT_OBJECT  Size = 16 
|------------------------------------------------|----------------|
|00 01 02 03 04 05 06 07 08 09 0A 0B 0C 0D 0E 0F |0123456789ABCDEF|
|------------------------------------------------|----------------|
|00 04 77 8C 00 1E 00 00 00 16 2F E5 00 00 EA 1F |..w......./.....|                                                
-------------------------------------------------------------------
[Server] packet : (0x72) F_CREATE_MONSTER  Size = 147 
|------------------------------------------------|----------------|
|00 01 02 03 04 05 06 07 08 09 0A 0B 0C 0D 0E 0F |0123456789ABCDEF|
|------------------------------------------------|----------------|
|00 90 72 2F E5 00 55 01 4F 13 06 00 0D 2F F7 00 |..r/..U.O..../..|
|0D 98 F1 00 00 04 C2 32 07 41 00 00 00 00 00 00 |.......2.A......|
|00 00 00 03 E8 00 00 00 00 35 5D 00 03 00 00 01 |.........5].....|
|19 00 4D 69 6C 69 74 69 61 20 4C 69 65 75 74 65 |..Militia Lieute|
|6E 61 6E 74 5E 6D 00 01 0A 00 00 00 1A 2A 00 2F |nant^m.......*./|
|E5 AF F7 18 F1 13 06 64 01 6A 00 00 00 00 00 55 |.......d.j.....U|
|00 00 B3 AF 6A 19 00 13 6A 2F E5 00 09 00 0A 07 |....j...j/......|
|45 00 14 0C 16 00 15 09 C9 00 16 09 C4 00 17 0C |E...............|
|19 00 18 09 D5 00 19 0C 1A 04 1B 07 A0 00 00 1C |................|
|09 C6 00                                        |...             |
-------------------------------------------------------------------
[Client] packet : (0x01) UNKNOWN  Size = 32 
|------------------------------------------------|----------------|
|00 01 02 03 04 05 06 07 08 09 0A 0B 0C 0D 0E 0F |0123456789ABCDEF|
|------------------------------------------------|----------------|
|00 14 77 8F 00 1E 00 00 00 01 00 7C C0 28 00 00 |..w........|.(..|
|00 00 00 00 00 00 00 00 02 4E 00 00 29 B4 7C 13 |.........N..).|.|                                                
-------------------------------------------------------------------
[Server] packet : (0x00) UNKNOWN  Size = 23 
|------------------------------------------------|----------------|
|00 01 02 03 04 05 06 07 08 09 0A 0B 0C 0D 0E 0F |0123456789ABCDEF|
|------------------------------------------------|----------------|
|00 14 00 00 7C C0 28 79 7D 17 A5 00 00 00 00 00 |....|.(y}.......|
|00 02 4E 00 00 29 00                            |.......         |
-------------------------------------------------------------------
[Client] packet : (0xD2) F_INTERACT  Size = 24 
|------------------------------------------------|----------------|
|00 01 02 03 04 05 06 07 08 09 0A 0B 0C 0D 0E 0F |0123456789ABCDEF|
|------------------------------------------------|----------------|
|00 0C 77 95 00 1E 00 00 00 D2 00 00 10 63 00 00 |..w..........c..|
|00 00 00 00 00 00 00 00                         |........        |
-------------------------------------------------------------------
[Server] packet : (0x7E) F_SET_ABILITY_TIMER  Size = 15 
|------------------------------------------------|----------------|
|00 01 02 03 04 05 06 07 08 09 0A 0B 0C 0D 0E 0F |0123456789ABCDEF|
|------------------------------------------------|----------------|
|00 0C 7E 00 01 01 00 00 00 00 00 00 00 00 00    |............... |
-------------------------------------------------------------------
[Server] packet : (0xE9) F_INTERACT_RESPONSE  Size = 11 
|------------------------------------------------|----------------|
|00 01 02 03 04 05 06 07 08 09 0A 0B 0C 0D 0E 0F |0123456789ABCDEF|
|------------------------------------------------|----------------|
|00 08 E9 00 10 63 00 00 00 02 00                |...........     |
-------------------------------------------------------------------
[Client] packet : (0xD2) F_INTERACT  Size = 24 
|------------------------------------------------|----------------|
|00 01 02 03 04 05 06 07 08 09 0A 0B 0C 0D 0E 0F |0123456789ABCDEF|
|------------------------------------------------|----------------|
|00 0C 77 96 00 1E 00 00 00 D2 00 00 10 63 00 09 |..w..........c..|
|00 00 00 00 00 00 9A D3                         |........        |
-------------------------------------------------------------------
[Server] packet : (0xBF) F_INIT_STORE  Size = 4072 
|------------------------------------------------|----------------|
|00 01 02 03 04 05 06 07 08 09 0A 0B 0C 0D 0E 0F |0123456789ABCDEF|
|------------------------------------------------|----------------|
|0F E5 BF 00 00 00 10 01 00 00 00 00 03 00 00 00 |................|
|00 00 00 03 1D 26 12 4B 00 00 00 00 00 00 00 00 |.....&.K........|
|00 00 00 00 00 00 00 05 00 00 00 00 00 00 00 00 |................|
|00 00 00 00 00 00 00 01 00 01 00 00 00 00 00 00 |................|
|00 00 00 00 00 00 13 4A 6F 75 72 6E 65 79 6D 61 |.......Journeyma|
|6E 27 73 20 45 6C 69 78 69 72 00 00 00 00 00 00 |n's Elixir......|
|B1 44 72 69 6E 6B 69 6E 67 20 74 68 65 20 76 69 |.Drinking the vi|
|73 63 6F 75 73 20 61 6E 64 20 70 75 74 72 69 64 |scous and putrid|
|20 73 6D 65 6C 6C 69 6E 67 20 63 6F 6E 74 65 6E | smelling conten|
|74 73 20 6F 66 20 74 68 69 73 20 62 6F 74 74 6C |ts of this bottl|
|65 20 77 69 6C 6C 20 69 6E 73 74 61 6E 74 6C 79 |e will instantly|
|20 69 6E 66 75 73 65 20 79 6F 75 20 77 69 74 68 | infuse you with|
|20 6B 6E 6F 77 6C 65 64 67 65 20 61 6E 64 20 77 | knowledge and w|
|69 73 64 6F 6D 2C 20 65 71 75 69 76 61 6C 65 6E |isdom, equivalen|
|74 20 74 6F 20 73 6F 6D 65 6F 6E 65 20 6F 66 20 |t to someone of |
|43 61 72 65 65 72 20 52 61 6E 6B 20 31 35 20 61 |Career Rank 15 a|
|6E 64 20 52 65 6E 6F 77 6E 20 52 61 6E 6B 20 31 |nd Renown Rank 1|
|30 2E 01 01 00 00 03 06 00 00 00 00 00 00 00 00 |0...............|
|00 00 00 00 00 00 00 00 00 00 00 00 00 01 00 03 |................|
|2E 56 22 B9 09 57 61 72 20 43 72 65 73 74 00 0A |.V"..War Crest..|
|00 00 00 00 00 00 00 00 00 00 00 00 00 00 00 00 |................|
|00 00 01 03 00 00 00 00 00 00 03 1D 4F 12 49 00 |............O.I.|
|00 00 00 00 00 00 00 00 00 00 00 00 00 00 05 00 |................|
|00 00 00 00 00 00 00 00 00 00 00 00 00 00 01 00 |................|
|01 00 00 00 00 00 00 00 00 00 00 00 00 20 43 6F |............. Co|
|6E 63 65 6E 74 72 61 74 65 64 20 4A 6F 75 72 6E |ncentrated Journ|
|65 79 6D 61 6E 27 73 20 45 6C 69 78 69 72 00 00 |eyman's Elixir..|
|00 00 00 00 B1 44 72 69 6E 6B 69 6E 67 20 74 68 |.....Drinking th|
|65 20 76 69 73 63 6F 75 73 20 61 6E 64 20 70 75 |e viscous and pu|
|74 72 69 64 20 73 6D 65 6C 6C 69 6E 67 20 63 6F |trid smelling co|
|6E 74 65 6E 74 73 20 6F 66 20 74 68 69 73 20 62 |ntents of this b|
|6F 74 74 6C 65 20 77 69 6C 6C 20 69 6E 73 74 61 |ottle will insta|
|6E 74 6C 79 20 69 6E 66 75 73 65 20 79 6F 75 20 |ntly infuse you |
|77 69 74 68 20 6B 6E 6F 77 6C 65 64 67 65 20 61 |with knowledge a|
|6E 64 20 77 69 73 64 6F 6D 2C 20 65 71 75 69 76 |nd wisdom, equiv|
|61 6C 65 6E 74 20 74 6F 20 73 6F 6D 65 6F 6E 65 |alent to someone|
|20 6F 66 20 43 61 72 65 65 72 20 52 61 6E 6B 20 | of Career Rank |
|33 30 20 61 6E 64 20 72 65 6E 6F 77 6E 20 52 61 |30 and renown Ra|
|6E 6B 20 34 30 2E 01 01 00 00 03 04 20 07 00 00 |nk 40....... ...|
|00 00 00 00 00 00 00 00 00 00 00 00 00 00 00 00 |................|
|00 01 00 03 2E 56 22 B9 09 57 61 72 20 43 72 65 |.....V"..War Cre|
|73 74 00 64 00 00 00 00 00 00 00 00 00 00 00 00 |st.d............|
|00 00 00 00 00 00 02 03 00 00 00 00 00 00 03 1D |................|
|29 12 45 00 00 00 00 00 00 00 00 00 15 00 00 00 |).E.............|
|00 00 04 00 00 00 00 00 00 00 00 00 00 00 00 00 |................|
|00 00 01 00 01 00 00 00 00 00 00 00 00 00 00 00 |................|
|00 19 4D 69 6E 6F 72 20 46 6C 61 73 68 20 6F 66 |..Minor Flash of|
|20 42 72 69 6C 6C 69 61 6E 63 65 00 00 00 00 00 | Brilliance.....|
|00 5C 52 61 77 20 6D 61 67 69 63 61 6C 20 65 6E |.\Raw magical en|
|65 72 67 69 65 73 20 64 65 6C 69 76 65 72 20 64 |ergies deliver d|
|69 73 74 69 6C 6C 65 64 20 6B 6E 6F 77 6C 65 64 |istilled knowled|
|67 65 20 69 6E 74 6F 20 79 6F 75 72 20 63 6F 6E |ge into your con|
|73 63 69 6F 75 73 6E 65 73 73 2E 0A 0A 28 4C 61 |sciousness...(La|
|72 67 65 20 58 50 20 52 65 77 61 72 64 29 01 01 |rge XP Reward)..|
|00 00 03 06 00 00 00 00 00 00 00 00 00 00 00 00 |................|
|00 00 00 00 00 00 00 00 00 01 00 03 2E 56 22 B9 |.............V".|
|09 57 61 72 20 43 72 65 73 74 00 01 00 00 00 00 |.War Crest......|
|00 00 00 00 00 00 00 00 00 00 00 00 00 00 03 03 |................|
|00 00 00 00 00 00 03 1D 2A 12 48 00 00 00 00 00 |........*.H.....|
|00 00 00 00 15 00 00 00 00 00 04 00 00 00 00 00 |................|
|00 00 00 00 00 00 00 00 00 00 01 00 01 00 00 00 |................|
|00 00 00 00 00 00 00 00 00 19 4D 61 6A 6F 72 20 |..........Major |
|46 6C 61 73 68 20 6F 66 20 42 72 69 6C 6C 69 61 |Flash of Brillia|
|6E 63 65 00 00 00 00 00 00 6C 52 61 77 20 6D 61 |nce......lRaw ma|
|67 69 63 61 6C 20 65 6E 65 72 67 69 65 73 20 64 |gical energies d|
|65 6C 69 76 65 72 20 61 20 67 72 65 61 74 20 64 |eliver a great d|
|65 61 6C 20 6F 66 20 64 69 73 74 69 6C 6C 65 64 |eal of distilled|
|20 6B 6E 6F 77 6C 65 64 67 65 20 69 6E 74 6F 20 | knowledge into |
|79 6F 75 72 20 63 6F 6E 73 63 69 6F 75 73 6E 65 |your consciousne|
|73 73 2E 0A 0A 28 47 69 61 6E 74 20 58 50 20 52 |ss...(Giant XP R|
|65 77 61 72 64 29 01 01 00 00 03 06 00 00 00 00 |eward)..........|
|00 00 00 00 00 00 00 00 00 00 00 00 00 00 00 00 |................|
|00 01 00 03 2E 56 22 B9 09 57 61 72 20 43 72 65 |.....V"..War Cre|
|73 74 00 03 00 00 00 00 00 00 00 00 00 00 00 00 |st..............|
|00 00 00 00 00 00 04 03 00 00 00 00 00 00 03 2B |...............+|
|9A 11 BD 00 00 00 00 00 00 00 00 00 00 00 00 00 |................|
|00 00 04 00 00 00 00 00 00 00 00 00 00 00 00 00 |................|
|00 00 01 00 01 00 00 00 00 00 00 00 00 00 00 00 |................|
|00 1A 4D 69 72 72 6F 72 20 6F 66 20 74 68 65 20 |..Mirror of the |
|43 68 61 6F 73 20 57 61 73 74 65 73 00 00 01 00 |Chaos Wastes....|
|00 5C 1F 0E 10 00 00 00 00 00 00 01 01 00 00 03 |.\..............|
|06 00 00 00 00 00 00 00 00 00 00 00 00 00 00 00 |................|
|00 00 00 00 00 00 01 00 03 2E 56 22 B9 09 57 61 |..........V"..Wa|
|72 20 43 72 65 73 74 00 64 00 00 00 00 00 00 00 |r Crest.d.......|
|00 00 00 00 00 00 00 00 00 00 00 05 03 00 00 00 |................|
|00 00 00 07 EF 61 11 B6 00 00 00 00 00 00 00 00 |.....a..........|
|00 00 00 00 00 00 00 02 00 00 00 00 00 00 00 00 |................|
|00 00 00 00 00 00 00 01 00 01 00 00 00 00 00 00 |................|
|00 00 00 00 00 00 1F 53 63 72 6F 6C 6C 20 6F 66 |.......Scroll of|
|20 42 69 6E 64 69 6E 67 20 2D 20 46 6C 65 73 68 | Binding - Flesh|
|20 68 6F 75 6E 64 00 00 02 00 00 61 76 00 00 00 | hound.....av...|
|00 00 00 33 D0 00 00 00 00 00 00 00 6B 55 73 65 |...3........kUse|
|20 74 68 69 73 20 69 74 65 6D 20 74 6F 20 74 65 | this item to te|
|6C 65 70 6F 72 74 20 74 6F 20 74 68 65 20 43 68 |leport to the Ch|
|61 6F 73 20 57 61 73 74 65 73 2E 20 55 73 65 20 |aos Wastes. Use |
|74 68 69 73 20 69 74 65 6D 20 77 68 69 6C 65 20 |this item while |
|69 6E 20 43 68 61 6F 73 20 57 61 73 74 65 73 20 |in Chaos Wastes |
|74 6F 20 62 65 63 6F 6D 65 20 61 20 46 6C 65 73 |to become a Fles|
|68 20 68 6F 75 6E 64 2E 01 01 00 00 03 06 00 00 |h hound.........|
|00 00 00 00 00 00 00 00 00 00 00 00 00 00 0A 8C |................|
|00 00 00 01 00 03 2E 56 22 B9 09 57 61 72 20 43 |.......V"..War C|
|72 65 73 74 00 19 00 00 00 00 00 00 00 00 00 00 |rest............|
|00 00 00 00 00 00 00 00 06 03 00 00 00 00 00 00 |................|
|07 EF 62 11 B6 00 00 00 00 00 00 00 00 00 00 00 |..b.............|
|00 00 00 00 02 00 00 00 00 00 00 00 00 00 00 00 |................|
|00 00 00 00 01 00 01 00 00 00 00 00 00 00 00 00 |................|
|00 00 00 1F 53 63 72 6F 6C 6C 20 6F 66 20 42 69 |....Scroll of Bi|
|6E 64 69 6E 67 20 2D 20 42 6C 6F 6F 64 6C 65 74 |nding - Bloodlet|
|74 65 72 00 00 02 00 00 61 77 00 00 00 00 00 00 |ter.....aw......|
|33 D0 00 00 00 00 00 00 00 6B 55 73 65 20 74 68 |3........kUse th|
|69 73 20 69 74 65 6D 20 74 6F 20 74 65 6C 65 70 |is item to telep|
|6F 72 74 20 74 6F 20 74 68 65 20 43 68 61 6F 73 |ort to the Chaos|
|20 57 61 73 74 65 73 2E 20 55 73 65 20 74 68 69 | Wastes. Use thi|
|73 20 69 74 65 6D 20 77 68 69 6C 65 20 69 6E 20 |s item while in |
|43 68 61 6F 73 20 57 61 73 74 65 73 20 74 6F 20 |Chaos Wastes to |
|62 65 63 6F 6D 65 20 61 20 42 6C 6F 6F 64 6C 65 |become a Bloodle|
|74 74 65 72 2E 01 01 00 00 03 06 00 00 00 00 00 |tter............|
|00 00 00 00 00 00 00 00 00 00 00 0A 8C 00 00 00 |................|
|01 00 03 2E 56 22 B9 09 57 61 72 20 43 72 65 73 |....V"..War Cres|
|74 00 19 00 00 00 00 00 00 00 00 00 00 00 00 00 |t...............|
|00 00 00 00 00 07 03 00 00 00 00 00 00 07 EF 63 |...............c|
|11 B6 00 00 00 00 00 00 00 00 00 00 00 00 00 00 |................|
|00 02 00 00 00 00 00 00 00 00 00 00 00 00 00 00 |................|
|00 01 00 01 00 00 00 00 00 00 00 00 00 00 00 00 |................|
|1E 53 63 72 6F 6C 6C 20 6F 66 20 42 69 6E 64 69 |.Scroll of Bindi|
|6E 67 20 2D 20 4A 75 67 67 65 72 6E 61 75 74 00 |ng - Juggernaut.|
|00 02 00 00 61 78 00 00 00 00 00 00 33 D0 00 00 |....ax......3...|
|00 00 00 00 00 6A 55 73 65 20 74 68 69 73 20 69 |.....jUse this i|
|74 65 6D 20 74 6F 20 74 65 6C 65 70 6F 72 74 20 |tem to teleport |
|74 6F 20 74 68 65 20 43 68 61 6F 73 20 57 61 73 |to the Chaos Was|
|74 65 73 2E 20 55 73 65 20 74 68 69 73 20 69 74 |tes. Use this it|
|65 6D 20 77 68 69 6C 65 20 69 6E 20 43 68 61 6F |em while in Chao|
|73 20 57 61 73 74 65 73 20 74 6F 20 62 65 63 6F |s Wastes to beco|
|6D 65 20 61 20 4A 75 67 67 65 72 6E 61 75 74 2E |me a Juggernaut.|
|01 01 00 00 03 06 00 00 00 00 00 00 00 00 00 00 |................|
|00 00 00 00 00 00 0A 8C 00 00 00 01 00 03 2E 56 |...............V|
|22 B9 09 57 61 72 20 43 72 65 73 74 00 19 00 00 |"..War Crest....|
|00 00 00 00 00 00 00 00 00 00 00 00 00 00 00 00 |................|
|08 03 00 00 00 00 00 00 03 1D 22 01 75 00 00 00 |..........".u...|
|00 00 00 00 00 1A 00 00 00 00 00 01 03 00 00 00 |................|
|00 00 00 00 00 00 00 00 00 00 00 00 01 00 01 00 |................|
|00 00 00 00 00 00 00 00 00 00 00 0A 45 64 67 65 |............Edge|
|20 53 74 6F 6E 65 00 01 61 8B 00 00 00 00 00 00 | Stone..a.......|
|00 00 D3 41 20 72 6F 63 6B 20 66 72 6F 6D 20 74 |...A rock from t|
|68 65 20 57 6F 72 6C 64 73 20 45 64 67 65 20 4D |he Worlds Edge M|
|6F 75 6E 74 61 69 6E 73 2E 20 57 68 65 6E 20 63 |ountains. When c|
|61 72 72 69 65 64 20 69 6E 20 79 6F 75 72 20 70 |arried in your p|
|6F 63 6B 65 74 2C 20 69 74 20 63 6F 6E 76 65 79 |ocket, it convey|
|73 20 74 68 65 20 62 75 66 66 2C 20 42 6C 65 73 |s the buff, Bles|
|73 69 6E 67 73 20 6F 66 20 53 74 6F 6E 65 2E 0A |sings of Stone..|
|0A 57 68 65 6E 20 65 71 75 69 70 65 64 2C 20 67 |.When equiped, g|
|72 61 6E 74 73 20 61 20 32 35 25 20 62 6F 6E 75 |rants a 25% bonu|
|73 20 74 6F 20 54 6F 75 67 68 6E 65 73 73 20 61 |s to Toughness a|
|6E 64 20 48 69 74 70 6F 69 6E 74 73 2C 20 61 6E |nd Hitpoints, an|
|64 20 61 20 35 30 25 20 62 6F 6E 75 73 20 74 6F |d a 50% bonus to|
|20 52 65 6E 6F 77 6E 20 61 6E 64 20 58 50 20 67 | Renown and XP g|
|61 69 6E 73 2E 20 01 01 00 00 03 06 00 0E 00 00 |ains. ..........|
|00 00 00 00 00 00 00 00 00 00 00 00 4F 1A 00 00 |............O...|
|00 01 00 03 2E 56 22 B9 09 57 61 72 20 43 72 65 |.....V"..War Cre|
|73 74 00 64 00 00 00 00 00 00 00 00 00 00 00 00 |st.d............|
|00 00 00 00 00 00 09 03 00 00 00 00 00 00 03 1D |................|
|23 12 4E 00 00 00 00 00 00 00 00 00 00 00 00 00 |#.N.............|
|00 00 04 00 00 00 00 00 00 00 00 00 00 00 00 00 |................|
|00 00 0A 00 01 00 00 00 00 00 00 00 00 00 00 00 |................|
|00 17 45 6C 69 78 69 72 20 6F 66 20 45 6E 64 6C |..Elixir of Endl|
|65 73 73 20 53 74 6F 6E 65 00 00 01 00 01 61 8C |ess Stone.....a.|
|02 58 00 00 00 00 00 E3 54 68 69 73 20 67 72 61 |.X......This gra|
|79 20 65 6C 69 78 69 72 20 69 73 20 71 75 69 74 |y elixir is quit|
|65 20 64 65 6E 73 65 2C 20 73 6C 69 67 68 74 6C |e dense, slightl|
|79 20 67 72 69 74 74 79 2C 20 61 6E 64 20 73 6D |y gritty, and sm|
|65 6C 6C 73 20 76 61 67 75 65 6C 79 20 6F 66 20 |ells vaguely of |
|67 72 61 6E 69 74 65 2E 0A 0A 55 73 65 3A 20 46 |granite...Use: F|
|6F 72 20 35 20 6D 69 6E 75 74 65 73 2C 20 69 6E |or 5 minutes, in|
|63 72 65 61 73 65 73 20 52 65 73 69 73 74 73 20 |creases Resists |
|62 79 20 37 35 25 2C 20 6D 61 6B 65 73 20 79 6F |by 75%, makes yo|
|75 20 69 6D 6D 75 6E 65 20 74 6F 20 63 72 69 74 |u immune to crit|
|69 63 61 6C 20 68 69 74 73 2C 20 61 6E 64 20 6C |ical hits, and l|
|6F 77 65 72 73 20 6D 6F 76 65 6D 65 6E 74 20 73 |owers movement s|
|70 65 65 64 20 62 79 20 37 35 25 2E 0A 0A 43 61 |peed by 75%...Ca|
|6E 20 62 65 20 72 69 67 68 74 2D 63 6C 69 63 6B |n be right-click|
|20 63 61 6E 63 65 6C 6C 65 64 2E 00 01 00 01 03 | cancelled......|
|02 00 00 00 00 00 00 00 00 00 00 00 00 00 00 00 |................|
|00 00 00 00 00 00 01 00 03 2E 56 22 B9 09 57 61 |..........V"..Wa|
|72 20 43 72 65 73 74 00 0A 00 00 00 00 00 00 00 |r Crest.........|
|00 00 00 00 00 00 00 00 00 00 00 0F 01 00 00 25 |...............%|
|99 00 00 06 A3 20 17 4E 00 00 00 00 00 00 00 00 |..... .N........|
|14 12 27 37 2D 00 00 04 00 00 00 00 01 00 00 1F |..'7-...........|
|00 67 00 00 0F 0A 00 01 00 01 00 00 11 54 00 02 |.g...........T..|
|00 00 01 13 00 00 10 49 6E 76 61 64 65 72 20 4C |.......Invader L|
|6F 6E 67 63 6F 61 74 04 01 00 27 00 00 00 00 00 |ongcoat...'.....|
|06 00 17 00 00 00 00 00 05 00 0B 00 00 00 00 00 |................|
|4F 00 0F 00 00 00 00 00 00 00 00 00 01 00 00 00 |O...............|
|00 00 01 01 00 00 03 06 23 00 00 00 00 00 00 00 |........#.......|
|00 00 00 00 00 00 00 00 00 00 00 00 00 01 00 03 |................|
|2E 56 22 B9 09 57 61 72 20 43 72 65 73 74 01 7C |.V"..War Crest.||
|00 00 00 00 00 00 00 00 00 00 00 00 00 00 00 00 |................|
|00 00 10 01 00 00 1E 14 00 00 06 A2 F0 0A 8D 00 |................|
|00 00 00 00 00 00 00 15 12 27 37 29 00 00 04 00 |.........'7)....|
|00 00 00 01 00 00 1F 00 67 00 00 0C 08 00 01 00 |........g.......|
|01 00 00 11 54 00 02 00 00 00 DC 00 00 14 49 6E |....T.........In|
|76 61 64 65 72 20 43 6F 75 72 73 65 67 6C 6F 76 |vader Courseglov|
|65 73 04 04 00 1E 00 00 00 00 00 01 00 13 00 00 |es..............|
|00 00 00 05 00 0B 00 00 00 00 00 50 00 18 00 00 |...........P....|
|00 00 00 00 00 00 00 01 00 00 00 00 00 00 01 00 |................|
|00 03 0A 23 00 00 00 00 00 00 00 00 00 00 00 00 |...#............|
|00 00 00 00 00 00 00 00 01 00 03 2E 56 22 B9 09 |............V"..|
|57 61 72 20 43 72 65 73 74 00 B9 00 00 00 00 00 |War Crest.......|
|00 00 00 00 00 00 00 00 00 00 00 00 00 11 01 00 |................|
|00 1E 14 00 00 06 A2 E4 0A 8C 00 00 00 00 00 00 |................|
|00 00 16 12 27 37 28 00 00 04 00 00 00 00 01 00 |....'7(.........|
|00 1F 00 67 00 00 0C 08 00 01 00 01 00 00 11 54 |...g...........T|
|00 02 00 00 00 DC 00 00 12 49 6E 76 61 64 65 72 |.........Invader|
|20 53 68 61 6E 6B 62 6F 6F 74 73 04 07 00 1E 00 | Shankboots.....|
|00 00 00 00 01 00 11 00 00 00 00 00 05 00 09 00 |................|
|00 00 00 00 1E 00 02 00 00 00 00 00 00 00 00 00 |................|
|01 00 00 00 00 00 00 01 00 00 03 0A 23 00 00 00 |............#...|
|00 00 00 00 00 00 00 00 00 00 00 00 00 00 00 00 |................|
|00 01 00 03 2E 56 22 B9 09 57 61 72 20 43 72 65 |.....V"..War Cre|
|73 74 00 EB 00 00 00 00 00 00 00 00 00 00 00 00 |st..............|
|00 00 00 00 00 00 12 01 00 00 21 D6 00 00 06 A3 |..........!.....|
|14 1B A6 00 00 00 00 00 00 00 00 17 12 27 37 2C |.............'7,|
|00 00 04 00 00 00 00 01 00 00 1F 00 67 00 00 0D |............g...|
|89 00 01 00 01 00 00 11 54 00 02 00 00 00 F7 00 |........T.......|
|00 0B 49 6E 76 61 64 65 72 20 48 61 74 04 01 00 |..Invader Hat...|
|23 00 00 00 00 00 06 00 15 00 00 00 00 00 07 00 |#...............|
|0D 00 00 00 00 00 21 00 02 00 00 00 00 00 00 00 |......!.........|
|00 00 01 00 00 00 00 00 01 01 00 00 03 06 23 00 |..............#.|
|00 00 00 00 00 00 00 00 00 00 00 00 00 00 00 00 |................|
|00 00 00 01 00 03 2E 56 22 B9 09 57 61 72 20 43 |.......V"..War C|
|72 65 73 74 01 4F 00 00 00 00 00 00 00 00 00 00 |rest.O..........|
|00 00 00 00 00 00 00 00 13 01 00 00 21 D6 00 00 |............!...|
|06 A3 08 0A 8E 00 00 00 00 00 00 00 00 18 12 27 |...............'|
|37 2B 00 00 04 00 00 00 00 01 00 00 1F 00 67 00 |7+............g.|
|00 0D 89 00 01 00 01 00 00 11 54 00 02 00 00 00 |..........T.....|
|F7 00 00 11 49 6E 76 61 64 65 72 20 42 61 6E 64 |....Invader Band|
|6F 6C 69 65 72 04 01 00 21 00 00 00 00 00 06 00 |olier...!.......|
|15 00 00 00 00 00 05 00 0A 00 00 00 00 00 54 00 |..............T.|
|03 00 00 00 00 00 00 00 00 00 01 00 00 00 00 00 |................|
|01 01 00 00 03 06 23 00 00 00 00 00 00 00 00 00 |......#.........|
|00 00 00 00 00 00 00 00 00 00 00 01 00 03 2E 56 |...............V|
|22 B9 09 57 61 72 20 43 72 65 73 74 01 1D 00 00 |"..War Crest....|
|00 00 00 00 00 00 00 00 00 00 00 00 00 00 00 00 |................|
|14 01 00 00 1A 51 00 00 06 A2 FC 0A 8A 00 00 00 |.....Q..........|
|00 00 00 00 00 1C 00 27 37 2A 00 00 04 00 00 00 |.......'7*......|
|00 01 00 00 1F 00 67 00 00 0A 87 00 01 00 01 00 |......g.........|
|00 11 54 00 00 00 00 00 00 00 00 0C 49 6E 76 61 |..T.........Inva|
|64 65 72 20 4C 61 73 68 07 0E 00 56 00 00 00 00 |der Lash...V....|
|00 0F 00 56 00 00 00 00 00 10 00 56 00 00 00 00 |...V.......V....|
|00 06 00 1A 00 00 00 00 00 04 00 14 00 00 00 00 |................|
|00 01 00 0D 00 00 00 00 00 03 00 07 00 00 00 00 |................|
|00 00 00 00 00 00 00 01 01 00 00 03 06 23 00 00 |.............#..|
|00 00 00 00 00 00 00 00 00 00 00 00 00 00 00 00 |................|
|00 00 01 00 03 2E 56 22 B9 09 57 61 72 20 43 72 |......V"..War Cr|
|65 73 74 00 78 00 00 00 00 00 00 00 00 00 00 00 |est.x...........|
|00 00 00 00 00 00 00 00                         |........        |
-------------------------------------------------------------------
[Server] packet : (0xC0) F_STORE_BUY_BACK  Size = 5 
|------------------------------------------------|----------------|
|00 01 02 03 04 05 06 07 08 09 0A 0B 0C 0D 0E 0F |0123456789ABCDEF|
|------------------------------------------------|----------------|
|00 02 C0 00 00                                  |.....           |
-------------------------------------------------------------------
[Client] packet : (0x0B) F_PING  Size = 32 
|------------------------------------------------|----------------|
|00 01 02 03 04 05 06 07 08 09 0A 0B 0C 0D 0E 0F |0123456789ABCDEF|
|------------------------------------------------|----------------|
|00 14 77 99 00 1E 00 00 00 0B 00 7C D3 FC 0B C8 |..w........|....|
|84 0F 52 02 16 A0 00 00 00 00 00 00 00 00 FE 14 |..R.............|                                                
-------------------------------------------------------------------
[Server] packet : (0x81) S_PONG  Size = 23 
|------------------------------------------------|----------------|
|00 01 02 03 04 05 06 07 08 09 0A 0B 0C 0D 0E 0F |0123456789ABCDEF|
|------------------------------------------------|----------------|
|00 14 81 00 7C D3 FC 52 74 BB D3 00 00 00 00 00 |....|..Rt.......|
|00 77 9A 00 00 00 00                            |.......         |
-------------------------------------------------------------------
[Client] packet : (0x5A) F_PING_DATAGRAM  Size = 13 
|------------------------------------------------|----------------|
|00 01 02 03 04 05 06 07 08 09 0A 0B 0C 0D 0E 0F |0123456789ABCDEF|
|------------------------------------------------|----------------|
|00 01 77 9A 00 1E FF FF 00 5A 00 2D F8          |.............   |
-------------------------------------------------------------------
[Server] packet : (0x49) F_REMOVE_PLAYER  Size = 7 
|------------------------------------------------|----------------|
|00 01 02 03 04 05 06 07 08 09 0A 0B 0C 0D 0E 0F |0123456789ABCDEF|
|------------------------------------------------|----------------|
|00 04 49 1C 1C 00 00                            |.......         |
-------------------------------------------------------------------
[Server] packet : (0x1A) F_CAMPAIGN_STATUS  Size = 159 
|------------------------------------------------|----------------|
|00 01 02 03 04 05 06 07 08 09 0A 0B 0C 0D 0E 0F |0123456789ABCDEF|
|------------------------------------------------|----------------|
|00 9C 1A 00 09 00 69 00 D1 00 00 00 00 00 32 32 |......i.......22|
|00 32 32 00 32 32 00 64 00 00 32 32 00 32 32 00 |.22.22.d..22.22.|
|32 32 00 00 00 00 32 32 00 00 00 00 32 32 F6 DC |22....22....22..|
|F6 DC F6 DC F6 DC F6 DC F6 DC F6 DC F6 DC F6 DC |................|
|F6 DC 00 00 F6 DC 00 64 64 00 00 64 00 00 64 64 |.......dd..d..dd|
|00 00 00 00 00 00 00 00 00 01 00 00 00 00 00 00 |................|
|00 00 00 00 00 00 00 00 00 00 00 00 00 00 00 00 |................|
|00 00 00 00 00 00 00 00 00 00 00 00 00 00 00 00 |................|
|00 03 00 02 02 03 03 01 00 02 03 03 00 02 02 03 |................|
|02 FE 64 00 0A 3C 00 00 00 03 84 00 00 01 00    |............... |
-------------------------------------------------------------------
[Server] packet : (0x1A) F_CAMPAIGN_STATUS  Size = 159 
|------------------------------------------------|----------------|
|00 01 02 03 04 05 06 07 08 09 0A 0B 0C 0D 0E 0F |0123456789ABCDEF|
|------------------------------------------------|----------------|
|00 9C 1A 00 09 00 69 00 D1 00 00 00 00 00 32 32 |......i.......22|
|00 32 32 00 32 32 00 64 00 00 32 32 00 32 32 00 |.22.22.d..22.22.|
|32 32 00 00 00 00 32 32 00 00 00 00 32 32 F6 DC |22....22....22..|
|F6 DC F6 DC F6 DC F6 DC F6 DC F6 DC F6 DC F6 DC |................|
|F6 DC 00 00 F6 DC 00 64 64 00 00 64 00 00 64 64 |.......dd..d..dd|
|00 00 00 00 00 00 00 00 00 01 00 00 00 00 00 00 |................|
|00 00 00 00 00 00 00 00 00 00 00 00 00 00 00 00 |................|
|00 00 00 00 00 00 00 00 00 00 00 00 00 00 00 00 |................|
|00 03 00 02 02 03 03 01 00 02 03 03 00 02 02 03 |................|
|02 FE 64 00 0A 3C 00 00 00 03 84 00 00 01 00    |............... |
-------------------------------------------------------------------
[Server] packet : (0x96) F_KEEP_STATUS  Size = 29 
|------------------------------------------------|----------------|
|00 01 02 03 04 05 06 07 08 09 0A 0B 0C 0D 0E 0F |0123456789ABCDEF|
|------------------------------------------------|----------------|
|00 1A 96 17 01 00 01 02 00 64 00 00 00 00 00 00 |.........d......|
|00 00 00 00 00 00 00 00 00 00 00 00 00          |.............   |
-------------------------------------------------------------------
[Server] packet : (0x96) F_KEEP_STATUS  Size = 29 
|------------------------------------------------|----------------|
|00 01 02 03 04 05 06 07 08 09 0A 0B 0C 0D 0E 0F |0123456789ABCDEF|
|------------------------------------------------|----------------|
|00 1A 96 18 01 00 02 02 00 64 00 00 00 00 00 00 |.........d......|
|00 00 00 00 00 00 00 00 00 00 00 00 00          |.............   |
-------------------------------------------------------------------
[Server] packet : (0x96) F_KEEP_STATUS  Size = 29 
|------------------------------------------------|----------------|
|00 01 02 03 04 05 06 07 08 09 0A 0B 0C 0D 0E 0F |0123456789ABCDEF|
|------------------------------------------------|----------------|
|00 1A 96 17 01 00 01 02 00 64 00 00 00 00 00 00 |.........d......|
|00 00 00 00 00 00 00 00 00 00 00 00 00          |.............   |
-------------------------------------------------------------------
[Server] packet : (0x96) F_KEEP_STATUS  Size = 29 
|------------------------------------------------|----------------|
|00 01 02 03 04 05 06 07 08 09 0A 0B 0C 0D 0E 0F |0123456789ABCDEF|
|------------------------------------------------|----------------|
|00 1A 96 18 01 00 02 02 00 64 00 00 00 00 00 00 |.........d......|
|00 00 00 00 00 00 00 00 00 00 00 00 00          |.............   |
-------------------------------------------------------------------
[Server] packet : (0x1A) F_CAMPAIGN_STATUS  Size = 159 
|------------------------------------------------|----------------|
|00 01 02 03 04 05 06 07 08 09 0A 0B 0C 0D 0E 0F |0123456789ABCDEF|
|------------------------------------------------|----------------|
|00 9C 1A 00 09 00 69 00 D1 00 00 00 00 00 32 32 |......i.......22|
|00 32 32 00 32 32 00 64 00 00 32 32 00 32 32 00 |.22.22.d..22.22.|
|32 32 00 00 00 00 32 32 00 00 32 00 32 32 00 00 |22....22..2.22..|
|00 00 00 00 00 00 00 00 00 00 00 00 00 00 00 00 |................|
|00 00 00 00 00 00 00 64 64 00 00 64 00 00 64 64 |.......dd..d..dd|
|00 00 00 00 00 00 00 00 00 01 00 00 00 00 00 00 |................|
|00 00 00 00 00 00 00 00 00 00 00 00 00 00 00 00 |................|
|00 00 00 00 00 00 00 00 00 00 00 00 00 00 00 00 |................|
|00 03 00 02 02 03 03 01 00 02 03 03 00 02 02 03 |................|
|02 FE 64 00 0A 3C 00 00 00 03 84 00 00 01 00    |............... |
-------------------------------------------------------------------
[Server] packet : (0x1A) F_CAMPAIGN_STATUS  Size = 159 
|------------------------------------------------|----------------|
|00 01 02 03 04 05 06 07 08 09 0A 0B 0C 0D 0E 0F |0123456789ABCDEF|
|------------------------------------------------|----------------|
|00 9C 1A 00 09 00 69 00 D1 00 00 00 00 00 32 32 |......i.......22|
|00 32 32 00 32 32 00 64 00 00 32 32 00 32 32 00 |.22.22.d..22.22.|
|32 32 00 00 00 00 32 32 00 32 32 00 32 32 00 00 |22....22.22.22..|
|00 00 00 00 00 00 00 00 00 00 00 00 00 00 00 00 |................|
|00 00 00 00 00 00 00 64 64 00 00 64 00 00 64 64 |.......dd..d..dd|
|00 00 00 00 00 00 00 00 00 01 00 00 00 00 00 00 |................|
|00 00 00 00 00 00 00 00 00 00 00 00 00 00 00 00 |................|
|00 00 00 00 00 00 00 00 00 00 00 00 00 00 00 00 |................|
|00 03 00 02 02 03 03 01 00 02 03 03 00 02 02 03 |................|
|02 FE 64 00 0A 3C 00 00 00 03 84 00 00 01 00    |............... |
-------------------------------------------------------------------
[Client] packet : (0x0B) F_PING  Size = 32 
|------------------------------------------------|----------------|
|00 01 02 03 04 05 06 07 08 09 0A 0B 0C 0D 0E 0F |0123456789ABCDEF|
|------------------------------------------------|----------------|
|00 14 77 A3 00 1E 00 00 00 0B 00 7C E7 85 98 C0 |..w........|....|
|10 17 6B 03 B7 5A 00 00 00 00 00 00 00 00 FE 14 |..k..Z..........|                                                
-------------------------------------------------------------------
[Server] packet : (0x81) S_PONG  Size = 23 
|------------------------------------------------|----------------|
|00 01 02 03 04 05 06 07 08 09 0A 0B 0C 0D 0E 0F |0123456789ABCDEF|
|------------------------------------------------|----------------|
|00 14 81 00 7C E7 85 52 74 BB D8 00 00 00 00 00 |....|..Rt.......|
|00 77 A4 00 00 00 00                            |.......         |
-------------------------------------------------------------------
[Client] packet : (0x01) UNKNOWN  Size = 32 
|------------------------------------------------|----------------|
|00 01 02 03 04 05 06 07 08 09 0A 0B 0C 0D 0E 0F |0123456789ABCDEF|
|------------------------------------------------|----------------|
|00 14 77 A8 00 1E 00 00 00 01 00 7C E8 24 00 00 |..w........|.$..|
|00 00 00 00 00 00 00 00 04 4E 00 00 30 B5 00 00 |.........N..0...|                                                
-------------------------------------------------------------------
[Server] packet : (0x71) F_CREATE_STATIC  Size = 58 
|------------------------------------------------|----------------|
|00 01 02 03 04 05 06 07 08 09 0A 0B 0C 0D 0E 0F |0123456789ABCDEF|
|------------------------------------------------|----------------|
|00 37 71 37 D3 00 00 04 22 0C AC 00 0D 0B 83 00 |.7q7....".......|
|0D 8F FF 21 9A 1E 01 00 01 53 AC 00 02 08 00 00 |...!.....S......|
|00 28 64 79 7D 3F B8 00 00 00 00 0D 44 61 65 6D |.(dy}?......Daem|
|6F 6E 20 43 72 61 64 6C 65 00                   |..........      |
-------------------------------------------------------------------
[Server] packet : (0x00) UNKNOWN  Size = 23 
|------------------------------------------------|----------------|
|00 01 02 03 04 05 06 07 08 09 0A 0B 0C 0D 0E 0F |0123456789ABCDEF|
|------------------------------------------------|----------------|
|00 14 00 00 7C E8 24 79 7D 3F 3C 00 00 00 00 00 |....|.$y}?<.....|
|00 04 4E 00 00 30 00                            |.......         |
-------------------------------------------------------------------
[Server] packet : (0x5E) F_SET_TARGET  Size = 9 
|------------------------------------------------|----------------|
|00 01 02 03 04 05 06 07 08 09 0A 0B 0C 0D 0E 0F |0123456789ABCDEF|
|------------------------------------------------|----------------|
|00 06 5E 38 D9 0E 5A 01 00                      |.........       |
-------------------------------------------------------------------
[Client] packet : (0x0B) F_PING  Size = 32 
|------------------------------------------------|----------------|
|00 01 02 03 04 05 06 07 08 09 0A 0B 0C 0D 0E 0F |0123456789ABCDEF|
|------------------------------------------------|----------------|
|00 14 77 AF 00 1E 00 00 00 0B 00 7C FB 1F FF 1F |..w........|....|
|3A EF FF BE F5 2F 00 00 00 00 00 00 00 00 FE 14 |:..../..........|                                                
-------------------------------------------------------------------
[Server] packet : (0x81) S_PONG  Size = 23 
|------------------------------------------------|----------------|
|00 01 02 03 04 05 06 07 08 09 0A 0B 0C 0D 0E 0F |0123456789ABCDEF|
|------------------------------------------------|----------------|
|00 14 81 00 7C FB 1F 52 74 BB DD 00 00 00 00 00 |....|..Rt.......|
|00 77 B0 00 00 00 00                            |.......         |
-------------------------------------------------------------------
[Client] packet : (0x0B) F_PING  Size = 32 
|------------------------------------------------|----------------|
|00 01 02 03 04 05 06 07 08 09 0A 0B 0C 0D 0E 0F |0123456789ABCDEF|
|------------------------------------------------|----------------|
|00 14 77 B9 00 1E 00 00 00 0B 00 7D 0E B3 A4 77 |..w........}...w|
|7B 6C FF BA 7F E6 00 00 00 00 00 00 00 00 FE 14 |{l..............|                                                
-------------------------------------------------------------------
[Server] packet : (0x81) S_PONG  Size = 23 
|------------------------------------------------|----------------|
|00 01 02 03 04 05 06 07 08 09 0A 0B 0C 0D 0E 0F |0123456789ABCDEF|
|------------------------------------------------|----------------|
|00 14 81 00 7D 0E B3 52 74 BB E2 00 00 00 00 00 |....}..Rt.......|
|00 77 BA 00 00 00 00                            |.......         |
-------------------------------------------------------------------
[Client] packet : (0x5A) F_PING_DATAGRAM  Size = 13 
|------------------------------------------------|----------------|
|00 01 02 03 04 05 06 07 08 09 0A 0B 0C 0D 0E 0F |0123456789ABCDEF|
|------------------------------------------------|----------------|
|00 01 77 BB 00 1E FF FF 00 5A 00 AA 50          |.............   |
-------------------------------------------------------------------
[Client] packet : (0x01) UNKNOWN  Size = 32 
|------------------------------------------------|----------------|
|00 01 02 03 04 05 06 07 08 09 0A 0B 0C 0D 0E 0F |0123456789ABCDEF|
|------------------------------------------------|----------------|
|00 14 77 BE 00 1E 00 00 00 01 00 7D 10 26 20 07 |..w........}.& .|
|2A 68 90 38 40 04 00 23 3F F4 08 18 F7 7B 00 00 |*h.8@..#?....{..|                                                
-------------------------------------------------------------------
[Server] packet : (0x00) UNKNOWN  Size = 23 
|------------------------------------------------|----------------|
|00 01 02 03 04 05 06 07 08 09 0A 0B 0C 0D 0E 0F |0123456789ABCDEF|
|------------------------------------------------|----------------|
|00 14 00 00 7D 10 26 79 7D 67 3F 00 00 00 00 00 |....}.&y}g?.....|
|23 3F F4 08 18 F7 00                            |.......         |
-------------------------------------------------------------------
[Server] packet : (0x49) F_REMOVE_PLAYER  Size = 7 
|------------------------------------------------|----------------|
|00 01 02 03 04 05 06 07 08 09 0A 0B 0C 0D 0E 0F |0123456789ABCDEF|
|------------------------------------------------|----------------|
|00 04 49 0E 5A 00 00                            |.......         |
-------------------------------------------------------------------
[Client] packet : (0x0B) F_PING  Size = 32 
|------------------------------------------------|----------------|
|00 01 02 03 04 05 06 07 08 09 0A 0B 0C 0D 0E 0F |0123456789ABCDEF|
|------------------------------------------------|----------------|
|00 14 77 C5 00 1E 00 00 00 0B 00 7D 22 45 0D 58 |..w........}"E.X|
|00 85 26 83 17 5B 00 00 00 00 00 00 00 00 FE 14 |..&..[..........|                                                
-------------------------------------------------------------------
[Server] packet : (0x81) S_PONG  Size = 23 
|------------------------------------------------|----------------|
|00 01 02 03 04 05 06 07 08 09 0A 0B 0C 0D 0E 0F |0123456789ABCDEF|
|------------------------------------------------|----------------|
|00 14 81 00 7D 22 45 52 74 BB E7 00 00 00 00 00 |....}"ERt.......|
|00 77 C6 00 00 00 00                            |.......         |
-------------------------------------------------------------------
[Client] packet : (0x0B) F_PING  Size = 32 
|------------------------------------------------|----------------|
|00 01 02 03 04 05 06 07 08 09 0A 0B 0C 0D 0E 0F |0123456789ABCDEF|
|------------------------------------------------|----------------|
|00 14 77 D0 00 1E 00 00 00 0B 00 7D 35 DF A2 87 |..w........}5...|
|3E F9 B1 3B E1 F7 00 00 00 00 00 00 00 00 FE 14 |>..;............|                                                
-------------------------------------------------------------------
[Server] packet : (0x81) S_PONG  Size = 23 
|------------------------------------------------|----------------|
|00 01 02 03 04 05 06 07 08 09 0A 0B 0C 0D 0E 0F |0123456789ABCDEF|
|------------------------------------------------|----------------|
|00 14 81 00 7D 35 DF 52 74 BB EC 00 00 00 00 00 |....}5.Rt.......|
|00 77 D1 00 00 00 00                            |.......         |
-------------------------------------------------------------------
[Client] packet : (0x01) UNKNOWN  Size = 32 
|------------------------------------------------|----------------|
|00 01 02 03 04 05 06 07 08 09 0A 0B 0C 0D 0E 0F |0123456789ABCDEF|
|------------------------------------------------|----------------|
|00 14 77 D5 00 1E 00 00 00 01 00 7D 38 24 00 00 |..w........}8$..|
|00 00 00 00 00 00 00 00 02 02 00 00 39 91 94 E6 |............9...|                                                
-------------------------------------------------------------------
[Server] packet : (0x00) UNKNOWN  Size = 23 
|------------------------------------------------|----------------|
|00 01 02 03 04 05 06 07 08 09 0A 0B 0C 0D 0E 0F |0123456789ABCDEF|
|------------------------------------------------|----------------|
|00 14 00 00 7D 38 24 79 7D 8F 25 00 00 00 00 00 |....}8$y}.%.....|
|00 02 02 00 00 39 00                            |.......         |
-------------------------------------------------------------------
[Client] packet : (0x0B) F_PING  Size = 32 
|------------------------------------------------|----------------|
|00 01 02 03 04 05 06 07 08 09 0A 0B 0C 0D 0E 0F |0123456789ABCDEF|
|------------------------------------------------|----------------|
|00 14 77 DB 00 1E 00 00 00 0B 00 7D 49 74 5C D0 |..w........}It\.|
|C6 03 83 A0 07 81 00 00 00 00 00 00 00 00 FE 14 |................|                                                
-------------------------------------------------------------------
[Server] packet : (0x81) S_PONG  Size = 23 
|------------------------------------------------|----------------|
|00 01 02 03 04 05 06 07 08 09 0A 0B 0C 0D 0E 0F |0123456789ABCDEF|
|------------------------------------------------|----------------|
|00 14 81 00 7D 49 74 52 74 BB F1 00 00 00 00 00 |....}ItRt.......|
|00 77 DC 00 00 00 00                            |.......         |
-------------------------------------------------------------------
[Client] packet : (0x5A) F_PING_DATAGRAM  Size = 13 
|------------------------------------------------|----------------|
|00 01 02 03 04 05 06 07 08 09 0A 0B 0C 0D 0E 0F |0123456789ABCDEF|
|------------------------------------------------|----------------|
|00 01 77 DD 00 1E FF FF 00 5A 00 81 58          |.............   |
-------------------------------------------------------------------
[Client] packet : (0x0B) F_PING  Size = 32 
|------------------------------------------------|----------------|
|00 01 02 03 04 05 06 07 08 09 0A 0B 0C 0D 0E 0F |0123456789ABCDEF|
|------------------------------------------------|----------------|
|00 14 77 E7 00 1E 00 00 00 0B 00 7D 5C FF ED 5F |..w........}\.._|
|EE FB 9F F9 5E 14 00 00 00 00 00 00 00 00 FE 14 |....^...........|                                                
-------------------------------------------------------------------
[Server] packet : (0x81) S_PONG  Size = 23 
|------------------------------------------------|----------------|
|00 01 02 03 04 05 06 07 08 09 0A 0B 0C 0D 0E 0F |0123456789ABCDEF|
|------------------------------------------------|----------------|
|00 14 81 00 7D 5C FF 52 74 BB F6 00 00 00 00 00 |....}\.Rt.......|
|00 77 E8 00 00 00 00                            |.......         |
-------------------------------------------------------------------
[Client] packet : (0x01) UNKNOWN  Size = 32 
|------------------------------------------------|----------------|
|00 01 02 03 04 05 06 07 08 09 0A 0B 0C 0D 0E 0F |0123456789ABCDEF|
|------------------------------------------------|----------------|
|00 14 77 EC 00 1E 00 00 00 01 00 7D 60 18 00 00 |..w........}`...|
|00 00 00 00 00 00 00 00 02 02 00 00 28 B4 00 00 |............(...|                                                
-------------------------------------------------------------------
[Server] packet : (0x00) UNKNOWN  Size = 23 
|------------------------------------------------|----------------|
|00 01 02 03 04 05 06 07 08 09 0A 0B 0C 0D 0E 0F |0123456789ABCDEF|
|------------------------------------------------|----------------|
|00 14 00 00 7D 60 18 79 7D B7 24 00 00 00 00 00 |....}`.y}.$.....|
|00 02 02 00 00 28 00                            |.......         |
-------------------------------------------------------------------
[Server] packet : (0x71) F_CREATE_STATIC  Size = 58 
|------------------------------------------------|----------------|
|00 01 02 03 04 05 06 07 08 09 0A 0B 0C 0D 0E 0F |0123456789ABCDEF|
|------------------------------------------------|----------------|
|00 37 71 2C 5E 00 00 0E E3 0C AC 00 0D 0C 09 00 |.7q,^...........|
|0D 90 62 21 9A 1E 01 00 01 53 AC 00 03 08 00 00 |..b!.....S......|
|00 28 64 79 7D BE 18 00 00 00 00 0D 44 61 65 6D |.(dy}.......Daem|
|6F 6E 20 43 72 61 64 6C 65 00                   |..........      |
-------------------------------------------------------------------
[Server] packet : (0x5E) F_SET_TARGET  Size = 9 
|------------------------------------------------|----------------|
|00 01 02 03 04 05 06 07 08 09 0A 0B 0C 0D 0E 0F |0123456789ABCDEF|
|------------------------------------------------|----------------|
|00 06 5E 38 D9 1C 1C 01 00                      |.........       |
-------------------------------------------------------------------
[Client] packet : (0x0B) F_PING  Size = 32 
|------------------------------------------------|----------------|
|00 01 02 03 04 05 06 07 08 09 0A 0B 0C 0D 0E 0F |0123456789ABCDEF|
|------------------------------------------------|----------------|
|00 14 77 F2 00 1E 00 00 00 0B 00 7D 70 88 C0 8C |..w........}p...|
|42 0D 47 05 19 A4 00 00 00 00 00 00 00 00 FE 14 |B.G.............|                                                
-------------------------------------------------------------------
[Server] packet : (0x81) S_PONG  Size = 23 
|------------------------------------------------|----------------|
|00 01 02 03 04 05 06 07 08 09 0A 0B 0C 0D 0E 0F |0123456789ABCDEF|
|------------------------------------------------|----------------|
|00 14 81 00 7D 70 88 52 74 BB FB 00 00 00 00 00 |....}p.Rt.......|
|00 77 F3 00 00 00 00                            |.......         |
-------------------------------------------------------------------
[Server] packet : (0x96) F_KEEP_STATUS  Size = 29 
|------------------------------------------------|----------------|
|00 01 02 03 04 05 06 07 08 09 0A 0B 0C 0D 0E 0F |0123456789ABCDEF|
|------------------------------------------------|----------------|
|00 1A 96 18 02 00 02 02 00 64 00 00 00 00 00 00 |.........d......|
|00 00 00 00 00 00 00 00 00 00 00 00 00          |.............   |
-------------------------------------------------------------------
[Client] packet : (0x86) F_MAIL  Size = 16 
|------------------------------------------------|----------------|
|00 01 02 03 04 05 06 07 08 09 0A 0B 0C 0D 0E 0F |0123456789ABCDEF|
|------------------------------------------------|----------------|
|00 04 77 F7 00 1E FF FF 00 86 00 00 00 00 00 00 |..w.............|                                                
-------------------------------------------------------------------