
[Server] packet : (0x51) F_ANIMATION  Size = 9 
|------------------------------------------------|----------------|
|00 01 02 03 04 05 06 07 08 09 0A 0B 0C 0D 0E 0F |0123456789ABCDEF|
|------------------------------------------------|----------------|
|00 06 51 01 3B 00 AC 00 00                      |.........       |
-------------------------------------------------------------------
[Server] packet : (0x51) F_ANIMATION  Size = 9 
|------------------------------------------------|----------------|
|00 01 02 03 04 05 06 07 08 09 0A 0B 0C 0D 0E 0F |0123456789ABCDEF|
|------------------------------------------------|----------------|
|00 06 51 0D 2B 00 6C 00 00                      |.........       |
-------------------------------------------------------------------
[Server] packet : (0x51) F_ANIMATION  Size = 9 
|------------------------------------------------|----------------|
|00 01 02 03 04 05 06 07 08 09 0A 0B 0C 0D 0E 0F |0123456789ABCDEF|
|------------------------------------------------|----------------|
|00 06 51 01 3C 00 E5 00 00                      |.........       |
-------------------------------------------------------------------
[Client] packet : (0x01) UNKNOWN  Size = 32 
|------------------------------------------------|----------------|
|00 01 02 03 04 05 06 07 08 09 0A 0B 0C 0D 0E 0F |0123456789ABCDEF|
|------------------------------------------------|----------------|
|00 14 11 6F 00 05 00 00 00 01 00 0F FA FA 20 07 |...o.......... .|
|2A 68 90 38 40 04 00 23 79 BB 08 18 DE 5F EE 41 |*h.8@..#y...._.A|                                                
-------------------------------------------------------------------
[Server] packet : (0x00) UNKNOWN  Size = 23 
|------------------------------------------------|----------------|
|00 01 02 03 04 05 06 07 08 09 0A 0B 0C 0D 0E 0F |0123456789ABCDEF|
|------------------------------------------------|----------------|
|00 14 00 00 0F FA FA AA D9 27 CA 00 00 00 00 00 |.........'......|
|23 79 BB 08 18 DE 00                            |.......         |
-------------------------------------------------------------------
[Client] packet : (0x0B) F_PING  Size = 32 
|------------------------------------------------|----------------|
|00 01 02 03 04 05 06 07 08 09 0A 0B 0C 0D 0E 0F |0123456789ABCDEF|
|------------------------------------------------|----------------|
|00 14 11 72 00 05 00 00 00 0B 00 10 03 55 5D 48 |...r.........U]H|
|05 17 4D C4 3D 7B 00 00 00 00 00 00 00 00 F0 ED |..M.={..........|                                                
-------------------------------------------------------------------
[Server] packet : (0x81) S_PONG  Size = 23 
|------------------------------------------------|----------------|
|00 01 02 03 04 05 06 07 08 09 0A 0B 0C 0D 0E 0F |0123456789ABCDEF|
|------------------------------------------------|----------------|
|00 14 81 00 10 03 55 52 81 5E 8D 00 00 00 00 00 |......UR.^......|
|00 11 73 00 00 00 00                            |.......         |
-------------------------------------------------------------------
[Client] packet : (0x16) F_REQUEST_INIT_OBJECT  Size = 16 
|------------------------------------------------|----------------|
|00 01 02 03 04 05 06 07 08 09 0A 0B 0C 0D 0E 0F |0123456789ABCDEF|
|------------------------------------------------|----------------|
|00 04 11 75 00 05 00 00 00 16 31 83 00 00 00 00 |...u......1.....|                                                
-------------------------------------------------------------------
[Server] packet : (0x72) F_CREATE_MONSTER  Size = 108 
|------------------------------------------------|----------------|
|00 01 02 03 04 05 06 07 08 09 0A 0B 0C 0D 0E 0F |0123456789ABCDEF|
|------------------------------------------------|----------------|
|00 69 72 31 83 00 EB 01 C5 26 F1 00 0F D4 B7 00 |.ir1.....&......|
|10 40 3A FF D6 04 3C 32 07 61 00 00 00 00 00 00 |.@:...<2.a......|
|00 00 00 03 E8 00 00 00 00 89 74 00 00 00 00 01 |..........t.....|
|19 00 47 6F 6C 64 65 6E 77 69 6E 67 20 45 61 67 |..Goldenwing Eag|
|6C 65 5E 6D 00 01 0A 00 00 00 1A 05 00 31 83 54 |le^m.........1.T|
|B7 C0 3A 26 F1 64 21 C8 00 00 00 00 00 EB 00 8A |..:&.d!.........|
|50 52 1B C3 40 26 C8 31 83 00 00 00             |............    |
-------------------------------------------------------------------
[Server] packet : (0x29) F_SHOW_DIALOG  Size = 5 
|------------------------------------------------|----------------|
|00 01 02 03 04 05 06 07 08 09 0A 0B 0C 0D 0E 0F |0123456789ABCDEF|
|------------------------------------------------|----------------|
|00 02 29 00 00                                  |.....           |
-------------------------------------------------------------------
[Client] packet : (0x0B) F_PING  Size = 32 
|------------------------------------------------|----------------|
|00 01 02 03 04 05 06 07 08 09 0A 0B 0C 0D 0E 0F |0123456789ABCDEF|
|------------------------------------------------|----------------|
|00 14 11 92 00 05 00 00 00 0B 00 10 3D CE 44 7B |............=.D{|
|7B BA 5E 1B DC 7B 00 00 00 00 00 00 00 00 F0 ED |{.^..{..........|                                                
-------------------------------------------------------------------
[Server] packet : (0x81) S_PONG  Size = 23 
|------------------------------------------------|----------------|
|00 01 02 03 04 05 06 07 08 09 0A 0B 0C 0D 0E 0F |0123456789ABCDEF|
|------------------------------------------------|----------------|
|00 14 81 00 10 3D CE 52 81 5E 9C 00 00 00 00 00 |.....=.R.^......|
|00 11 93 00 00 00 00                            |.......         |
-------------------------------------------------------------------
[Server] packet : (0xD7) F_INIT_EFFECTS  Size = 365 
|------------------------------------------------|----------------|
|00 01 02 03 04 05 06 07 08 09 0A 0B 0C 0D 0E 0F |0123456789ABCDEF|
|------------------------------------------------|----------------|
|01 6A D7 15 00 00 00 27 94 18 00 F9 20 DE B1 AE |.j.....'.... ...|
|01 94 27 01 00 02 19 00 FA 20 DE B1 AE 01 94 27 |..'...... .....'|
|01 00 C8 01 1A 00 F0 20 DE B1 AE 01 94 27 01 00 |....... .....'..|
|02 04 00 FD 6E DE B1 AE 01 94 27 01 00 02 12 00 |....n.....'.....|
|A0 38 DE B1 AE 01 94 27 01 00 32 06 00 2A 6F DE |.8.....'..2..*o.|
|B1 AE 01 94 27 01 00 02 1B 00 F3 20 DE B1 AE 01 |....'...... ....|
|94 27 01 00 02 1C 00 11 3B DE B1 AE 01 94 27 01 |.'......;.....'.|
|00 0A 0C 00 E2 0B DE B1 AE 01 94 27 01 02 02 10 |...........'....|
|00 ED 01 DE B1 AE 01 94 27 0A 00 40 01 52 02 74 |........'..@.R.t|
|03 B0 01 04 84 02 05 EE 02 06 F4 01 07 86 01 08 |................|
|10 09 32 08 00 BF 33 DE B1 AE 01 94 27 01 00 C8 |..2...3.....'...|
|01 09 00 00 1F 9A 10 94 27 01 00 A8 0A 0B 00 97 |........'.......|
|70 DE B1 AE 01 94 27 03 00 02 02 C0 D5 01 04 62 |p.....'........b|
|07 00 CE 20 DE B1 AE 01 94 27 03 00 02 04 02 05 |... .....'......|
|C0 02 05 00 8A 37 DE B1 AE 01 94 27 01 00 0A 02 |.....7.....'....|
|00 8B 61 DE B1 AE 01 94 27 04 00 32 01 32 02 64 |..a.....'..2.2.d|
|03 64 0E 00 EC 01 DE B1 AE 01 94 27 04 00 90 03 |.d.........'....|
|01 90 03 02 90 03 03 90 03 11 00 DE 01 DE B1 AE |................|
|01 94 27 01 01 02 0D 00 EA 01 DE B1 AE 01 94 27 |..'............'|
|05 00 02 01 5B 02 02 05 02 09 8F CB 01 01 00 4C |....[..........L|
|61 DE B1 AE 01 94 27 03 00 C7 01 01 C7 01 02 C7 |a.....'.........|
|01 0F 00 51 0C DE B1 AE 01 94 27 06 00 C7 01 01 |...Q......'.....|
|C7 01 02 C7 01 03 C7 01 04 02 05 02 00          |.............   |
-------------------------------------------------------------------
[Client] packet : (0x5A) F_PING_DATAGRAM  Size = 13 
|------------------------------------------------|----------------|
|00 01 02 03 04 05 06 07 08 09 0A 0B 0C 0D 0E 0F |0123456789ABCDEF|
|------------------------------------------------|----------------|
|00 01 11 9A 00 05 FF FF 00 5A 00 87 14          |.............   |
-------------------------------------------------------------------
[Client] packet : (0x01) UNKNOWN  Size = 32 
|------------------------------------------------|----------------|
|00 01 02 03 04 05 06 07 08 09 0A 0B 0C 0D 0E 0F |0123456789ABCDEF|
|------------------------------------------------|----------------|
|00 14 11 9D 00 05 00 00 00 01 00 10 4A D6 20 07 |............J. .|
|2A 68 90 38 40 04 00 23 3B BB 08 18 F2 4B 00 00 |*h.8@..#;....K..|                                                
-------------------------------------------------------------------
[Client] packet : (0x07) F_TEXT  Size = 30 
|------------------------------------------------|----------------|
|00 01 02 03 04 05 06 07 08 09 0A 0B 0C 0D 0E 0F |0123456789ABCDEF|
|------------------------------------------------|----------------|
|00 12 11 9F 00 05 FF FF 00 07 00 26 69 6E 76 69 |...........&invi|
|74 65 20 44 61 73 63 6F 75 62 00 00 08 4B       |..............  |
-------------------------------------------------------------------
[Server] packet : (0x6F) F_LOCALIZED_STRING  Size = 26 
|------------------------------------------------|----------------|
|00 01 02 03 04 05 06 07 08 09 0A 0B 0C 0D 0E 0F |0123456789ABCDEF|
|------------------------------------------------|----------------|
|00 17 6F 00 00 00 00 01 97 00 00 00 01 01 00 0A |..o.............|
|44 61 73 63 6F 75 62 5E 4D 00                   |..........      |
-------------------------------------------------------------------
[Server] packet : (0x00) UNKNOWN  Size = 23 
|------------------------------------------------|----------------|
|00 01 02 03 04 05 06 07 08 09 0A 0B 0C 0D 0E 0F |0123456789ABCDEF|
|------------------------------------------------|----------------|
|00 14 00 00 10 4A D6 AA D9 77 3D 00 00 00 00 00 |.....J...w=.....|
|23 3B BB 08 18 F2 00                            |.......         |
-------------------------------------------------------------------
[Client] packet : (0x0B) F_PING  Size = 32 
|------------------------------------------------|----------------|
|00 01 02 03 04 05 06 07 08 09 0A 0B 0C 0D 0E 0F |0123456789ABCDEF|
|------------------------------------------------|----------------|
|00 14 11 A1 00 05 00 00 00 0B 00 10 51 62 83 33 |............Qb.3|
|FB FB 1A 3D DF EF 00 00 00 00 00 00 00 00 F0 ED |...=............|                                                
-------------------------------------------------------------------
[Client] packet : (0x16) F_REQUEST_INIT_OBJECT  Size = 16 
|------------------------------------------------|----------------|
|00 01 02 03 04 05 06 07 08 09 0A 0B 0C 0D 0E 0F |0123456789ABCDEF|
|------------------------------------------------|----------------|
|00 04 11 A2 00 05 00 00 00 16 11 6A 00 00 33 64 |...........j..3d|                                                
-------------------------------------------------------------------
[Server] packet : (0x1A) F_CAMPAIGN_STATUS  Size = 159 
|------------------------------------------------|----------------|
|00 01 02 03 04 05 06 07 08 09 0A 0B 0C 0D 0E 0F |0123456789ABCDEF|
|------------------------------------------------|----------------|
|00 9C 1A 00 09 00 67 00 CB 00 00 32 00 00 32 32 |......g....2..22|
|00 32 32 00 32 32 00 00 22 00 32 32 00 32 32 00 |.22.22..".22.22.|
|32 32 00 00 00 00 32 32 00 32 32 00 32 32 68 90 |22....22.22.22h.|
|68 90 68 90 68 90 68 90 68 90 68 90 68 90 68 90 |h.h.h.h.h.h.h.h.|
|68 90 68 90 68 90 00 42 64 00 00 00 21 00 00 00 |h.h.h..Bd...!...|
|00 00 00 00 63 00 00 00 00 00 00 00 00 00 00 00 |....c...........|
|00 00 00 00 00 00 00 00 00 00 00 00 00 00 00 00 |................|
|00 00 00 00 00 00 00 00 00 00 00 00 00 00 00 00 |................|
|00 03 00 02 02 03 03 01 01 00 03 03 01 01 00 03 |................|
|FF 01 3C 28 0A 3C 00 00 00 03 84 00 00 02 00    |............... |
-------------------------------------------------------------------
[Server] packet : (0x81) S_PONG  Size = 23 
|------------------------------------------------|----------------|
|00 01 02 03 04 05 06 07 08 09 0A 0B 0C 0D 0E 0F |0123456789ABCDEF|
|------------------------------------------------|----------------|
|00 14 81 00 10 51 62 52 81 5E A1 00 00 00 00 00 |.....QbR.^......|
|00 11 A2 00 00 00 00                            |.......         |
-------------------------------------------------------------------
[Server] packet : (0x72) F_CREATE_MONSTER  Size = 108 
|------------------------------------------------|----------------|
|00 01 02 03 04 05 06 07 08 09 0A 0B 0C 0D 0E 0F |0123456789ABCDEF|
|------------------------------------------------|----------------|
|00 69 72 11 6A 00 EB 0C FA 2B E6 00 0F D0 5B 00 |.ir.j....+....[.|
|10 41 C6 00 00 04 3C 32 07 61 00 00 00 00 00 00 |.A....<2.a......|
|00 00 00 03 E8 00 00 00 00 89 66 00 08 00 00 01 |..........f.....|
|19 00 47 6F 6C 64 65 6E 77 69 6E 67 20 46 6C 69 |..Goldenwing Fli|
|65 72 5E 6D 00 01 0A 00 00 00 1A 05 00 11 6A 50 |er^m..........jP|
|5B C1 C6 2B E6 64 21 C8 00 00 00 00 00 EB 00 00 |[..+.d!.........|
|23 51 17 C2 E6 2B C8 11 6A 00 00 00             |............    |
-------------------------------------------------------------------
[Server] packet : (0x51) F_ANIMATION  Size = 9 
|------------------------------------------------|----------------|
|00 01 02 03 04 05 06 07 08 09 0A 0B 0C 0D 0E 0F |0123456789ABCDEF|
|------------------------------------------------|----------------|
|00 06 51 01 3C 00 E5 00 00                      |.........       |
-------------------------------------------------------------------
[Server] packet : (0x0A) F_OBJECT_DEATH  Size = 15 
|------------------------------------------------|----------------|
|00 01 02 03 04 05 06 07 08 09 0A 0B 0C 0D 0E 0F |0123456789ABCDEF|
|------------------------------------------------|----------------|
|00 0C 0A 39 C5 00 00 00 00 00 00 00 00 00 00    |............... |
-------------------------------------------------------------------
[Server] packet : (0x6F) F_LOCALIZED_STRING  Size = 24 
|------------------------------------------------|----------------|
|00 01 02 03 04 05 06 07 08 09 0A 0B 0C 0D 0E 0F |0123456789ABCDEF|
|------------------------------------------------|----------------|
|00 15 6F 00 00 00 00 03 DD 00 00 00 01 01 00 08 |..o.............|
|53 68 79 6D 73 5E 4D 00                         |........        |
-------------------------------------------------------------------
[Server] packet : (0x1D) F_GUILD_DATA  Size = 52 
|------------------------------------------------|----------------|
|00 01 02 03 04 05 06 07 08 09 0A 0B 0C 0D 0E 0F |0123456789ABCDEF|
|------------------------------------------------|----------------|
|00 31 1D 02 01 00 1B 84 90 00 00 00 00 01 00 07 |.1..............|
|4D 65 6D 62 72 65 00 00 00 08 53 68 79 6D 73 5E |Membre....Shyms^|
|4D 00 28 00 1A 01 52 81 5E A4 00 00 00 01 00 01 |M.(...R.^.......|
|00 00 01 00                                     |....            |
-------------------------------------------------------------------
[Server] packet : (0x51) F_ANIMATION  Size = 9 
|------------------------------------------------|----------------|
|00 01 02 03 04 05 06 07 08 09 0A 0B 0C 0D 0E 0F |0123456789ABCDEF|
|------------------------------------------------|----------------|
|00 06 51 0F E7 00 AC 00 00                      |.........       |
-------------------------------------------------------------------
[Client] packet : (0x0B) F_PING  Size = 32 
|------------------------------------------------|----------------|
|00 01 02 03 04 05 06 07 08 09 0A 0B 0C 0D 0E 0F |0123456789ABCDEF|
|------------------------------------------------|----------------|
|00 14 11 AC 00 05 00 00 00 0B 00 10 64 EB 28 AF |............d.(.|
|EB EA B3 79 D8 FD 00 00 00 00 00 00 00 00 F0 ED |...y............|                                                
-------------------------------------------------------------------
[Server] packet : (0x81) S_PONG  Size = 23 
|------------------------------------------------|----------------|
|00 01 02 03 04 05 06 07 08 09 0A 0B 0C 0D 0E 0F |0123456789ABCDEF|
|------------------------------------------------|----------------|
|00 14 81 00 10 64 EB 52 81 5E A6 00 00 00 00 00 |.....d.R.^......|
|00 11 AD 00 00 00 00                            |.......         |
-------------------------------------------------------------------
[Client] packet : (0x01) UNKNOWN  Size = 32 
|------------------------------------------------|----------------|
|00 01 02 03 04 05 06 07 08 09 0A 0B 0C 0D 0E 0F |0123456789ABCDEF|
|------------------------------------------------|----------------|
|00 14 11 B6 00 05 00 00 00 01 00 10 73 2A 20 07 |............s* .|
|2A 68 90 38 40 04 00 23 39 F6 08 18 E8 5E 67 A9 |*h.8@..#9....^g.|                                                
-------------------------------------------------------------------
[Server] packet : (0x00) UNKNOWN  Size = 23 
|------------------------------------------------|----------------|
|00 01 02 03 04 05 06 07 08 09 0A 0B 0C 0D 0E 0F |0123456789ABCDEF|
|------------------------------------------------|----------------|
|00 14 00 00 10 73 2A AA D9 9F 75 00 00 00 00 00 |.....s*...u.....|
|23 39 F6 08 18 E8 00                            |.......         |
-------------------------------------------------------------------
[Client] packet : (0x0B) F_PING  Size = 32 
|------------------------------------------------|----------------|
|00 01 02 03 04 05 06 07 08 09 0A 0B 0C 0D 0E 0F |0123456789ABCDEF|
|------------------------------------------------|----------------|
|00 14 11 B8 00 05 00 00 00 0B 00 10 78 81 03 18 |............x...|
|11 95 00 87 B3 89 00 00 00 00 00 00 00 00 F0 ED |................|                                                
-------------------------------------------------------------------
[Server] packet : (0x81) S_PONG  Size = 23 
|------------------------------------------------|----------------|
|00 01 02 03 04 05 06 07 08 09 0A 0B 0C 0D 0E 0F |0123456789ABCDEF|
|------------------------------------------------|----------------|
|00 14 81 00 10 78 81 52 81 5E AB 00 00 00 00 00 |.....x.R.^......|
|00 11 B9 00 00 00 00                            |.......         |
-------------------------------------------------------------------
[Server] packet : (0x51) F_ANIMATION  Size = 9 
|------------------------------------------------|----------------|
|00 01 02 03 04 05 06 07 08 09 0A 0B 0C 0D 0E 0F |0123456789ABCDEF|
|------------------------------------------------|----------------|
|00 06 51 01 3B 00 AC 00 00                      |.........       |
-------------------------------------------------------------------
[Client] packet : (0x5A) F_PING_DATAGRAM  Size = 13 
|------------------------------------------------|----------------|
|00 01 02 03 04 05 06 07 08 09 0A 0B 0C 0D 0E 0F |0123456789ABCDEF|
|------------------------------------------------|----------------|
|00 01 11 BD 00 05 FF FF 00 5A 00 55 24          |.............   |
-------------------------------------------------------------------
[Server] packet : (0x51) F_ANIMATION  Size = 9 
|------------------------------------------------|----------------|
|00 01 02 03 04 05 06 07 08 09 0A 0B 0C 0D 0E 0F |0123456789ABCDEF|
|------------------------------------------------|----------------|
|00 06 51 01 3C 00 B0 00 00                      |.........       |
-------------------------------------------------------------------
[Server] packet : (0x6F) F_LOCALIZED_STRING  Size = 26 
|------------------------------------------------|----------------|
|00 01 02 03 04 05 06 07 08 09 0A 0B 0C 0D 0E 0F |0123456789ABCDEF|
|------------------------------------------------|----------------|
|00 17 6F 00 00 00 00 01 9D 00 00 00 01 01 00 0A |..o.............|
|44 61 73 63 6F 75 62 5E 4D 00                   |..........      |
-------------------------------------------------------------------
[Client] packet : (0x0B) F_PING  Size = 32 
|------------------------------------------------|----------------|
|00 01 02 03 04 05 06 07 08 09 0A 0B 0C 0D 0E 0F |0123456789ABCDEF|
|------------------------------------------------|----------------|
|00 14 11 C2 00 05 00 00 00 0B 00 10 8C 14 7D 58 |..............}X|
|40 04 C4 65 18 14 00 00 00 00 00 00 00 00 F0 ED |@..e............|                                                
-------------------------------------------------------------------
[Server] packet : (0x81) S_PONG  Size = 23 
|------------------------------------------------|----------------|
|00 01 02 03 04 05 06 07 08 09 0A 0B 0C 0D 0E 0F |0123456789ABCDEF|
|------------------------------------------------|----------------|
|00 14 81 00 10 8C 14 52 81 5E B0 00 00 00 00 00 |.......R.^......|
|00 11 C3 00 00 00 00                            |.......         |
-------------------------------------------------------------------