
[Client] packet : (0x0B) F_PING  Size = 32 
|------------------------------------------------|----------------|
|00 01 02 03 04 05 06 07 08 09 0A 0B 0C 0D 0E 0F |0123456789ABCDEF|
|------------------------------------------------|----------------|
|00 14 17 11 00 4A 00 00 00 0B 00 17 32 D4 C9 54 |.....J......2..T|
|02 4F F7 C5 04 B5 00 00 00 00 00 00 00 00 3D 1A |.O............=.|                                                
-------------------------------------------------------------------
[Client] packet : (0x16) F_REQUEST_INIT_OBJECT  Size = 16 
|------------------------------------------------|----------------|
|00 01 02 03 04 05 06 07 08 09 0A 0B 0C 0D 0E 0F |0123456789ABCDEF|
|------------------------------------------------|----------------|
|00 04 17 13 00 4A 00 00 00 16 30 79 00 00 F7 73 |.....J....0y...s|                                                
-------------------------------------------------------------------
[Server] packet : (0x81) S_PONG  Size = 23 
|------------------------------------------------|----------------|
|00 01 02 03 04 05 06 07 08 09 0A 0B 0C 0D 0E 0F |0123456789ABCDEF|
|------------------------------------------------|----------------|
|00 14 81 00 17 32 D4 52 87 2D 67 00 00 00 00 00 |.....2.R.-g.....|
|00 17 12 00 00 00 00                            |.......         |
-------------------------------------------------------------------
[Server] packet : (0x72) F_CREATE_MONSTER  Size = 121 
|------------------------------------------------|----------------|
|00 01 02 03 04 05 06 07 08 09 0A 0B 0C 0D 0E 0F |0123456789ABCDEF|
|------------------------------------------------|----------------|
|00 76 72 30 79 00 55 0A 8C 30 CC 00 13 03 55 00 |.vr0y.U..0....U.|
|0D 82 79 00 00 04 BC 32 17 01 00 00 00 00 00 00 |..y....2........|
|00 00 00 03 E8 00 00 00 00 56 03 00 01 00 00 01 |.........V......|
|19 00 4D 75 74 61 74 65 64 20 43 75 6C 74 69 73 |..Mutated Cultis|
|74 5E 6D 00 01 0A 00 00 00 18 15 00 30 79 83 55 |t^m.........0y.U|
|02 79 30 CC 64 00 6C 20 00 00 00 00 30 27 B1 FF |.y0.d.l ....0'..|
|AE FF 06 00 30 79 00 04 00 0B 07 7B 00 16 0C 6F |....0y.....{...o|
|00 19 0C 6E 00 1A 0C 70 00                      |.........       |
-------------------------------------------------------------------
[Client] packet : (0x01) UNKNOWN  Size = 32 
|------------------------------------------------|----------------|
|00 01 02 03 04 05 06 07 08 09 0A 0B 0C 0D 0E 0F |0123456789ABCDEF|
|------------------------------------------------|----------------|
|00 14 17 19 00 4A 00 00 00 01 00 17 33 B0 00 00 |.....J......3...|
|00 00 00 00 00 00 00 00 40 4C 00 00 1A A0 1F 63 |........@L.....c|                                                
-------------------------------------------------------------------
[Server] packet : (0x00) UNKNOWN  Size = 23 
|------------------------------------------------|----------------|
|00 01 02 03 04 05 06 07 08 09 0A 0B 0C 0D 0E 0F |0123456789ABCDEF|
|------------------------------------------------|----------------|
|00 14 00 00 17 33 B0 C1 89 4A 1D 00 00 00 00 00 |.....3...J......|
|00 40 4C 00 00 1A 00                            |.......         |
-------------------------------------------------------------------
[Client] packet : (0x0B) F_PING  Size = 32 
|------------------------------------------------|----------------|
|00 01 02 03 04 05 06 07 08 09 0A 0B 0C 0D 0E 0F |0123456789ABCDEF|
|------------------------------------------------|----------------|
|00 14 17 20 00 4A 00 00 00 0B 00 17 46 5E F6 73 |... .J......F^.s|
|F9 F0 FB 1C D3 5E 00 00 00 00 00 00 00 00 3D 1A |.....^........=.|                                                
-------------------------------------------------------------------
[Server] packet : (0x81) S_PONG  Size = 23 
|------------------------------------------------|----------------|
|00 01 02 03 04 05 06 07 08 09 0A 0B 0C 0D 0E 0F |0123456789ABCDEF|
|------------------------------------------------|----------------|
|00 14 81 00 17 46 5E 52 87 2D 6C 00 00 00 00 00 |.....F^R.-l.....|
|00 17 21 00 00 00 00                            |.......         |
-------------------------------------------------------------------
[Client] packet : (0x5A) F_PING_DATAGRAM  Size = 13 
|------------------------------------------------|----------------|
|00 01 02 03 04 05 06 07 08 09 0A 0B 0C 0D 0E 0F |0123456789ABCDEF|
|------------------------------------------------|----------------|
|00 01 17 21 00 4A FF FF 00 5A 00 B3 17          |.............   |
-------------------------------------------------------------------
[Client] packet : (0x16) F_REQUEST_INIT_OBJECT  Size = 16 
|------------------------------------------------|----------------|
|00 01 02 03 04 05 06 07 08 09 0A 0B 0C 0D 0E 0F |0123456789ABCDEF|
|------------------------------------------------|----------------|
|00 04 17 29 00 4A 00 00 00 16 16 E3 00 00 C6 23 |...).J.........#|                                                
-------------------------------------------------------------------
[Server] packet : (0x72) F_CREATE_MONSTER  Size = 145 
|------------------------------------------------|----------------|
|00 01 02 03 04 05 06 07 08 09 0A 0B 0C 0D 0E 0F |0123456789ABCDEF|
|------------------------------------------------|----------------|
|00 8E 72 16 E3 00 55 03 35 25 AD 00 13 2F EB 00 |..r...U.5%.../..|
|0D AC C7 00 00 04 C2 32 19 41 00 00 00 00 00 00 |.......2.A......|
|00 00 00 03 E8 00 00 00 00 52 4D 00 02 00 00 01 |.........RM.....|
|19 00 54 61 6C 61 62 65 63 6C 61 6E 64 20 46 6F |..Talabecland Fo|
|6F 74 67 75 61 72 64 5E 6D 00 01 0A 00 00 00 1A |otguard^m.......|
|25 00 16 E3 AF EB 2C C7 25 AD 64 01 6C 00 00 00 |%.....,.%.d.l...|
|00 00 55 00 00 52 AD 9D 2D 75 25 6C 16 E3 00 07 |..U..R..-u%l....|
|00 0A 07 3F 01 14 0C 16 1A 1F 00 15 09 C9 00 16 |...?............|
|09 C4 00 18 0C 1B 01 19 0C 1A 1F 1A 00 1C 09 C6 |................|
|00                                              |.               |
-------------------------------------------------------------------
[Client] packet : (0x0B) F_PING  Size = 32 
|------------------------------------------------|----------------|
|00 01 02 03 04 05 06 07 08 09 0A 0B 0C 0D 0E 0F |0123456789ABCDEF|
|------------------------------------------------|----------------|
|00 14 17 2D 00 4A 00 00 00 0B 00 17 59 F0 9D 4C |...-.J......Y..L|
|00 4A 24 22 01 B0 00 00 00 00 00 00 00 00 3D 1A |.J$"..........=.|                                                
-------------------------------------------------------------------
[Server] packet : (0x81) S_PONG  Size = 23 
|------------------------------------------------|----------------|
|00 01 02 03 04 05 06 07 08 09 0A 0B 0C 0D 0E 0F |0123456789ABCDEF|
|------------------------------------------------|----------------|
|00 14 81 00 17 59 F0 52 87 2D 71 00 00 00 00 00 |.....Y.R.-q.....|
|00 17 2E 00 00 00 00                            |.......         |
-------------------------------------------------------------------
[Client] packet : (0x01) UNKNOWN  Size = 32 
|------------------------------------------------|----------------|
|00 01 02 03 04 05 06 07 08 09 0A 0B 0C 0D 0E 0F |0123456789ABCDEF|
|------------------------------------------------|----------------|
|00 14 17 32 00 4A 00 00 00 01 00 17 5C 28 00 00 |...2.J......\(..|
|00 00 00 00 00 00 00 00 40 06 00 00 32 81 00 00 |........@...2...|                                                
-------------------------------------------------------------------
[Server] packet : (0x00) UNKNOWN  Size = 23 
|------------------------------------------------|----------------|
|00 01 02 03 04 05 06 07 08 09 0A 0B 0C 0D 0E 0F |0123456789ABCDEF|
|------------------------------------------------|----------------|
|00 14 00 00 17 5C 28 C1 89 72 7B 00 00 00 00 00 |.....\(..r{.....|
|00 40 06 00 00 32 00                            |.......         |
-------------------------------------------------------------------
[Client] packet : (0x0B) F_PING  Size = 32 
|------------------------------------------------|----------------|
|00 01 02 03 04 05 06 07 08 09 0A 0B 0C 0D 0E 0F |0123456789ABCDEF|
|------------------------------------------------|----------------|
|00 14 17 39 00 4A 00 00 00 0B 00 17 6D 83 A9 17 |...9.J......m...|
|2F F9 BD 3B E7 F4 00 00 00 00 00 00 00 00 3D 1A |/..;..........=.|                                                
-------------------------------------------------------------------
[Server] packet : (0x81) S_PONG  Size = 23 
|------------------------------------------------|----------------|
|00 01 02 03 04 05 06 07 08 09 0A 0B 0C 0D 0E 0F |0123456789ABCDEF|
|------------------------------------------------|----------------|
|00 14 81 00 17 6D 83 52 87 2D 76 00 00 00 00 00 |.....m.R.-v.....|
|00 17 3A 00 00 00 00                            |.......         |
-------------------------------------------------------------------
[Server] packet : (0xD7) F_INIT_EFFECTS  Size = 14 
|------------------------------------------------|----------------|
|00 01 02 03 04 05 06 07 08 09 0A 0B 0C 0D 0E 0F |0123456789ABCDEF|
|------------------------------------------------|----------------|
|00 0B D7 01 02 00 00 09 08 13 00 54 60 00       |..............  |
-------------------------------------------------------------------
[Server] packet : (0xD7) F_INIT_EFFECTS  Size = 20 
|------------------------------------------------|----------------|
|00 01 02 03 04 05 06 07 08 09 0A 0B 0C 0D 0E 0F |0123456789ABCDEF|
|------------------------------------------------|----------------|
|00 11 D7 01 01 AF 31 09 08 12 00 54 60 00 08 09 |......1....T`...|
|01 00 32 00                                     |....            |
-------------------------------------------------------------------
[Client] packet : (0x0B) F_PING  Size = 32 
|------------------------------------------------|----------------|
|00 01 02 03 04 05 06 07 08 09 0A 0B 0C 0D 0E 0F |0123456789ABCDEF|
|------------------------------------------------|----------------|
|00 14 17 43 00 4A 00 00 00 0B 00 17 81 0C 6D 04 |...C.J........m.|
|04 4A 41 40 23 21 00 00 00 00 00 00 00 00 3D 1A |.JA@#!........=.|                                                
-------------------------------------------------------------------
[Server] packet : (0x81) S_PONG  Size = 23 
|------------------------------------------------|----------------|
|00 01 02 03 04 05 06 07 08 09 0A 0B 0C 0D 0E 0F |0123456789ABCDEF|
|------------------------------------------------|----------------|
|00 14 81 00 17 81 0C 52 87 2D 7B 00 00 00 00 00 |.......R.-{.....|
|00 17 44 00 00 00 00                            |.......         |
-------------------------------------------------------------------
[Client] packet : (0x5A) F_PING_DATAGRAM  Size = 13 
|------------------------------------------------|----------------|
|00 01 02 03 04 05 06 07 08 09 0A 0B 0C 0D 0E 0F |0123456789ABCDEF|
|------------------------------------------------|----------------|
|00 01 17 45 00 4A FF FF 00 5A 00 77 30          |.............   |
-------------------------------------------------------------------
[Server] packet : (0xCC) F_CITY_CAPTURE  Size = 19 
|------------------------------------------------|----------------|
|00 01 02 03 04 05 06 07 08 09 0A 0B 0C 0D 0E 0F |0123456789ABCDEF|
|------------------------------------------------|----------------|
|00 10 CC 73 00 00 00 04 00 00 00 01 00 03 00 02 |...s............|
|02 00 00                                        |...             |
-------------------------------------------------------------------
[Server] packet : (0xCC) F_CITY_CAPTURE  Size = 19 
|------------------------------------------------|----------------|
|00 01 02 03 04 05 06 07 08 09 0A 0B 0C 0D 0E 0F |0123456789ABCDEF|
|------------------------------------------------|----------------|
|00 10 CC 75 00 00 00 00 00 00 00 85 0B 00 00 00 |...u............|
|00 00 00                                        |...             |
-------------------------------------------------------------------
[Client] packet : (0x01) UNKNOWN  Size = 32 
|------------------------------------------------|----------------|
|00 01 02 03 04 05 06 07 08 09 0A 0B 0C 0D 0E 0F |0123456789ABCDEF|
|------------------------------------------------|----------------|
|00 14 17 49 00 4A 00 00 00 01 00 17 84 A4 00 00 |...I.J..........|
|00 00 00 00 00 00 00 00 40 49 00 00 3A 25 00 00 |........@I..:%..|                                                
-------------------------------------------------------------------
[Server] packet : (0x00) UNKNOWN  Size = 23 
|------------------------------------------------|----------------|
|00 01 02 03 04 05 06 07 08 09 0A 0B 0C 0D 0E 0F |0123456789ABCDEF|
|------------------------------------------------|----------------|
|00 14 00 00 17 84 A4 C1 89 9A E7 00 00 00 00 00 |................|
|00 40 49 00 00 3A 00                            |.......         |
-------------------------------------------------------------------
[Client] packet : (0x0B) F_PING  Size = 32 
|------------------------------------------------|----------------|
|00 01 02 03 04 05 06 07 08 09 0A 0B 0C 0D 0E 0F |0123456789ABCDEF|
|------------------------------------------------|----------------|
|00 14 17 4F 00 4A 00 00 00 0B 00 17 94 9D D2 78 |...O.J.........x|
|05 85 26 42 B5 9B 00 00 00 00 00 00 00 00 3D 1A |..&B..........=.|                                                
-------------------------------------------------------------------
[Server] packet : (0xA9) F_UPDATE_HOT_SPOT  Size = 406 
|------------------------------------------------|----------------|
|00 01 02 03 04 05 06 07 08 09 0A 0B 0C 0D 0E 0F |0123456789ABCDEF|
|------------------------------------------------|----------------|
|01 93 A9 50 02 00 01 00 00 00 00 02 00 00 00 00 |...P............|
|03 00 00 00 00 04 00 00 00 00 05 00 00 00 00 06 |................|
|00 00 00 00 07 00 00 00 00 08 00 00 00 00 09 00 |................|
|00 00 00 0A 00 00 00 00 0B 00 00 00 00 1A 00 00 |................|
|00 00 1B 00 00 00 00 44 00 00 00 00 46 00 00 00 |.......D....F...|
|00 47 00 00 00 00 4A 00 00 00 00 4B 00 00 00 00 |.G....J....K....|
|58 00 00 00 00 64 00 00 00 00 65 00 00 00 00 66 |X....d....e....f|
|00 00 00 00 67 00 00 00 00 68 00 00 00 00 69 00 |....g....h....i.|
|00 00 00 6A 00 00 00 00 6B 00 00 00 00 6C 00 00 |...j....k....l..|
|00 00 6D 00 00 00 00 6E 00 00 00 00 75 00 00 00 |..m....n....u...|
|00 76 00 00 00 00 78 00 00 00 00 81 00 00 00 00 |.v....x.........|
|90 00 00 00 00 91 00 00 00 00 A1 00 00 00 00 A2 |................|
|00 00 00 00 AF 00 00 00 00 B2 00 00 00 00 BE 00 |................|
|00 00 00 BF 00 00 00 00 C0 00 00 00 00 C1 00 00 |................|
|00 00 C6 00 00 00 00 C8 00 00 00 00 C9 00 00 00 |................|
|00 CA 00 00 00 00 CB 00 00 00 00 CC 00 00 00 00 |................|
|CD 00 00 00 00 CE 00 00 00 00 CF 00 00 00 00 D0 |................|
|00 00 00 00 D1 00 00 00 00 D2 00 00 00 00 D3 00 |................|
|00 00 00 D5 00 00 00 00 D7 00 00 00 00 D8 00 00 |................|
|00 00 D9 00 00 00 00 DC 00 00 00 00 DD 00 00 00 |................|
|00 DE 00 00 00 00 E3 00 00 00 00 E4 00 00 00 00 |................|
|FA 00 00 00 00 FB 00 00 00 00 FC 00 00 00 00 FD |................|
|00 00 00 01 15 00 00 00 01 16 00 00 00 01 18 00 |................|
|00 00 01 1B 00 00 00 01 1C 00 00 00 01 1D 00 00 |................|
|00 01 1F 00 00 00 01 22 00 00 00 01 23 00 00 00 |......."....#...|
|01 24 00 00 00 00                               |......          |
-------------------------------------------------------------------
[Server] packet : (0x81) S_PONG  Size = 23 
|------------------------------------------------|----------------|
|00 01 02 03 04 05 06 07 08 09 0A 0B 0C 0D 0E 0F |0123456789ABCDEF|
|------------------------------------------------|----------------|
|00 14 81 00 17 94 9D 52 87 2D 80 00 00 00 00 00 |.......R.-......|
|00 17 50 00 00 00 00                            |.......         |
-------------------------------------------------------------------
[Client] packet : (0x0B) F_PING  Size = 32 
|------------------------------------------------|----------------|
|00 01 02 03 04 05 06 07 08 09 0A 0B 0C 0D 0E 0F |0123456789ABCDEF|
|------------------------------------------------|----------------|
|00 14 17 5A 00 4A 00 00 00 0B 00 17 A8 2B A0 CF |...Z.J.......+..|
|AB FC 90 B9 C4 D6 00 00 00 00 00 00 00 00 3D 1A |..............=.|                                                
-------------------------------------------------------------------
[Server] packet : (0x81) S_PONG  Size = 23 
|------------------------------------------------|----------------|
|00 01 02 03 04 05 06 07 08 09 0A 0B 0C 0D 0E 0F |0123456789ABCDEF|
|------------------------------------------------|----------------|
|00 14 81 00 17 A8 2B 52 87 2D 85 00 00 00 00 00 |......+R.-......|
|00 17 5B 00 00 00 00                            |.......         |
-------------------------------------------------------------------
[Client] packet : (0x01) UNKNOWN  Size = 32 
|------------------------------------------------|----------------|
|00 01 02 03 04 05 06 07 08 09 0A 0B 0C 0D 0E 0F |0123456789ABCDEF|
|------------------------------------------------|----------------|
|00 14 17 60 00 4A 00 00 00 01 00 17 AD 29 00 00 |...`.J.......)..|
|00 00 00 00 00 00 00 00 10 82 00 00 1F 92 39 B9 |..............9.|                                                
-------------------------------------------------------------------
[Server] packet : (0x00) UNKNOWN  Size = 23 
|------------------------------------------------|----------------|
|00 01 02 03 04 05 06 07 08 09 0A 0B 0C 0D 0E 0F |0123456789ABCDEF|
|------------------------------------------------|----------------|
|00 14 00 00 17 AD 29 C1 89 C3 71 00 00 00 00 00 |......)...q.....|
|00 10 82 00 00 1F 00                            |.......         |
-------------------------------------------------------------------
[Client] packet : (0x0B) F_PING  Size = 32 
|------------------------------------------------|----------------|
|00 01 02 03 04 05 06 07 08 09 0A 0B 0C 0D 0E 0F |0123456789ABCDEF|
|------------------------------------------------|----------------|
|00 14 17 65 00 4A 00 00 00 0B 00 17 BB BB 6D 87 |...e.J........m.|
|AB EA B9 BD E7 7E 00 00 00 00 00 00 00 00 3D 1A |.....~........=.|                                                
-------------------------------------------------------------------
[Server] packet : (0x81) S_PONG  Size = 23 
|------------------------------------------------|----------------|
|00 01 02 03 04 05 06 07 08 09 0A 0B 0C 0D 0E 0F |0123456789ABCDEF|
|------------------------------------------------|----------------|
|00 14 81 00 17 BB BB 52 87 2D 8A 00 00 00 00 00 |.......R.-......|
|00 17 66 00 00 00 00                            |.......         |
-------------------------------------------------------------------
[Client] packet : (0x5A) F_PING_DATAGRAM  Size = 13 
|------------------------------------------------|----------------|
|00 01 02 03 04 05 06 07 08 09 0A 0B 0C 0D 0E 0F |0123456789ABCDEF|
|------------------------------------------------|----------------|
|00 01 17 66 00 4A FF FF 00 5A 00 33 50          |.............   |
-------------------------------------------------------------------
[Server] packet : (0x5E) F_SET_TARGET  Size = 9 
|------------------------------------------------|----------------|
|00 01 02 03 04 05 06 07 08 09 0A 0B 0C 0D 0E 0F |0123456789ABCDEF|
|------------------------------------------------|----------------|
|00 06 5E 18 65 27 F4 02 00                      |.........       |
-------------------------------------------------------------------
[Server] packet : (0x1A) F_CAMPAIGN_STATUS  Size = 159 
|------------------------------------------------|----------------|
|00 01 02 03 04 05 06 07 08 09 0A 0B 0C 0D 0E 0F |0123456789ABCDEF|
|------------------------------------------------|----------------|
|00 9C 1A 00 03 00 69 00 CB 00 00 32 00 00 32 32 |......i....2..22|
|00 32 32 00 64 00 00 21 22 00 32 32 00 32 32 00 |.22.d..!".22.22.|
|32 32 00 64 00 00 32 32 00 32 32 00 64 00 00 00 |22.d..22.22.d...|
|00 00 00 00 00 00 00 00 00 00 00 00 00 00 00 00 |................|
|00 00 00 00 00 00 00 64 62 00 00 32 00 00 32 4B |.......db..2..2K|
|32 00 01 32 18 00 00 00 01 00 00 00 02 01 00 00 |2..2............|
|01 00 00 00 00 00 00 00 00 00 00 00 00 00 00 00 |................|
|00 00 00 00 00 00 00 00 00 00 00 00 00 00 00 00 |................|
|00 03 01 01 01 03 03 01 00 02 03 03 01 01 01 03 |................|
|FF 01 3C 28 0A 3C 00 00 00 03 84 00 00 00 00    |............... |
-------------------------------------------------------------------
[Client] packet : (0x0B) F_PING  Size = 32 
|------------------------------------------------|----------------|
|00 01 02 03 04 05 06 07 08 09 0A 0B 0C 0D 0E 0F |0123456789ABCDEF|
|------------------------------------------------|----------------|
|00 14 17 70 00 4A 00 00 00 0B 00 17 CF 4C 9D 00 |...p.J.......L..|
|C0 0B E1 03 1E 30 00 00 00 00 00 00 00 00 3D 1A |.....0........=.|                                                
-------------------------------------------------------------------
[Server] packet : (0x81) S_PONG  Size = 23 
|------------------------------------------------|----------------|
|00 01 02 03 04 05 06 07 08 09 0A 0B 0C 0D 0E 0F |0123456789ABCDEF|
|------------------------------------------------|----------------|
|00 14 81 00 17 CF 4C 52 87 2D 8F 00 00 00 00 00 |......LR.-......|
|00 17 71 00 00 00 00                            |.......         |
-------------------------------------------------------------------
[Server] packet : (0x6F) F_LOCALIZED_STRING  Size = 58 
|------------------------------------------------|----------------|
|00 01 02 03 04 05 06 07 08 09 0A 0B 0C 0D 0E 0F |0123456789ABCDEF|
|------------------------------------------------|----------------|
|00 37 6F 01 17 00 00 00 44 00 00 00 01 01 00 2A |.7o.....D......*|
|47 75 74 74 65 72 20 52 75 6E 6E 65 72 20 73 70 |Gutter Runner sp|
|6F 74 74 65 64 20 6E 65 61 72 20 46 65 69 74 65 |otted near Feite|
|6E 27 73 20 4C 6F 63 6B 21 00                   |..........      |
-------------------------------------------------------------------
[Server] packet : (0x6F) F_LOCALIZED_STRING  Size = 58 
|------------------------------------------------|----------------|
|00 01 02 03 04 05 06 07 08 09 0A 0B 0C 0D 0E 0F |0123456789ABCDEF|
|------------------------------------------------|----------------|
|00 37 6F 02 11 00 00 00 44 00 00 00 01 01 00 2A |.7o.....D......*|
|47 75 74 74 65 72 20 52 75 6E 6E 65 72 20 73 70 |Gutter Runner sp|
|6F 74 74 65 64 20 6E 65 61 72 20 46 65 69 74 65 |otted near Feite|
|6E 27 73 20 4C 6F 63 6B 21 00                   |..........      |
-------------------------------------------------------------------
[Client] packet : (0xFE) F_PLAY_VOICE_OVER  Size = 16 
|------------------------------------------------|----------------|
|00 01 02 03 04 05 06 07 08 09 0A 0B 0C 0D 0E 0F |0123456789ABCDEF|
|------------------------------------------------|----------------|
|00 04 17 74 00 4A FF FF 00 FE 02 00 00 00 00 00 |...t.J..........|                                                
-------------------------------------------------------------------
[Server] packet : (0x74) UNKNOWN  Size = 44 
|------------------------------------------------|----------------|
|00 01 02 03 04 05 06 07 08 09 0A 0B 0C 0D 0E 0F |0123456789ABCDEF|
|------------------------------------------------|----------------|
|00 29 74 01 01 00 00 00 04 02 00 00 01 00 03 00 |.)t.............|
|00 00 00 00 00 00 01 00 01 00 00 01 F4 00 00 00 |................|
|04 02 00 01 00 00 01 F4 00 00 01 00             |............    |
-------------------------------------------------------------------
[Client] packet : (0x01) UNKNOWN  Size = 32 
|------------------------------------------------|----------------|
|00 01 02 03 04 05 06 07 08 09 0A 0B 0C 0D 0E 0F |0123456789ABCDEF|
|------------------------------------------------|----------------|
|00 14 17 78 00 4A 00 00 00 01 00 17 D5 A6 20 07 |...x.J........ .|
|2A 68 90 38 40 04 00 23 39 F4 08 18 D7 CA 00 00 |*h.8@..#9.......|                                                
-------------------------------------------------------------------
[Server] packet : (0x00) UNKNOWN  Size = 23 
|------------------------------------------------|----------------|
|00 01 02 03 04 05 06 07 08 09 0A 0B 0C 0D 0E 0F |0123456789ABCDEF|
|------------------------------------------------|----------------|
|00 14 00 00 17 D5 A6 C1 89 EB F1 00 00 00 00 00 |................|
|23 39 F4 08 18 D7 00                            |.......         |
-------------------------------------------------------------------
[Client] packet : (0x0B) F_PING  Size = 32 
|------------------------------------------------|----------------|
|00 01 02 03 04 05 06 07 08 09 0A 0B 0C 0D 0E 0F |0123456789ABCDEF|
|------------------------------------------------|----------------|
|00 14 17 7C 00 4A 00 00 00 0B 00 17 E2 DF 35 FF |...|.J........5.|
|2F 6A 91 FB C6 8F 00 00 00 00 00 00 00 00 3D 1A |/j............=.|                                                
-------------------------------------------------------------------
[Server] packet : (0x81) S_PONG  Size = 23 
|------------------------------------------------|----------------|
|00 01 02 03 04 05 06 07 08 09 0A 0B 0C 0D 0E 0F |0123456789ABCDEF|
|------------------------------------------------|----------------|
|00 14 81 00 17 E2 DF 52 87 2D 94 00 00 00 00 00 |.......R.-......|
|00 17 7D 00 00 00 00                            |.......         |
-------------------------------------------------------------------
[Server] packet : (0xDA) F_USE_ABILITY  Size = 23 
|------------------------------------------------|----------------|
|00 01 02 03 04 05 06 07 08 09 0A 0B 0C 0D 0E 0F |0123456789ABCDEF|
|------------------------------------------------|----------------|
|00 14 DA 00 00 3B 2A 18 65 13 80 18 65 01 01 00 |.....;*.e...e...|
|00 00 00 00 00 00 00                            |.......         |
-------------------------------------------------------------------
[Server] packet : (0x71) F_CREATE_STATIC  Size = 91 
|------------------------------------------------|----------------|
|00 01 02 03 04 05 06 07 08 09 0A 0B 0C 0D 0E 0F |0123456789ABCDEF|
|------------------------------------------------|----------------|
|00 58 71 0C 2D 00 00 0D F9 31 C4 00 13 14 14 00 |.Xq.-....1......|
|0D 9C 27 03 5F 1E 00 00 00 00 00 00 00 00 00 00 |..'._...........|
|00 00 64 C1 89 F3 97 00 00 00 00 2E 43 6F 6D 62 |..d.........Comb|
|61 74 20 61 6E 64 20 43 61 72 65 65 72 20 55 53 |at and Career US|
|45 3A 20 47 72 6F 75 6E 64 20 54 61 72 67 65 74 |E: Ground Target|
|20 69 6E 76 69 73 69 62 6C 65 00                |...........     |
-------------------------------------------------------------------
[Server] packet : (0x72) F_CREATE_MONSTER  Size = 114 
|------------------------------------------------|----------------|
|00 01 02 03 04 05 06 07 08 09 0A 0B 0C 0D 0E 0F |0123456789ABCDEF|
|------------------------------------------------|----------------|
|00 6F 72 17 78 00 00 07 F9 31 C4 00 13 14 15 00 |.or.x....1......|
|0D 9C 8B 00 00 03 E7 32 01 80 00 00 00 00 00 00 |.......2........|
|00 09 00 00 00 00 00 00 00 00 00 00 00 00 00 01 |................|
|19 00 49 6E 69 76 69 73 62 6C 65 20 4D 6F 62 20 |..Inivisble Mob |
|66 6F 72 20 57 61 72 20 41 65 67 69 73 00 00 00 |for War Aegis...|
|00 03 00 01 0A 00 18 65 12 05 00 17 78 94 15 1C |.......e....x...|
|8B 31 C4 64 00 6C 04 00 00 00 03 F9 07 17 78 00 |.1.d.l........x.|
|00 00                                           |..              |
-------------------------------------------------------------------
[Server] packet : (0x6F) F_LOCALIZED_STRING  Size = 45 
|------------------------------------------------|----------------|
|00 01 02 03 04 05 06 07 08 09 0A 0B 0C 0D 0E 0F |0123456789ABCDEF|
|------------------------------------------------|----------------|
|00 2A 6F 02 00 00 00 00 44 00 00 00 01 01 00 1D |.*o.....D.......|
|48 65 78 74 72 61 5E 4D 20 73 61 79 73 3A 20 44 |Hextra^M says: D|
|6F 75 62 6C 65 20 41 65 67 69 73 21 00          |.............   |
-------------------------------------------------------------------
[Server] packet : (0xD7) F_INIT_EFFECTS  Size = 24 
|------------------------------------------------|----------------|
|00 01 02 03 04 05 06 07 08 09 0A 0B 0C 0D 0E 0F |0123456789ABCDEF|
|------------------------------------------------|----------------|
|00 15 D7 01 01 00 00 09 08 14 00 2A 3B 78 65 18 |...........*;xe.|
|03 02 28 03 28 04 28 00                         |........        |
-------------------------------------------------------------------
[Server] packet : (0xDA) F_USE_ABILITY  Size = 23 
|------------------------------------------------|----------------|
|00 01 02 03 04 05 06 07 08 09 0A 0B 0C 0D 0E 0F |0123456789ABCDEF|
|------------------------------------------------|----------------|
|00 14 DA 00 00 3B 2A 18 65 13 80 18 65 02 01 00 |.....;*.e...e...|
|00 00 00 00 00 00 00                            |.......         |
-------------------------------------------------------------------
[Server] packet : (0xDA) F_USE_ABILITY  Size = 23 
|------------------------------------------------|----------------|
|00 01 02 03 04 05 06 07 08 09 0A 0B 0C 0D 0E 0F |0123456789ABCDEF|
|------------------------------------------------|----------------|
|00 14 DA 00 00 3B 2B 18 65 13 80 18 65 01 01 00 |.....;+.e...e...|
|00 00 00 00 00 00 00                            |.......         |
-------------------------------------------------------------------
[Server] packet : (0x71) F_CREATE_STATIC  Size = 91 
|------------------------------------------------|----------------|
|00 01 02 03 04 05 06 07 08 09 0A 0B 0C 0D 0E 0F |0123456789ABCDEF|
|------------------------------------------------|----------------|
|00 58 71 18 BD 00 00 0D F9 31 C4 00 13 14 14 00 |.Xq......1......|
|0D 9C 27 03 5F 1E 00 00 00 00 00 00 00 00 00 00 |..'._...........|
|00 00 64 C1 89 F5 CD 00 00 00 00 2E 43 6F 6D 62 |..d.........Comb|
|61 74 20 61 6E 64 20 43 61 72 65 65 72 20 55 53 |at and Career US|
|45 3A 20 47 72 6F 75 6E 64 20 54 61 72 67 65 74 |E: Ground Target|
|20 69 6E 76 69 73 69 62 6C 65 00                |...........     |
-------------------------------------------------------------------
[Server] packet : (0xD7) F_INIT_EFFECTS  Size = 22 
|------------------------------------------------|----------------|
|00 01 02 03 04 05 06 07 08 09 0A 0B 0C 0D 0E 0F |0123456789ABCDEF|
|------------------------------------------------|----------------|
|00 13 D7 01 01 00 00 09 08 0C 00 2B 3B 78 65 18 |...........+;xe.|
|02 02 14 03 14 00                               |......          |
-------------------------------------------------------------------
[Server] packet : (0xDA) F_USE_ABILITY  Size = 23 
|------------------------------------------------|----------------|
|00 01 02 03 04 05 06 07 08 09 0A 0B 0C 0D 0E 0F |0123456789ABCDEF|
|------------------------------------------------|----------------|
|00 14 DA 00 00 3B 2B 18 65 13 80 18 65 02 01 00 |.....;+.e...e...|
|00 00 00 00 00 00 00                            |.......         |
-------------------------------------------------------------------
[Server] packet : (0xD7) F_INIT_EFFECTS  Size = 14 
|------------------------------------------------|----------------|
|00 01 02 03 04 05 06 07 08 09 0A 0B 0C 0D 0E 0F |0123456789ABCDEF|
|------------------------------------------------|----------------|
|00 0B D7 01 02 00 00 09 08 12 00 54 60 00       |..............  |
-------------------------------------------------------------------
[Server] packet : (0xD7) F_INIT_EFFECTS  Size = 20 
|------------------------------------------------|----------------|
|00 01 02 03 04 05 06 07 08 09 0A 0B 0C 0D 0E 0F |0123456789ABCDEF|
|------------------------------------------------|----------------|
|00 11 D7 01 01 AF 31 09 08 0F 00 54 60 00 08 09 |......1....T`...|
|01 00 32 00                                     |....            |
-------------------------------------------------------------------
[Client] packet : (0x0B) F_PING  Size = 32 
|------------------------------------------------|----------------|
|00 01 02 03 04 05 06 07 08 09 0A 0B 0C 0D 0E 0F |0123456789ABCDEF|
|------------------------------------------------|----------------|
|00 14 17 87 00 4A 00 00 00 0B 00 17 F6 75 D0 E8 |.....J.......u..|
|85 00 6B 03 98 40 00 00 00 00 00 00 00 00 3D 1A |..k..@........=.|                                                
-------------------------------------------------------------------
[Server] packet : (0x81) S_PONG  Size = 23 
|------------------------------------------------|----------------|
|00 01 02 03 04 05 06 07 08 09 0A 0B 0C 0D 0E 0F |0123456789ABCDEF|
|------------------------------------------------|----------------|
|00 14 81 00 17 F6 75 52 87 2D 99 00 00 00 00 00 |......uR.-......|
|00 17 88 00 00 00 00                            |.......         |
-------------------------------------------------------------------
[Client] packet : (0x5A) F_PING_DATAGRAM  Size = 13 
|------------------------------------------------|----------------|
|00 01 02 03 04 05 06 07 08 09 0A 0B 0C 0D 0E 0F |0123456789ABCDEF|
|------------------------------------------------|----------------|
|00 01 17 88 00 4A FF FF 00 5A 00 0A 58          |.............   |
-------------------------------------------------------------------
[Server] packet : (0xC1) F_OBJECTIVE_INFO  Size = 131 
|------------------------------------------------|----------------|
|00 01 02 03 04 05 06 07 08 09 0A 0B 0C 0D 0E 0F |0123456789ABCDEF|
|------------------------------------------------|----------------|
|00 80 C1 00 00 02 58 00 02 01 00 00 10 50 61 73 |......X......Pas|
|73 77 61 74 63 68 20 43 61 73 74 6C 65 02 00 00 |swatch Castle...|
|32 6B 00 00 FF 00 17 43 61 70 74 75 72 65 64 20 |2k.....Captured |
|62 79 20 44 65 73 74 72 75 63 74 69 6F 6E 00 32 |by Destruction.2|
|50 61 73 73 77 61 74 63 68 20 43 61 73 74 6C 65 |Passwatch Castle|
|20 68 61 73 20 62 65 65 6E 20 63 61 70 74 75 72 | has been captur|
|65 64 20 62 79 20 44 65 73 74 72 75 63 74 69 6F |ed by Destructio|
|6E 21 00 00 00 00 00 00 00 00 00 00 00 00 70 03 |n!............p.|
|00 00 00                                        |...             |
-------------------------------------------------------------------
[Server] packet : (0xC5) F_OBJECTIVE_STATE  Size = 19 
|------------------------------------------------|----------------|
|00 01 02 03 04 05 06 07 08 09 0A 0B 0C 0D 0E 0F |0123456789ABCDEF|
|------------------------------------------------|----------------|
|00 10 C5 00 00 02 58 FF FF FF FF FF FF 00 00 02 |......X.........|
|03 00 00                                        |...             |
-------------------------------------------------------------------
[Server] packet : (0xC6) F_REALM_BONUS  Size = 6 
|------------------------------------------------|----------------|
|00 01 02 03 04 05 06 07 08 09 0A 0B 0C 0D 0E 0F |0123456789ABCDEF|
|------------------------------------------------|----------------|
|00 03 C6 02 14 00                               |......          |
-------------------------------------------------------------------
[Server] packet : (0xC2) F_OBJECTIVE_UPDATE  Size = 11 
|------------------------------------------------|----------------|
|00 01 02 03 04 05 06 07 08 09 0A 0B 0C 0D 0E 0F |0123456789ABCDEF|
|------------------------------------------------|----------------|
|00 08 C2 00 00 02 58 09 00 00 00                |...........     |
-------------------------------------------------------------------
[Server] packet : (0x1A) F_CAMPAIGN_STATUS  Size = 159 
|------------------------------------------------|----------------|
|00 01 02 03 04 05 06 07 08 09 0A 0B 0C 0D 0E 0F |0123456789ABCDEF|
|------------------------------------------------|----------------|
|00 9C 1A 00 03 00 69 00 CB 00 00 32 00 00 32 32 |......i....2..22|
|00 32 32 00 64 00 00 21 22 00 32 32 00 00 64 00 |.22.d..!".22..d.|
|32 32 00 64 00 00 32 32 00 32 32 00 64 00 00 00 |22.d..22.22.d...|
|00 00 00 00 00 00 00 00 00 00 00 00 08 90 08 90 |................|
|08 90 08 90 08 90 00 64 62 00 00 00 00 00 00 4B |.......db......K|
|64 00 01 64 18 00 00 00 01 00 00 00 02 01 00 00 |d..d............|
|01 00 00 00 00 00 00 00 00 00 00 00 00 00 00 00 |................|
|00 00 00 00 00 00 00 00 00 00 00 00 00 00 00 00 |................|
|00 03 01 01 01 03 03 01 00 02 03 03 01 01 01 03 |................|
|FF 01 3C 28 0A 3C 00 00 00 03 84 00 00 00 00    |............... |
-------------------------------------------------------------------
[Server] packet : (0xCC) F_CITY_CAPTURE  Size = 19 
|------------------------------------------------|----------------|
|00 01 02 03 04 05 06 07 08 09 0A 0B 0C 0D 0E 0F |0123456789ABCDEF|
|------------------------------------------------|----------------|
|00 10 CC 73 00 00 00 04 00 00 00 01 00 03 00 02 |...s............|
|02 00 00                                        |...             |
-------------------------------------------------------------------
[Server] packet : (0xCC) F_CITY_CAPTURE  Size = 19 
|------------------------------------------------|----------------|
|00 01 02 03 04 05 06 07 08 09 0A 0B 0C 0D 0E 0F |0123456789ABCDEF|
|------------------------------------------------|----------------|
|00 10 CC 75 00 00 00 00 00 00 00 66 0B 00 00 00 |...u.......f....|
|00 00 00                                        |...             |
-------------------------------------------------------------------
[Server] packet : (0x0A) F_OBJECT_DEATH  Size = 15 
|------------------------------------------------|----------------|
|00 01 02 03 04 05 06 07 08 09 0A 0B 0C 0D 0E 0F |0123456789ABCDEF|
|------------------------------------------------|----------------|
|00 0C 0A 2C D6 00 00 00 00 00 00 00 00 00 00    |............... |
-------------------------------------------------------------------
[Server] packet : (0x0A) F_OBJECT_DEATH  Size = 15 
|------------------------------------------------|----------------|
|00 01 02 03 04 05 06 07 08 09 0A 0B 0C 0D 0E 0F |0123456789ABCDEF|
|------------------------------------------------|----------------|
|00 0C 0A 19 6E 00 00 00 00 00 00 00 00 00 00    |............... |
-------------------------------------------------------------------
[Server] packet : (0x0A) F_OBJECT_DEATH  Size = 15 
|------------------------------------------------|----------------|
|00 01 02 03 04 05 06 07 08 09 0A 0B 0C 0D 0E 0F |0123456789ABCDEF|
|------------------------------------------------|----------------|
|00 0C 0A 0D C7 00 00 00 00 00 00 00 00 00 00    |............... |
-------------------------------------------------------------------
[Server] packet : (0x0A) F_OBJECT_DEATH  Size = 15 
|------------------------------------------------|----------------|
|00 01 02 03 04 05 06 07 08 09 0A 0B 0C 0D 0E 0F |0123456789ABCDEF|
|------------------------------------------------|----------------|
|00 0C 0A 0D 91 00 00 00 00 00 00 00 00 00 00    |............... |
-------------------------------------------------------------------
[Server] packet : (0x0A) F_OBJECT_DEATH  Size = 15 
|------------------------------------------------|----------------|
|00 01 02 03 04 05 06 07 08 09 0A 0B 0C 0D 0E 0F |0123456789ABCDEF|
|------------------------------------------------|----------------|
|00 0C 0A 28 E8 00 00 00 00 00 00 00 00 00 00    |............... |
-------------------------------------------------------------------
[Client] packet : (0x01) UNKNOWN  Size = 32 
|------------------------------------------------|----------------|
|00 01 02 03 04 05 06 07 08 09 0A 0B 0C 0D 0E 0F |0123456789ABCDEF|
|------------------------------------------------|----------------|
|00 14 17 8E 00 4A 00 00 00 01 00 17 FE 22 20 07 |.....J......." .|
|2A 68 90 38 40 04 00 23 7F B8 08 18 EF 5E 00 00 |*h.8@..#.....^..|                                                
-------------------------------------------------------------------
[Server] packet : (0x00) UNKNOWN  Size = 23 
|------------------------------------------------|----------------|
|00 01 02 03 04 05 06 07 08 09 0A 0B 0C 0D 0E 0F |0123456789ABCDEF|
|------------------------------------------------|----------------|
|00 14 00 00 17 FE 22 C1 8A 14 6D 00 00 00 00 00 |......"...m.....|
|23 7F B8 08 18 EF 00                            |.......         |
-------------------------------------------------------------------
[Client] packet : (0x16) F_REQUEST_INIT_OBJECT  Size = 16 
|------------------------------------------------|----------------|
|00 01 02 03 04 05 06 07 08 09 0A 0B 0C 0D 0E 0F |0123456789ABCDEF|
|------------------------------------------------|----------------|
|00 04 17 90 00 4A 00 00 00 16 16 E3 00 00 16 00 |.....J..........|                                                
-------------------------------------------------------------------
[Server] packet : (0x72) F_CREATE_MONSTER  Size = 145 
|------------------------------------------------|----------------|
|00 01 02 03 04 05 06 07 08 09 0A 0B 0C 0D 0E 0F |0123456789ABCDEF|
|------------------------------------------------|----------------|
|00 8E 72 16 E3 00 55 05 34 25 D6 00 13 2F FF 00 |..r...U.4%.../..|
|0D AB D4 00 00 04 C2 32 19 41 00 00 00 00 00 00 |.......2.A......|
|00 00 00 03 E8 00 00 00 00 52 4D 00 02 00 00 01 |.........RM.....|
|19 00 54 61 6C 61 62 65 63 6C 61 6E 64 20 46 6F |..Talabecland Fo|
|6F 74 67 75 61 72 64 5E 6D 00 01 0A 00 00 00 1A |otguard^m.......|
|25 00 16 E3 AF FF 2B D4 25 D6 64 01 6C 00 00 00 |%.....+.%.d.l...|
|00 00 55 00 00 05 AD 4E 2A 75 26 6C 16 E3 00 07 |..U....N*u&l....|
|00 0A 07 3F 01 14 0C 16 1A 1F 00 15 09 C9 00 16 |...?............|
|09 C4 00 18 0C 1B 01 19 0C 1A 1F 1A 00 1C 09 C6 |................|
|00                                              |.               |
-------------------------------------------------------------------
[Client] packet : (0x0B) F_PING  Size = 32 
|------------------------------------------------|----------------|
|00 01 02 03 04 05 06 07 08 09 0A 0B 0C 0D 0E 0F |0123456789ABCDEF|
|------------------------------------------------|----------------|
|00 14 17 93 00 4A 00 00 00 0B 00 18 0A 02 7B B3 |.....J........{.|
|FB F6 BC 98 C8 6F 00 00 00 00 00 00 00 00 3D 1A |.....o........=.|                                                
-------------------------------------------------------------------
[Server] packet : (0x81) S_PONG  Size = 23 
|------------------------------------------------|----------------|
|00 01 02 03 04 05 06 07 08 09 0A 0B 0C 0D 0E 0F |0123456789ABCDEF|
|------------------------------------------------|----------------|
|00 14 81 00 18 0A 02 52 87 2D 9E 00 00 00 00 00 |.......R.-......|
|00 17 94 00 00 00 00                            |.......         |
-------------------------------------------------------------------
[Client] packet : (0x0B) F_PING  Size = 32 
|------------------------------------------------|----------------|
|00 01 02 03 04 05 06 07 08 09 0A 0B 0C 0D 0E 0F |0123456789ABCDEF|
|------------------------------------------------|----------------|
|00 14 17 9E 00 4A 00 00 00 0B 00 18 1D 8B A0 57 |.....J.........W|
|7F 6F D0 3B CC 4F 00 00 00 00 00 00 00 00 3D 1A |.o.;.O........=.|                                                
-------------------------------------------------------------------
[Server] packet : (0x81) S_PONG  Size = 23 
|------------------------------------------------|----------------|
|00 01 02 03 04 05 06 07 08 09 0A 0B 0C 0D 0E 0F |0123456789ABCDEF|
|------------------------------------------------|----------------|
|00 14 81 00 18 1D 8B 52 87 2D A3 00 00 00 00 00 |.......R.-......|
|00 17 9F 00 00 00 00                            |.......         |
-------------------------------------------------------------------
[Client] packet : (0x01) UNKNOWN  Size = 32 
|------------------------------------------------|----------------|
|00 01 02 03 04 05 06 07 08 09 0A 0B 0C 0D 0E 0F |0123456789ABCDEF|
|------------------------------------------------|----------------|
|00 14 17 A6 00 4A 00 00 00 01 00 18 26 8A 20 07 |.....J......&. .|
|2A 68 90 38 40 04 00 23 79 BD 08 18 E7 7F 3D 50 |*h.8@..#y.....=P|                                                
-------------------------------------------------------------------
[Server] packet : (0x00) UNKNOWN  Size = 23 
|------------------------------------------------|----------------|
|00 01 02 03 04 05 06 07 08 09 0A 0B 0C 0D 0E 0F |0123456789ABCDEF|
|------------------------------------------------|----------------|
|00 14 00 00 18 26 8A C1 8A 3C C9 00 00 00 00 00 |.....&...<......|
|23 79 BD 08 18 E7 00                            |.......         |
-------------------------------------------------------------------
[Client] packet : (0x0B) F_PING  Size = 32 
|------------------------------------------------|----------------|
|00 01 02 03 04 05 06 07 08 09 0A 0B 0C 0D 0E 0F |0123456789ABCDEF|
|------------------------------------------------|----------------|
|00 14 17 A9 00 4A 00 00 00 0B 00 18 31 1C 1C D0 |.....J......1...|
|42 41 64 A7 2E 24 00 00 00 00 00 00 00 00 3D 1A |BAd..$........=.|                                                
-------------------------------------------------------------------
[Server] packet : (0x81) S_PONG  Size = 23 
|------------------------------------------------|----------------|
|00 01 02 03 04 05 06 07 08 09 0A 0B 0C 0D 0E 0F |0123456789ABCDEF|
|------------------------------------------------|----------------|
|00 14 81 00 18 31 1C 52 87 2D A8 00 00 00 00 00 |.....1.R.-......|
|00 17 AA 00 00 00 00                            |.......         |
-------------------------------------------------------------------
[Client] packet : (0x5A) F_PING_DATAGRAM  Size = 13 
|------------------------------------------------|----------------|
|00 01 02 03 04 05 06 07 08 09 0A 0B 0C 0D 0E 0F |0123456789ABCDEF|
|------------------------------------------------|----------------|
|00 01 17 AB 00 4A FF FF 00 5A 00 D8 68          |.............   |
-------------------------------------------------------------------
[Server] packet : (0x5E) F_SET_TARGET  Size = 9 
|------------------------------------------------|----------------|
|00 01 02 03 04 05 06 07 08 09 0A 0B 0C 0D 0E 0F |0123456789ABCDEF|
|------------------------------------------------|----------------|
|00 06 5E 09 08 27 F4 02 00                      |.........       |
-------------------------------------------------------------------
[Client] packet : (0x0B) F_PING  Size = 32 
|------------------------------------------------|----------------|
|00 01 02 03 04 05 06 07 08 09 0A 0B 0C 0D 0E 0F |0123456789ABCDEF|
|------------------------------------------------|----------------|
|00 14 17 B5 00 4A 00 00 00 0B 00 18 44 A5 9B 18 |.....J......D...|
|C1 00 27 47 8E E9 00 00 00 00 00 00 00 00 3D 1A |..'G..........=.|                                                
-------------------------------------------------------------------
[Server] packet : (0x81) S_PONG  Size = 23 
|------------------------------------------------|----------------|
|00 01 02 03 04 05 06 07 08 09 0A 0B 0C 0D 0E 0F |0123456789ABCDEF|
|------------------------------------------------|----------------|
|00 14 81 00 18 44 A5 52 87 2D AD 00 00 00 00 00 |.....D.R.-......|
|00 17 B6 00 00 00 00                            |.......         |
-------------------------------------------------------------------
[Server] packet : (0x5E) F_SET_TARGET  Size = 9 
|------------------------------------------------|----------------|
|00 01 02 03 04 05 06 07 08 09 0A 0B 0C 0D 0E 0F |0123456789ABCDEF|
|------------------------------------------------|----------------|
|00 06 5E 27 F4 27 F4 02 00                      |.........       |
-------------------------------------------------------------------
[Client] packet : (0x01) UNKNOWN  Size = 32 
|------------------------------------------------|----------------|
|00 01 02 03 04 05 06 07 08 09 0A 0B 0C 0D 0E 0F |0123456789ABCDEF|
|------------------------------------------------|----------------|
|00 14 17 BE 00 4A 00 00 00 01 00 18 4F 0B 00 23 |.....J......O..#|
|39 B0 08 18 C0 4A 20 07 2E 78 90 38 64 24 00 00 |9....J ..x.8d$..|                                                
-------------------------------------------------------------------
[Server] packet : (0x00) UNKNOWN  Size = 23 
|------------------------------------------------|----------------|
|00 01 02 03 04 05 06 07 08 09 0A 0B 0C 0D 0E 0F |0123456789ABCDEF|
|------------------------------------------------|----------------|
|00 14 00 00 18 4F 0B C1 8A 65 44 00 00 00 00 20 |.....O...eD.... |
|07 2E 78 90 38 64 00                            |.......         |
-------------------------------------------------------------------
[Client] packet : (0x0B) F_PING  Size = 32 
|------------------------------------------------|----------------|
|00 01 02 03 04 05 06 07 08 09 0A 0B 0C 0D 0E 0F |0123456789ABCDEF|
|------------------------------------------------|----------------|
|00 14 17 C1 00 4A 00 00 00 0B 00 18 58 2F 32 3F |.....J......X/2?|
|2A EF FC BC C3 97 00 00 00 00 00 00 00 00 3D 1A |*.............=.|                                                
-------------------------------------------------------------------
[Server] packet : (0x81) S_PONG  Size = 23 
|------------------------------------------------|----------------|
|00 01 02 03 04 05 06 07 08 09 0A 0B 0C 0D 0E 0F |0123456789ABCDEF|
|------------------------------------------------|----------------|
|00 14 81 00 18 58 2F 52 87 2D B2 00 00 00 00 00 |.....X/R.-......|
|00 17 C2 00 00 00 00                            |.......         |
-------------------------------------------------------------------
[Server] packet : (0xDA) F_USE_ABILITY  Size = 23 
|------------------------------------------------|----------------|
|00 01 02 03 04 05 06 07 08 09 0A 0B 0C 0D 0E 0F |0123456789ABCDEF|
|------------------------------------------------|----------------|
|00 14 DA 00 00 20 7E 18 65 06 A9 18 65 01 01 00 |..... ~.e...e...|
|00 00 00 58 00 00 00                            |.......         |
-------------------------------------------------------------------
[Server] packet : (0xDA) F_USE_ABILITY  Size = 23 
|------------------------------------------------|----------------|
|00 01 02 03 04 05 06 07 08 09 0A 0B 0C 0D 0E 0F |0123456789ABCDEF|
|------------------------------------------------|----------------|
|00 14 DA 00 00 20 7E 18 65 06 A9 18 65 02 01 00 |..... ~.e...e...|
|00 00 00 58 00 00 00                            |.......         |
-------------------------------------------------------------------
[Server] packet : (0xD7) F_INIT_EFFECTS  Size = 14 
|------------------------------------------------|----------------|
|00 01 02 03 04 05 06 07 08 09 0A 0B 0C 0D 0E 0F |0123456789ABCDEF|
|------------------------------------------------|----------------|
|00 0B D7 01 02 00 00 09 08 0F 00 54 60 00       |..............  |
-------------------------------------------------------------------
[Server] packet : (0xD7) F_INIT_EFFECTS  Size = 20 
|------------------------------------------------|----------------|
|00 01 02 03 04 05 06 07 08 09 0A 0B 0C 0D 0E 0F |0123456789ABCDEF|
|------------------------------------------------|----------------|
|00 11 D7 01 01 AF 31 09 08 13 00 54 60 00 08 09 |......1....T`...|
|01 00 32 00                                     |....            |
-------------------------------------------------------------------
[Client] packet : (0x0B) F_PING  Size = 32 
|------------------------------------------------|----------------|
|00 01 02 03 04 05 06 07 08 09 0A 0B 0C 0D 0E 0F |0123456789ABCDEF|
|------------------------------------------------|----------------|
|00 14 17 CB 00 4A 00 00 00 0B 00 18 6B BC DB 00 |.....J......k...|
|C2 42 40 E1 2C 80 00 00 00 00 00 00 00 00 3D 1A |.B@.,.........=.|                                                
-------------------------------------------------------------------
[Server] packet : (0x81) S_PONG  Size = 23 
|------------------------------------------------|----------------|
|00 01 02 03 04 05 06 07 08 09 0A 0B 0C 0D 0E 0F |0123456789ABCDEF|
|------------------------------------------------|----------------|
|00 14 81 00 18 6B BC 52 87 2D B7 00 00 00 00 00 |.....k.R.-......|
|00 17 CC 00 00 00 00                            |.......         |
-------------------------------------------------------------------
[Client] packet : (0x5A) F_PING_DATAGRAM  Size = 13 
|------------------------------------------------|----------------|
|00 01 02 03 04 05 06 07 08 09 0A 0B 0C 0D 0E 0F |0123456789ABCDEF|
|------------------------------------------------|----------------|
|00 01 17 CD 00 4A FF FF 00 5A 00 9D 80          |.............   |
-------------------------------------------------------------------
[Server] packet : (0xCC) F_CITY_CAPTURE  Size = 19 
|------------------------------------------------|----------------|
|00 01 02 03 04 05 06 07 08 09 0A 0B 0C 0D 0E 0F |0123456789ABCDEF|
|------------------------------------------------|----------------|
|00 10 CC 73 00 00 00 04 00 00 00 01 00 03 00 02 |...s............|
|02 00 00                                        |...             |
-------------------------------------------------------------------
[Server] packet : (0xCC) F_CITY_CAPTURE  Size = 19 
|------------------------------------------------|----------------|
|00 01 02 03 04 05 06 07 08 09 0A 0B 0C 0D 0E 0F |0123456789ABCDEF|
|------------------------------------------------|----------------|
|00 10 CC 75 00 00 00 00 00 00 00 47 0B 00 00 00 |...u.......G....|
|00 00 00                                        |...             |
-------------------------------------------------------------------
[Client] packet : (0x01) UNKNOWN  Size = 32 
|------------------------------------------------|----------------|
|00 01 02 03 04 05 06 07 08 09 0A 0B 0C 0D 0E 0F |0123456789ABCDEF|
|------------------------------------------------|----------------|
|00 14 17 D5 00 4A 00 00 00 01 00 18 77 6D 00 00 |.....J......wm..|
|00 00 00 00 00 00 00 00 05 92 00 00 19 80 00 00 |................|                                                
-------------------------------------------------------------------
[Server] packet : (0x00) UNKNOWN  Size = 23 
|------------------------------------------------|----------------|
|00 01 02 03 04 05 06 07 08 09 0A 0B 0C 0D 0E 0F |0123456789ABCDEF|
|------------------------------------------------|----------------|
|00 14 00 00 18 77 6D C1 8A 8D B1 00 00 00 00 00 |.....wm.........|
|00 05 92 00 00 19 00                            |.......         |
-------------------------------------------------------------------
[Client] packet : (0x0B) F_PING  Size = 32 
|------------------------------------------------|----------------|
|00 01 02 03 04 05 06 07 08 09 0A 0B 0C 0D 0E 0F |0123456789ABCDEF|
|------------------------------------------------|----------------|
|00 14 17 D7 00 4A 00 00 00 0B 00 18 7F 4F AC AF |.....J.......O..|
|3B FB F4 3D F0 CE 00 00 00 00 00 00 00 00 3D 1A |;..=..........=.|                                                
-------------------------------------------------------------------
[Server] packet : (0x81) S_PONG  Size = 23 
|------------------------------------------------|----------------|
|00 01 02 03 04 05 06 07 08 09 0A 0B 0C 0D 0E 0F |0123456789ABCDEF|
|------------------------------------------------|----------------|
|00 14 81 00 18 7F 4F 52 87 2D BC 00 00 00 00 00 |......OR.-......|
|00 17 D8 00 00 00 00                            |.......         |
-------------------------------------------------------------------
[Client] packet : (0x0B) F_PING  Size = 32 
|------------------------------------------------|----------------|
|00 01 02 03 04 05 06 07 08 09 0A 0B 0C 0D 0E 0F |0123456789ABCDEF|
|------------------------------------------------|----------------|
|00 14 17 E1 00 4A 00 00 00 0B 00 18 92 DE AD 63 |.....J.........c|
|3B FF 58 5D F0 DA 00 00 00 00 00 00 00 00 3D 1A |;.X]..........=.|                                                
-------------------------------------------------------------------
[Server] packet : (0x81) S_PONG  Size = 23 
|------------------------------------------------|----------------|
|00 01 02 03 04 05 06 07 08 09 0A 0B 0C 0D 0E 0F |0123456789ABCDEF|
|------------------------------------------------|----------------|
|00 14 81 00 18 92 DE 52 87 2D C1 00 00 00 00 00 |.......R.-......|
|00 17 E2 00 00 00 00                            |.......         |
-------------------------------------------------------------------
[Server] packet : (0x61) F_PLAY_SOUND  Size = 16 
|------------------------------------------------|----------------|
|00 01 02 03 04 05 06 07 08 09 0A 0B 0C 0D 0E 0F |0123456789ABCDEF|
|------------------------------------------------|----------------|
|00 0D 61 00 04 29 00 00 00 00 00 00 00 00 00 00 |..a..)..........|                                                
-------------------------------------------------------------------
[Server] packet : (0x1A) F_CAMPAIGN_STATUS  Size = 159 
|------------------------------------------------|----------------|
|00 01 02 03 04 05 06 07 08 09 0A 0B 0C 0D 0E 0F |0123456789ABCDEF|
|------------------------------------------------|----------------|
|00 9C 1A 00 03 00 69 00 CB 00 00 32 00 00 32 32 |......i....2..22|
|00 32 32 00 64 00 00 21 22 00 32 32 00 00 64 00 |.22.d..!".22..d.|
|32 32 00 64 00 00 32 32 00 32 32 00 64 00 00 00 |22.d..22.22.d...|
|00 00 00 00 00 00 00 00 00 00 00 00 00 00 00 00 |................|
|00 00 00 00 00 00 00 64 62 00 00 00 00 00 00 4D |.......db......M|
|64 00 01 64 16 00 00 00 01 00 00 01 02 01 00 00 |d..d............|
|01 00 00 00 00 00 00 00 00 00 00 00 00 00 00 00 |................|
|00 00 00 00 00 00 00 00 00 00 00 00 00 00 00 00 |................|
|00 03 01 01 01 03 03 01 00 02 03 03 01 01 01 03 |................|
|FF 01 3C 28 0A 3C 00 00 00 03 84 00 00 00 00    |............... |
-------------------------------------------------------------------
[Server] packet : (0xAA) F_GET_ITEM  Size = 220 
|------------------------------------------------|----------------|
|00 01 02 03 04 05 06 07 08 09 0A 0B 0C 0D 0E 0F |0123456789ABCDEF|
|------------------------------------------------|----------------|
|00 D9 AA 01 00 00 00 01 F4 00 00 03 2E 56 22 B9 |.............V".|
|00 00 00 00 00 00 00 00 00 24 00 00 00 00 00 01 |.........$......|
|00 00 00 00 00 00 00 00 00 00 00 00 00 00 09 C4 |................|
|00 0B 00 00 00 00 00 00 00 00 00 00 00 00 09 57 |...............W|
|61 72 20 43 72 65 73 74 00 00 00 00 00 00 71 50 |ar Crest......qP|
|72 6F 6F 66 20 6F 66 20 79 6F 75 72 20 76 61 6C |roof of your val|
|6F 72 20 6F 6E 20 74 68 65 20 66 69 65 6C 64 20 |or on the field |
|6F 66 20 62 61 74 74 6C 65 2E 20 54 68 65 73 65 |of battle. These|
|20 6D 61 79 20 62 65 20 75 73 65 64 20 74 6F 20 | may be used to |
|74 72 61 64 65 20 66 6F 72 20 65 71 75 69 70 6D |trade for equipm|
|65 6E 74 20 66 72 6F 6D 20 76 61 72 69 6F 75 73 |ent from various|
|20 51 75 61 72 74 65 72 6D 61 73 74 65 72 73 2E | Quartermasters.|
|01 00 00 00 03 06 00 08 01 00 00 00 00 00 00 00 |................|
|00 00 00 00 00 00 00 00 00 00 00 00             |............    |
-------------------------------------------------------------------
[Server] packet : (0x6F) F_LOCALIZED_STRING  Size = 31 
|------------------------------------------------|----------------|
|00 01 02 03 04 05 06 07 08 09 0A 0B 0C 0D 0E 0F |0123456789ABCDEF|
|------------------------------------------------|----------------|
|00 1C 6F 02 20 00 00 02 1A 00 00 00 02 01 00 0A |..o. ...........|
|57 61 72 20 43 72 65 73 74 00 01 00 02 35 00    |............... |
-------------------------------------------------------------------
[Server] packet : (0xBE) F_CHARACTER_INFO  Size = 61 
|------------------------------------------------|----------------|
|00 01 02 03 04 05 06 07 08 09 0A 0B 0C 0D 0E 0F |0123456789ABCDEF|
|------------------------------------------------|----------------|
|00 3A BE 01 12 03 00 00 F5 27 02 9E 27 03 49 27 |.:.......'..'.I'|
|24 FE 18 24 FF 1D 25 00 18 25 02 27 25 03 1D 25 |$..$..%..%.'%..%|
|04 18 25 05 27 25 07 18 25 08 18 25 09 27 25 0B |..%.'%..%..%.'%.|
|18 25 0C 27 25 12 27 38 4A 27 6C 99 00          |.............   |
-------------------------------------------------------------------
[Server] packet : (0xF1) F_CAREER_PACKAGE_UPDATE  Size = 23 
|------------------------------------------------|----------------|
|00 01 02 03 04 05 06 07 08 09 0A 0B 0C 0D 0E 0F |0123456789ABCDEF|
|------------------------------------------------|----------------|
|00 14 F1 09 01 00 0B 06 00 00 00 00 00 00 00 00 |................|
|00 17 70 00 00 2A 00                            |.......         |
-------------------------------------------------------------------
[Server] packet : (0xBE) F_CHARACTER_INFO  Size = 61 
|------------------------------------------------|----------------|
|00 01 02 03 04 05 06 07 08 09 0A 0B 0C 0D 0E 0F |0123456789ABCDEF|
|------------------------------------------------|----------------|
|00 3A BE 01 12 03 00 00 F5 27 02 9E 27 03 49 27 |.:.......'..'.I'|
|24 FE 18 24 FF 1D 25 00 18 25 02 27 25 03 1D 25 |$..$..%..%.'%..%|
|04 18 25 05 27 25 07 18 25 08 18 25 09 27 25 0B |..%.'%..%..%.'%.|
|18 25 0C 27 25 12 27 38 4A 27 6C 99 00          |.............   |
-------------------------------------------------------------------
[Server] packet : (0x44) F_ACTION_COUNTER_UPDATE  Size = 11 
|------------------------------------------------|----------------|
|00 01 02 03 04 05 06 07 08 09 0A 0B 0C 0D 0E 0F |0123456789ABCDEF|
|------------------------------------------------|----------------|
|00 08 44 01 EE 00 00 00 01 E9 00                |...........     |
-------------------------------------------------------------------
[Server] packet : (0xFB) F_INFLUENCE_UPDATE  Size = 31 
|------------------------------------------------|----------------|
|00 01 02 03 04 05 06 07 08 09 0A 0B 0C 0D 0E 0F |0123456789ABCDEF|
|------------------------------------------------|----------------|
|00 1C FB 00 70 00 00 00 00 03 0F 10 10 50 61 73 |....p........Pas|
|73 77 61 74 63 68 20 43 61 73 74 6C 65 00 00    |............... |
-------------------------------------------------------------------
[Server] packet : (0xAA) F_GET_ITEM  Size = 220 
|------------------------------------------------|----------------|
|00 01 02 03 04 05 06 07 08 09 0A 0B 0C 0D 0E 0F |0123456789ABCDEF|
|------------------------------------------------|----------------|
|00 D9 AA 01 00 00 00 01 F4 00 00 03 2E 56 22 B9 |.............V".|
|00 00 00 00 00 00 00 00 00 24 00 00 00 00 00 01 |.........$......|
|00 00 00 00 00 00 00 00 00 00 00 00 00 00 09 C4 |................|
|00 0C 00 00 00 00 00 00 00 00 00 00 00 00 09 57 |...............W|
|61 72 20 43 72 65 73 74 00 00 00 00 00 00 71 50 |ar Crest......qP|
|72 6F 6F 66 20 6F 66 20 79 6F 75 72 20 76 61 6C |roof of your val|
|6F 72 20 6F 6E 20 74 68 65 20 66 69 65 6C 64 20 |or on the field |
|6F 66 20 62 61 74 74 6C 65 2E 20 54 68 65 73 65 |of battle. These|
|20 6D 61 79 20 62 65 20 75 73 65 64 20 74 6F 20 | may be used to |
|74 72 61 64 65 20 66 6F 72 20 65 71 75 69 70 6D |trade for equipm|
|65 6E 74 20 66 72 6F 6D 20 76 61 72 69 6F 75 73 |ent from various|
|20 51 75 61 72 74 65 72 6D 61 73 74 65 72 73 2E | Quartermasters.|
|01 00 00 00 03 06 00 08 01 00 00 00 00 00 00 00 |................|
|00 00 00 00 00 00 00 00 00 00 00 00             |............    |
-------------------------------------------------------------------
[Server] packet : (0x6F) F_LOCALIZED_STRING  Size = 26 
|------------------------------------------------|----------------|
|00 01 02 03 04 05 06 07 08 09 0A 0B 0C 0D 0E 0F |0123456789ABCDEF|
|------------------------------------------------|----------------|
|00 17 6F 00 00 00 00 05 C7 00 00 00 01 01 00 0A |..o.............|
|57 61 72 20 43 72 65 73 74 00                   |..........      |
-------------------------------------------------------------------